OMO_far_east_development_category = {
	
	 ##PHASE 1 
	
	OMO_international_charity_mission = {
		
		icon = GFX_decision_generic_shake_hands
		cost = 10
		days_remove = 90
		
		fire_only_once = yes
		
		remove_effect = {
			custom_effect_tooltip = improve_poverty_small
			add_to_variable = { poverty_monthly_change = 0.01 }
			custom_effect_tooltip = OMO_add_extra_misc_income_tt
			add_to_variable = { OMO_misc_income_modifier = 0.05 }
			if = {
				limit = {
					NOT = {
						has_dynamic_modifier = { modifier = OMO_humanitarian_aid }
					}
				}
				add_dynamic_modifier = { modifier = OMO_humanitarian_aid }
			}
		}
		
	}
	
	OMO_seek_humanitarian_aid = {
		
		icon = GFX_decision_humanitarian_aid_increase
		cost = 10
		days_remove = 90
		
		fire_only_once = yes
		
		remove_effect = {
			custom_effect_tooltip = improve_poverty_small
			add_to_variable = { poverty_monthly_change = 0.01 }
			custom_effect_tooltip = OMO_add_extra_monthly_pop_10_tt
			add_to_variable = { OMO_aid_monthly_population_modifier = 0.1 }
			if = {
				limit = {
					NOT = {
						has_dynamic_modifier = { modifier = OMO_humanitarian_aid }
					}
				}
				add_dynamic_modifier = { modifier = OMO_humanitarian_aid }
			}
		}
		
	}
	
	OMO_expand_port_of_magadan = {
		
		icon = GFX_decision_shipyard
		cost = 25
		days_remove = 180
		
		fire_only_once = yes
		
		available = {
			owns_state = 562
		}
		
		remove_effect = {
			562 = {
				add_extra_state_shared_building_slots = 1
				
				add_building_construction = {
					type = naval_base 
					level = 1
					instant_build = yes
					province = 12683
				}
				
				add_building_construction = {
					type = dockyard
					level = 1
					instant_build = yes
				}
				set_temp_variable = { temp_state_value_addition = 0.05 }
				econ_state_value_change_addition_specified_state = yes
			}
			set_country_flag = OMO_development_phase_2
		}
		
	}
	
	OMO_golden_domes_of_blagoveshchensk = {
		
		icon = GFX_decision_mining
		cost = 20
		days_remove = 180
		
		fire_only_once = yes
		
		available = {
			owns_state = 1364
			owns_state = 561
		}
		
		remove_effect = {
			561 = {
				set_temp_variable = { temp_state_value_addition = 0.2 }
				econ_state_value_change_addition_specified_state = yes
			}
			TNO_improve_industrial_expertise_low = yes
		}
		
	}
	
	 ##PHASE 2 
	
	OMO_expand_the_aid_mission = {
		
		icon = GFX_decision_humanitarian_aid_increase
		cost = 10
		days_remove = 100
		
		visible = {
			has_country_flag = OMO_development_phase_2
			NOT = {
				has_decision = OMO_golden_domes_of_blagoveshchensk
				has_decision = OMO_seek_humanitarian_aid
				has_decision = OMO_international_charity_mission
			}
		}
		
		fire_only_once = yes
		
		remove_effect = {
			custom_effect_tooltip = improve_poverty_small
			add_to_variable = { poverty_monthly_change = 0.01 }
			custom_effect_tooltip = OMO_add_extra_monthly_pop_5_tt
			add_to_variable = { OMO_aid_monthly_population_modifier = 0.05 }
			TNO_improve_unemployment_policy_effectiveness_low = yes
		}
		
	}
	
	OMO_holy_icons = {
		
		icon = GFX_decision_holy_icons
		cost = 20
		days_remove = 120
		
		visible = {
			has_country_flag = OMO_development_phase_2
			NOT = {
				has_decision = OMO_golden_domes_of_blagoveshchensk
				has_decision = OMO_seek_humanitarian_aid
				has_decision = OMO_international_charity_mission
			}
		}
		
		fire_only_once = yes
		
		remove_effect = {
			add_ideas = OMO_holy_icons_misc_income
			561 = {
				set_temp_variable = { temp_state_value_addition = 0.05 }
				econ_state_value_change_addition_specified_state = yes
			}
			562 = {
				set_temp_variable = { temp_state_value_addition = 0.05 }
				econ_state_value_change_addition_specified_state = yes
			}
			644 = {
				set_temp_variable = { temp_state_value_addition = 0.05 }
				econ_state_value_change_addition_specified_state = yes
			}
		}
		
	}
	
	OMO_steel_for_the_forges = {
		
		icon = GFX_decision_mining
		cost = 20
		days_remove = 120
		
		visible = {
			has_country_flag = OMO_development_phase_2
			NOT = {
				has_decision = OMO_golden_domes_of_blagoveshchensk
				has_decision = OMO_seek_humanitarian_aid
				has_decision = OMO_international_charity_mission
			}
		}
		
		fire_only_once = yes
		
		remove_effect = {
			add_resource = {
				type = steel
				amount = 5
				state = 561
			}
			add_resource = {
				type = steel
				amount = 10
				state = 574
			}
			
			561 = {
				add_building_construction = {
					type = infrastructure
					level = 1
					instant_build = yes
				}
				set_temp_variable = { temp_state_value_addition = 0.075 }
				econ_state_value_change_addition_specified_state = yes
			}
			
			574 = {
				add_building_construction = {
					type = infrastructure
					level = 1
					instant_build = yes
				}
				set_temp_variable = { temp_state_value_addition = 0.075 }
				econ_state_value_change_addition_specified_state = yes
			}
		}
		
	}
	
	OMO_magadans_old_tricks = {
		
		icon = GFX_decision_generic_money
		cost = 75
		days_remove = 90
		
		visible = {
			has_country_flag = OMO_development_phase_2
			NOT = {
				has_decision = OMO_golden_domes_of_blagoveshchensk
				has_decision = OMO_seek_humanitarian_aid
				has_decision = OMO_international_charity_mission
				has_decision = OMO_expand_the_aid_mission
				has_decision = OMO_holy_icons
				has_decision = OMO_steel_for_the_forges		
			}
		}
		
		available = {
			has_completed_focus = OMO_the_three_temptations_of_the_sinner
		}
		
		fire_only_once = yes
		
		remove_effect = {
			set_country_flag = OMO_fst_sinner
			add_popularity = {
				ideology = communist
				popularity = 0.02
			}
			562 = {
				set_temp_variable = { state_value_multiplier_temp = 1.02 }
				econ_state_value_change_multiply_specified_state = yes
			}
		}
		
	}
	
	OMO_a_harbor_worthy_of_the_lord = {
		
		icon = GFX_decision_shipyard
		cost = 35
		days_remove = 210
		
		visible = {
			has_country_flag = OMO_development_phase_2
			NOT = {
				has_decision = OMO_golden_domes_of_blagoveshchensk
				has_decision = OMO_seek_humanitarian_aid
				has_decision = OMO_international_charity_mission
				has_decision = OMO_expand_the_aid_mission
				has_decision = OMO_holy_icons
				has_decision = OMO_steel_for_the_forges		
			}
		}
		
		fire_only_once = yes
		
		remove_effect = {
			set_country_flag = OMO_development_phase_3
			562 = {
				add_extra_state_shared_building_slots = 1
				
				add_building_construction = {
					type = naval_base 
					level = 2
					instant_build = yes
					province = 12683
				}
				
				add_building_construction = {
					type = dockyard
					level = 1
					instant_build = yes
				}
				
				add_building_construction = {
					type = infrastructure
					level = 1
					instant_build = yes
				}
				set_temp_variable = { temp_state_value_addition = 0.05 }
				econ_state_value_change_addition_specified_state = yes
			}
		}	
	}
	
	 ##PHASE 3
	
	OMO_a_safe_haven = {
		
		icon = GFX_decision_generic_shake_hands
		cost = 25
		days_remove = 120
		
		visible = {
			has_country_flag = OMO_development_phase_3
		}
		
		fire_only_once = yes
		
		remove_effect = {
			add_ideas = OMO_shelter_of_the_faithful
			custom_effect_tooltip = improve_poverty_medium
			add_to_variable = { poverty_monthly_change = 0.04 }
			TNO_improve_immigration_policy_effectiveness_med = yes
		}	
	}
	
	OMO_expand_fraternal_militias = {
		
		icon = GFX_decision_generic_military_parade
		cost = 15
		days_remove = 120
		
		visible = {
			has_country_flag = OMO_development_phase_3
		}
		
		fire_only_once = yes
		
		remove_effect = {
			add_ideas = OMO_expanding_the_fraternal_militias
			add_equipment_to_stockpile = {
				type = infantry_equipment
				amount = 1000
			}
			add_war_support = 0.1
			custom_effect_tooltip = improve_poverty_small
			add_to_variable = { poverty_monthly_change = 0.01 }
			TNO_improve_conscription_policy_effectiveness_med = yes
		}	
	}
	
	OMO_gods_light_from_irkutsk = {
		
		icon = GFX_decision_generic_power
		cost = 35
		days_remove = 240
		
		visible = {
			has_country_flag = OMO_development_phase_3
		}
		
		fire_only_once = yes
		
		remove_effect = {
			566 = {
				add_building_construction = {
					type = infrastructure
					level = 1
					instant_build = yes
				}
				add_building_construction = {
					type = thermoelectric_plant
					level = 1
					instant_build = yes
				}
			}
			set_temp_variable = { temp_econ_GDP_boost_percentage = 0.025 }
			econ_GDP_boost_once_percentage = yes
			TNO_improve_industrial_equipment_low = yes
		}	
	}
	
	OMO_expand_sudoplatovs_private_army = {
		
		icon = GFX_decision_generic_military_parade
		cost = 35
		days_remove = 240
		
		visible = {
			has_country_flag = OMO_development_phase_3
		   has_country_flag = OMO_fst_sinner
		}
		
		available = {
			has_completed_focus = OMO_leash_the_wolves
		}
		
		fire_only_once = yes
		
		complete_effect = {
			set_temp_variable = { temp_econ_spending_amount = 0.1 }
			econ_spend_money_once_effect_raw_money = yes
		}
		
		remove_effect = {
			hidden_effect = {
				load_oob = OMO_FST_development
			}
			custom_effect_tooltip = OMO_FST_OOB
			add_popularity = {
				ideology = communist
				popularity = 0.02
			}
			TNO_improve_army_professionalism_med = yes
			TNO_worsen_military_supervision_policy_effectiveness_med = yes
		}	
	}
	
	OMO_unrestricted_trade = {
		
		icon = GFX_decision_handshake
		cost = 100
		days_remove = 90
		
		visible = {
			has_country_flag = OMO_development_phase_3
			has_country_flag = OMO_fst_sinner
		}
		
		available = {
			has_completed_focus = OMO_discipline_creates_holiness
		}
		
		fire_only_once = yes
		
		remove_effect = {
			add_popularity = {
				ideology = communist
				popularity = 0.02
			}
			add_war_support = 0.1
			562 = {
				set_temp_variable = { state_value_multiplier_temp = 1.025 }
				econ_state_value_change_multiply_specified_state = yes
			}
			TNO_worsen_trade_laws_policy_effectiveness_med = yes
		}	
	}
	
	OMO_industrial_contacts = {
		
		icon = GFX_decision_factory_generic_blue
		cost = 100
		days_remove = 90
		
		visible = {
			has_country_flag = OMO_development_phase_3
			has_country_flag = OMO_fst_sinner
		}
		
		available = {
			has_completed_focus = OMO_and_yet_so_many_could_be_saved
		}
		
		fire_only_once = yes
		
		remove_effect = {
			add_popularity = {
				ideology = communist
				popularity = 0.02
			}
			hidden_effect = {
				add_ideas = OMO_FST_free_pus
			}
			custom_effect_tooltip = OMO_FST_free_pus_tt
			562 = {
				set_temp_variable = { temp_state_value_addition = 0.2 }
				econ_state_value_change_addition_specified_state = yes
			}
			566 = {
				set_temp_variable = { temp_state_value_addition = 0.2 }
				econ_state_value_change_addition_specified_state = yes
			}
			TNO_improve_industrial_expertise_low = yes
			TNO_worsen_income_taxation_policy_effectiveness_low = yes
		}	
	}
	
	OMO_the_spires_of_tomsk = {
		
		icon = GFX_decision_generic_construction
		cost = 40
		days_remove = 120
		
		visible = {
			has_country_flag = OMO_development_phase_3
		
		}
		
		available = {
			custom_trigger_tooltip = {
				has_country_flag = RUS_superregional_stage
				tooltip = "We control Siberia"
            }
		}
		
		fire_only_once = yes
		
		remove_effect = {
			add_stability = 0.1
			578 = {
				add_building_construction = {
					type = infrastructure
					level = 1
					instant_build = yes
				}
			}
			set_country_flag = OMO_development_phase_4
		}	
	}
	
	 ##PHASE 4
	
	OMO_christian_tourism = {
		
		icon = GFX_decision_christian_tourism
		cost = 30
		days_remove = 90
		
		visible = {
			has_country_flag = OMO_development_phase_4
		}
		
		fire_only_once = yes
		
		remove_effect = {
			add_stability = -0.05
			set_temp_variable = { temp_econ_GDP_boost_percentage = 0.01 }
			econ_GDP_boost_once_percentage = yes
		}	
	}
	
	OMO_teach_christian_values = {
		
		icon = GFX_decision_generic_education
		cost = 30
		days_remove = 90
		
		visible = {
			has_country_flag = OMO_development_phase_4
		}
		
		fire_only_once = yes
		
		remove_effect = {
			custom_effect_tooltip = improve_poverty_small
			add_to_variable = { poverty_monthly_change = 0.02 }
			TNO_improve_academic_base_low = yes
			TNO_improve_education_policy_effectiveness_low = yes
			TNO_improve_religious_rights_policy_effectiveness_med = yes
		}	
	}
	
}