on_actions = {

	# called when an operative performing an offensive mission in a country
	# has been spotted
	on_operative_on_mission_spotted = {

		effect = {
            # SCOPE  the operative
            # ROOT   the country the operative was performing its mission in
            # FROM   the country the operative is operating for

			# base values
            set_temp_variable = {
                var = capture_chance
                value = 90
            }
            set_temp_variable = {
                var = kill_chance
                value = 10
            }			

            # nullify kill chance for some missions
            if = {
                limit = {
                    OR = {
                        operative_leader_mission = control_trade
                        # operative_leader_mission = diplomatic_pressure
                    }
                }
                set_temp_variable = {
                    var = kill_chance
                    value = 0
                }
            }


            random_list = {

                temp_var:capture_chance = {
                   	capture_operative = {
                   	    captured_by = ROOT
                   	}  	
                }
                temp_var:kill_chance = {
                    kill_operative = {
                        killed_by = ROOT
                    }
                }

            }

        }
        
    }

	on_operative_captured = {
		effect = {
			# SCOPE  the operative
			# ROOT   the country the operative was performing its mission in
			# FROM   the country the operative is operating for
			operative_leader_event = {
				id = operative_events.6
				recipient = ROOT
				originator = ROOT
				set_from_from = ROOT
				set_from = FROM
				days = 1
			}
			random_list = {
				log = yes
				90 = { #regular
					operative_leader_event = {
						id = operative_events.1
						set_from_from = ROOT
					}
				}
				10 = { #operative turned
					modifier = {
						has_trait = operative_tough
						factor = 0 #tough operatives never get turned
					}
					modifier = {
						has_trait = operative_double_agent
						factor = 0 #no tripple agents please
					}
					turn_operative = { turned_by = ROOT }
					# ensure the operative has the nationality of the country he is coming from
					add_nationality = FROM
					operative_leader_event = {
            	    	id = operative_events.5
						set_from_from = FROM #tells the event which nationality to add
            		}
            	}
			}
		}
	}

	on_operative_death = {
		effect = {
			# SCOPE  the operative
			# ROOT   the killer country (optional)
			# FROM   the country the operative is operating for
			if = {
				limit = {
					country_exists = ROOT
				}

				# operative killed by a country, likelly while on mission
				operative_leader_event = {
					id = operative_events.3
					set_from_from = ROOT
				}
			}
			else = {
				# other cause of death
			}
			
		}
	}
	
	# SCOPE_UNIT_LEADER [
	#	ROOT, FROM
	#	FROM.FROM : SCOPE_STATE ( will only be set if the operation has a specific selection_target )
	# ]
	on_operative_detected_during_operation = {
		effect = {
			random_list = {
				45 = {
					force_operative_leader_into_hiding = 45
					operative_leader_event = {
						id = operative_events.2
						set_from_from = FROM
					}
				}
				25 = {
					capture_operative = {
						captured_by = FROM
					}
				}
				25 = {
					harm_operative_leader = 90
					operative_leader_event = {
						id = operative_events.4
						set_from_from = FROM
					}
				}
				5 = {
					kill_operative = {
						killed_by = FROM
					}
				}
			}
		}
	}

	on_operation_completed = {
		effect = {
			# same scope setup as in operation outcome:
			# THIS: the operation
			# ROOT: the initiating country
			# FROM: the target country
			#log = "This: [This.GetName] From: [From.GetName] Root: [Root.GetName]"
			
			if = {
				limit = {
					ROOT = { has_country_flag = just_freed_operative_flag }
				}
				every_operative = {
					if = {
						limit = {
							NOT = { has_trait = operative_escape_artist }
						}
						random_list = {
							15 = { add_unit_leader_trait = operative_escape_artist }
							85 = {}
						}
					}
				}
				ROOT = { clr_country_flag = just_freed_operative_flag }
			}
			every_operative = { #add target nationality if linguist
				if = {
					limit = {
						has_trait = operative_linguist
						NOT = { operative_leader_mission = no_mission }
						NOT = { has_nationality = FROM }
					}
					random_list = {
						20 = { add_nationality = FROM }
						80 = {}
					}
				}
			}
		}
	}

	on_weekly = {
		effect = {
			if = {
				limit = { 
					has_intelligence_agency = yes
					is_ai = yes
				}
				update_operation_ai = yes
			}
		}
	}

}
