name="The New Order: Last Days of Europe"
version="1.2.1a"
supported_version="1.11.*"

tags={
	"Gameplay"
	"Map"
	"Alternative History"
}
picture="thumbnail.png"
remote_file_id="2438003901"

replace_path="events"
replace_path="common/abilities"
replace_path="common/bookmarks"
replace_path="common/on_actions"
replace_path="common/ai_focuses"
replace_path="common/ai_strategy"
replace_path="common/country_leader"
replace_path="common/ai_equipment"
replace_path="common/ai_strategy_plans"
replace_path="common/ai_peace"
replace_path="common/autonomous_states"
replace_path="common/countries"
replace_path="common/characters"
replace_path="common/country_tags"
replace_path="common/characters"
replace_path="common/operations"
replace_path="common/national_focus"
replace_path="common/decisions"
replace_path="common/decisions/categories"
replace_path="common/scripted_effects"
replace_path="common/scripted_triggers"
replace_path="common/scripted_localisation"
replace_path="common/technologies"
replace_path="common/technology_sharing"
replace_path="common/ideas"
replace_path="common/units/names"
replace_path="common/units/names_divisions"
replace_path="common/units/names_ships"
replace_path="common/units/names_railway_guns"
replace_path="gfx/flags"
replace_path="gfx/train_gfx_database"
replace_path="history/states"
replace_path="history/units"
replace_path="history/countries"
replace_path="history/general"
replace_path="map/strategicregions"
replace_path="tests"
replace_path="tutorial"