
strategic_region={
	id=136
	name="STRATEGICREGION_136"
	provinces={
		1223 1229 1239 1243 1272 1276 1287 1303 1309 1312 1331 1360 1363 1375 1382 1391 1402 1418 1591 1662 1668 1680 1694 1721 1749 1818 1840 1864 1879 4224 4232 4238 4250 4277 4281 4300 4309 4333 4337 4340 4369 4374 4389 4492 4578 4581 4595 4636 4638 4651 4661 4670 4674 4685 4686 4764 4773 4845 4850 4867 7233 7243 7298 7317 7326 7332 7335 7350 7354 7357 7383 7392 7405 7407 7425 7429 7486 7507 7556 7597 7600 7657 7708 7711 7741 7777 7784 7795 7856 7874 7890 10140 10146 10148 10161 10168 10179 10202 10211 10218 10220 10235 10239 10268 10275 10277 10284 10290 10292 10295 10308 10312 10353 10366 10452 10506 10508 10547 10550 10584 10603 10610 10619 10630 10633 10653 10680 12111 12115 12121 12139 12143 12152 12170 12177 12185 12194 12198 12229 12257 12266 12285 12329 12340 12385 12397 12427 12471 12487 12529 12564 12594 12616 12619 12635 12640 12658 12662 13148 13149 13151 13197 13257 13260 13261 13302 
	}
	weather={
		period={
			between={ 0.0 30.0 }
			temperature={ -22.0 2.0 }
			no_phenomenon=0.250
			rain_light=0.100
			rain_heavy=0.050
			snow=0.400
			blizzard=0.200
			arctic_water=0.000
			mud=1.300
			sandstorm=0.000
			min_snow_level=0.000
		}
		period={
			between={ 0.1 27.1 }
			temperature={ -23.0 5.0 }
			no_phenomenon=0.300
			rain_light=0.100
			rain_heavy=0.050
			snow=0.400
			blizzard=0.150
			arctic_water=0.000
			mud=1.300
			sandstorm=0.000
			min_snow_level=0.000
		}
		period={
			between={ 0.2 30.2 }
			temperature={ -12.0 14.0 }
			no_phenomenon=0.400
			rain_light=0.150
			rain_heavy=0.050
			snow=0.300
			blizzard=0.100
			arctic_water=0.000
			mud=1.300
			sandstorm=0.000
			min_snow_level=0.000
		}
		period={
			between={ 0.3 29.3 }
			temperature={ 3.0 20.0 }
			no_phenomenon=0.500
			rain_light=0.450
			rain_heavy=0.100
			snow=0.150
			blizzard=0.000
			arctic_water=0.000
			mud=1.300
			sandstorm=0.000
			min_snow_level=0.000
		}
		period={
			between={ 0.4 30.4 }
			temperature={ 10.0 27.0 }
			no_phenomenon=0.500
			rain_light=0.400
			rain_heavy=0.100
			snow=0.000
			blizzard=0.000
			arctic_water=0.000
			mud=1.300
			sandstorm=0.000
			min_snow_level=0.000
		}
		period={
			between={ 0.5 29.5 }
			temperature={ 16.0 33.0 }
			no_phenomenon=0.500
			rain_light=0.250
			rain_heavy=0.150
			snow=0.000
			blizzard=0.000
			arctic_water=0.000
			mud=1.300
			sandstorm=0.000
			min_snow_level=0.000
		}
		period={
			between={ 0.6 30.6 }
			temperature={ 19.0 34.0 }
			no_phenomenon=0.500
			rain_light=0.250
			rain_heavy=0.150
			snow=0.000
			blizzard=0.000
			arctic_water=0.000
			mud=1.300
			sandstorm=0.000
			min_snow_level=0.000
		}
		period={
			between={ 0.7 30.7 }
			temperature={ 18.0 33.0 }
			no_phenomenon=0.500
			rain_light=0.250
			rain_heavy=0.150
			snow=0.000
			blizzard=0.000
			arctic_water=0.000
			mud=1.300
			sandstorm=0.000
			min_snow_level=0.000
		}
		period={
			between={ 0.8 29.8 }
			temperature={ 10.0 27.0 }
			no_phenomenon=0.500
			rain_light=0.250
			rain_heavy=0.150
			snow=0.000
			blizzard=0.000
			arctic_water=0.000
			mud=1.300
			sandstorm=0.000
			min_snow_level=0.000
		}
		period={
			between={ 0.9 30.9 }
			temperature={ 1.0 18.0 }
			no_phenomenon=0.450
			rain_light=0.200
			rain_heavy=0.100
			snow=0.150
			blizzard=0.000
			arctic_water=0.000
			mud=1.300
			sandstorm=0.000
			min_snow_level=0.000
		}
		period={
			between={ 0.10 29.10 }
			temperature={ -10.0 11.0 }
			no_phenomenon=0.350
			rain_light=0.200
			rain_heavy=0.150
			snow=0.200
			blizzard=0.100
			arctic_water=0.000
			mud=1.300
			sandstorm=0.000
			min_snow_level=0.000
		}
		period={
			between={ 0.11 30.11 }
			temperature={ -18.0 5.0 }
			no_phenomenon=0.200
			rain_light=0.130
			rain_heavy=0.070
			snow=0.450
			blizzard=0.150
			arctic_water=0.000
			mud=1.300
			sandstorm=0.000
			min_snow_level=0.000
		}
	}
}
