characters = {
	RWA_Kigeli_V = {
		name = RWA_Kigeli_V
		portraits = {
			civilian = { large = "gfx/leaders/RWA/Portrait_Rwanda_Kigeli_V.dds" }
		}
		country_leader = {
			#desc = "POLITICS_KIGELI_V_DESC"
			expire = "1999.1.23"
			ideology = despotism_absolute_monarchy_subtype
			traits = { }
			id = -1
		}
	}
	RWA_Gregoire_Kayibanda = {
		name = RWA_Gregoire_Kayibanda
		portraits = {
			civilian = { 
				large = "gfx/leaders/RWA/Portrait_Rwanda_Gregoire_Kayibanda.dds" 
				small = "GFX_idea_RWA_Gregoire_Kayibanda"
			}
		}
		country_leader = {
			#desc = "POLITICS_GREGOIRE_KAYIBANDA_DESC"
			expire = "1999.1.23"
			ideology = fascism_revolutionary_nationalism_subtype
			traits = { }
			id = -1
		}
		advisor = {
			slot = economy_minister
			idea_token = RWA_Gregoire_Kayibanda_eco
			allowed = { original_tag = RWA }
			traits = {
				economy_minister
				eco_corrupt_kleptocrat
			}
			ledger = civilian
			cost = -1
			removal_cost = -1
			ai_will_do = { factor = 0 }
		}
	}
	RWA_Dominique_Mbonyumutwa = {
		name = RWA_Dominique_Mbonyumutwa
		portraits = {
			civilian = { 
				large = "gfx/leaders/RWA/Portrait_Rwanda_Dominique_Mbonyumutwa.dds"
				small = "GFX_idea_RWA_Dominique_Mbonyumutwa" 
			}
		}
		country_leader = {
			#desc = "POLITICS_DOMINIQUE_MBONYUMUTWA_DESC"
			expire = "1999.1.23"
			ideology = liberal_democracy_subtype
			traits = { }
			id = -1
		}
		advisor = {
			slot = head_of_government
			idea_token = RWA_Dominique_Mbonyumutwa_hog
			allowed = { original_tag = RWA }
			traits = {
				head_of_government
				hog_utterly_corrupt
			}
			ledger = civilian
			cost = -1
			removal_cost = -1
			ai_will_do = { factor = 0 }
		}
	}
	RWA_Sylvestre_Nsanzimana = {
		name = RWA_Sylvestre_Nsanzimana
		portraits = {
			civilian = { small = "GFX_idea_RWA_Sylvestre_Nsanzimana" }
		}
		advisor = {
			slot = foreign_minister
			idea_token = RWA_Sylvestre_Nsanzimana_for
			allowed = { original_tag = RWA }
			traits = {
				foreign_minister
				for_the_cloak_n_dagger_schemer
			}
			ledger = civilian
			cost = -1
			removal_cost = -1
			ai_will_do = { factor = 0 }
		}
	}
	RWA_Juvenal_Habyarimana = {
		name = RWA_Juvenal_Habyarimana
		portraits = {
			civilian = { small = "GFX_idea_RWA_Juvenal_Habyarimana" }
			army = {
				large = "gfx/leaders/RWA/Portrait_Rwanda_Juvenal_Habyarimana.dds"
				small = "GFX_idea_RWA_Juvenal_Habyarimana"
			}
		}
		field_marshal = {
		    skill = 2
		    attack_skill = 1
		    defense_skill = 2
		    planning_skill = 2
		    logistics_skill = 2
		    traits = { }
		}
		advisor = {
			slot = security_minister
			idea_token = RWA_Juvenal_Habyarimana_sec
			allowed = { original_tag = RWA }
			traits = {
				security_minister
				sec_efficient_sociopath
			}
			ledger = civilian
			cost = -1
			removal_cost = -1
			ai_will_do = { factor = 0 }
		}
	}
	RWA_Aloys_Simba = {
		name = RWA_Aloys_Simba
		portraits = {
			army = { large = "gfx/leaders/RWA/Portrait_Rwanda_Aloys_Simba.dds" }
		}
		corps_commander = {
    		skill = 2
    		attack_skill = 2
    		defense_skill = 2
    		planning_skill = 2
    		logistics_skill = 1
		    traits = { }
		}
	}
	RWA_Theoneste_Bagosora = {
		name = RWA_Theoneste_Bagosora
		portraits = {
			civilian = { large = "gfx/leaders/RWA/Portrait_Rwanda_Theoneste_Bagosora.dds" }
			army = { large = "gfx/leaders/RWA/Portrait_Rwanda_Theoneste_Bagosora.dds" }
		}
		corps_commander = {
    		skill = 1
    		attack_skill = 1
    		defense_skill = 1
    		planning_skill = 1
    		logistics_skill = 1
		    traits = { }
		}
		country_leader = {
			#desc = "POLITICS_THEONESTE_BAGOSORA_DESC"
			expire = "1999.1.23"
			ideology = ultranationalism_subtype
			traits = { }
			id = -1
		}
	}
}