characters = {
	HAU_siddiq_abubakar_iii = {
		name = HAU_siddiq_abubakar_iii
		portraits = {
			civilian = { large = "gfx/leaders/HAU/Portrait_Hausaland_Siddiq_Abubakar_III.dds" }
			army = { large = "gfx/leaders/HAU/Portrait_Hausaland_Siddiq_Abubakar_III.dds" }
		}
		field_marshal = {
			traits = { }
			skill = 1
			attack_skill = 1
			defense_skill = 1
			planning_skill = 1
			logistics_skill = 1
		}
		country_leader = {
			desc = "POLITICS_SIDDIQ_ABUBAKAR_III_DESC"
			expire = "1965.1.1"
			ideology = despotism_absolute_monarchy_subtype
			traits = { }
			id = -1
		}
	}
	HAU_shehu_shagari = {
		name = HAU_shehu_shagari
		portraits = {
			civilian = {
				large = "GFX_leader_unknown"
				small = "GFX_idea_HAU_Shehu_Shagari"
			}
			army = {
				large = "GFX_leader_unknown"
				small = "GFX_idea_HAU_Shehu_Shagari"
			}
		}
		corps_commander = {
			traits = { }
			skill = 1
			attack_skill = 1
			defense_skill = 1
			planning_skill = 1
			logistics_skill = 1
		}
		advisor = {
			slot = head_of_government
			idea_token = HAU_Shehu_Shagari_hog
			allowed = { original_tag = HAU }
			traits = {
				head_of_government
				hog_local_tyrant
			}
			ledger = civilian
			cost = -1
			removal_cost = -1
			ai_will_do = { factor = 0 }
		}
	}
	HAU_adamou_mayaki = {
		name = HAU_adamou_mayaki
		portraits = {
			civilian = { small = "GFX_idea_HAU_Adamou_Mayaki" }
		}
		advisor = {
			slot = foreign_minister
			idea_token = HAU_Adamou_Mayaki_for
			allowed = { original_tag = HAU }
			traits = {
				foreign_minister
				for_ideological_crusader
			}
			ledger = civilian
			cost = -1
			removal_cost = -1
			ai_will_do = { factor = 0 }
		}
	}
	HAU_mamadou_maidah = {
		name = HAU_mamadou_maidah
		portraits = {
			civilian = { small = "GFX_idea_HAU_Mamadou_Maidah" }
		}
		advisor = {
			slot = economy_minister
			idea_token = HAU_Mamadou_Maidah_eco
			allowed = { original_tag = HAU }
			traits = {
				economy_minister
				eco_balanced_budget_economy
			}
			ledger = civilian
			cost = -1
			removal_cost = -1
			ai_will_do = { factor = 0 }
		}
	}
	HAU_mamadou_tandja = {
		name = HAU_mamadou_tandja
		portraits = {
			civilian = {
				large = "GFX_leader_unknown"
				small = "GFX_idea_HAU_Mamadou_Tandja"
			}
			army = {
				large = "GFX_leader_unknown"
				small = "GFX_idea_HAU_Mamadou_Tandja"
			}
		}
		corps_commander = {
			traits = { }
			skill = 1
			attack_skill = 1
			defense_skill = 1
			planning_skill = 1
			logistics_skill = 1
		}
		country_leader = {
			#desc = "POLITICS_MAMADOU_TANDJA_DESC"
			expire = "1965.1.1"
			ideology = authoritarian_democracy_subtype
			traits = { }
			id = -1
		}
		advisor = {
			slot = security_minister
			idea_token = HAU_Mamadou_Tandja_sec
			allowed = { original_tag = HAU }
			traits = {
				security_minister
				sec_crime_fighter
			}
			ledger = civilian
			cost = -1
			removal_cost = -1
			ai_will_do = { factor = 0 }
		}
	}
	HAU_issoufou_saidou_djermakoye = {
		name = HAU_issoufou_saidou_djermakoye
		portraits = {
			civilian = { large = "GFX_leader_unknown" }
		}
		country_leader = {
			#desc = "POLITICS_ISSOUFOU_SAIDOU_DJERMAKOYE_DESC"
			expire = "1965.1.1"
			ideology = liberal_democracy_subtype
			traits = { }
			id = -1
		}
	}
	HAU_abubakar_tafawa_balewa = {
		name = HAU_abubakar_tafawa_balewa
		portraits = {
			civilian = { large = "GFX_leader_unknown" }
		}
		country_leader = {
			#desc = "POLITICS_ABUBAKAR_TAFAWA_BALEWA_DESC"
			expire = "1965.1.1"
			ideology = conservative_democracy_subtype
			traits = { }
			id = -1
		}
	}
	HAU_osman_nuhu_sharubutu = {
		name = HAU_osman_nuhu_sharubutu
		portraits = {
			civilian = { large = "gfx/leaders/HAU/Portrait_Hausaland_Osman_Nuhu_Sharubutu.dds" }
			army = { large = "gfx/leaders/HAU/Portrait_Hausaland_Osman_Nuhu_Sharubutu.dds" }
		}
		country_leader = {
			#desc = "POLITICS_OSMAN_NUHU_SHARUBUTU_DESC"
			expire = "1965.1.1"
			ideology = fascism_subtype
			traits = { }
			id = -1
		}
	}
	HAU_ahmadu_bello = {
		name = HAU_ahmadu_bello
		portraits = {
			army = { large = "GFX_leader_unknown" }
		}
		corps_commander = {
			traits = { }
			skill = 1
			attack_skill = 1
			defense_skill = 1
			planning_skill = 1
			logistics_skill = 1
		}
	}
}