characters = {
	ZIM_joshua_nkomo = {
		name = ZIM_joshua_nkomo
		portraits = {
			civilian = { large = "gfx/leaders/ZIM/Portrait_Zimbabwe_Joshua_Nkomo.dds" }
		}
		country_leader = {
			desc = "POLITICS_JOSHUA_NKOMO_DESC"
			expire = "1999.1.23"
			ideology = socialist_left_wing_nationalism_subtype
			traits = { }
			id = -1
		}
	}
	ZIM_Leopold_Takawira = {
		name = ZIM_Leopold_Takawira
		portraits = {
			civilian = { small = "GFX_idea_ZIM_Leopold_Takawira" }
		}
		advisor = {
			slot = head_of_government
			idea_token = ZIM_Leopold_Takawira_hog
			allowed = { original_tag = ZIM }
			traits = {
				head_of_government
				hog_local_tyrant
			}
			ledger = civilian
			cost = -1
			removal_cost = -1
			ai_will_do = { factor = 0 }
		}
		advisor = {
			slot = economy_minister
			idea_token = ZIM_Leopold_Takawira_eco
			allowed = { original_tag = ZIM }
			traits = {
				economy_minister
				eco_military_entrepreneur
			}
			ledger = civilian
			cost = -1
			removal_cost = -1
			ai_will_do = { factor = 0 }
		}
	}
	ZIM_Edgar_Tekere = {
		name = ZIM_Edgar_Tekere
		portraits = {
			civilian = { small = "GFX_idea_ZIM_Edgar_Tekere" }
		}
		advisor = {
			slot = foreign_minister
			idea_token = ZIM_Edgar_Tekere_for
			allowed = { original_tag = ZIM }
			traits = {
				foreign_minister
				for_general_staffer
			}
			ledger = civilian
			cost = -1
			removal_cost = -1
			ai_will_do = { factor = 0 }
		}
	}
	ZIM_robert_mugabe = {
		name = ZIM_robert_mugabe
		portraits = {
			civilian = { 
				large = "gfx/leaders/ZIM/Portrait_Zimbabwe_Robert_Mugabe.dds" 
				small = "GFX_idea_ZIM_Robert_Mugabe"
			}
		}
		country_leader = {
			desc = "POLITICS_ROBERT_MUGABE_DESC"
			expire = "1999.1.1"
			ideology = ultranationalism_ultramilitarism_subtype
			traits = { }
			id = -1
		}
		advisor = {
			slot = security_minister
			idea_token = ZIM_Robert_Mugabe_sec
			allowed = { original_tag = ZIM }
			traits = {
				security_minister
				sec_back_stabber
			}
			ledger = civilian
			cost = -1
			removal_cost = -1
			ai_will_do = { factor = 0 }
		}
	}
}