characters = {
	# Niger
	NGR_Hamani_Diori = {
		name = NGR_Hamani_Diori
		portraits = {
			civilian = {
				large = "gfx/leaders/NGR/Portrait_Niger_Hamani_Diori.dds"
			}
		}
		country_leader = {
			expire = "1990.1.1"
			ideology = authoritarian_democracy_controlled_democracy_subtype
			traits = { }
			id = -1
		}
	}
}