characters = {
	CDL_Beyers_Naude = {
		name = CDL_Beyers_Naude
		portraits = { 
			civilian = {
				large = "gfx/leaders/CDL/Portrait_South_Africa_Beyers_Naude.dds"
			}
		}
		country_leader = {
			desc = "POLITICS_BEYERS_NAUDE_DESC"
			ideology = conservative_democracy_subtype
			expire = "1999.1.23"
			id = -1
		}
	}
	CDL_Joe_Slovo = {
		name = CDL_Joe_Slovo
		portraits = { 
			army = {
				large = "gfx/leaders/CDL/Portrait_Carnarvon_Joe_Slovo.dds"
			}
		}
		field_marshal = {
			traits = {  }
			skill = 1
			attack_skill = 1
			defense_skill = 1
			planning_skill = 1
			logistics_skill = 1
		}
	}
	CDL_Thabo_Mbeki = {
		name = CDL_Thabo_Mbeki
		portraits = { 
			army = {
				large = "gfx/leaders/CDL/Portrait_Carnarvon_Thabo_Mbeki.dds"
			}
		}
		corps_commander = {
			traits = {  }
			skill = 3
			attack_skill = 3
			defense_skill = 2
			planning_skill = 3
			logistics_skill = 2
		}
	}
	CDL_Nelson_Mandela = {
		name = CDL_Nelson_Mandela
		portraits = { 
			army = {
				large = "gfx/leaders/CDL/Portrait_Carnarvon_Nelson_Mandela.dds"
			}
		}
		corps_commander = {
			traits = {  }
			skill = 3
			attack_skill = 1
			defense_skill = 1
			planning_skill = 3
			logistics_skill = 2
		}
	}
}