characters = {
	ZAR_Seyni_Kountche = {
		name = ZAR_Seyni_Kountche
		portraits = {
			civilian = {
				large = "gfx/leaders/ZAR/Portrait_Zarmaland_Seyni_Kountche.dds"
				small = "GFX_idea_ZAR_Seyni_Kountche"
			}
			army = {
				large = "gfx/leaders/ZAR/Portrait_Zarmaland_Seyni_Kountche.dds"
				small = "GFX_idea_ZAR_Seyni_Kountche"
			}
		}
		country_leader = {
			desc = "POLITICS_SEYNI_KOUNTCHE_DESC"
			expire = "1994.4.20"
			ideology = despotism_warlordism_subtype
			id = -1
		}
		advisor = {
			slot = head_of_government
			idea_token = ZAR_Seyni_Kountche_hog
			allowed = { original_tag = ZAR }
			traits = {
				head_of_government
				hog_local_tyrant
			}
			ledger = civilian
			cost = -1
			removal_cost = -1
			ai_will_do = { factor = 0 }
		}
		advisor = {
			slot = foreign_minister
			idea_token = ZAR_Seyni_Kountche_for
			allowed = { original_tag = ZAR }
			traits = {
				foreign_minister
				for_iron_fisted_brute
			}
			ledger = civilian
			cost = -1
			removal_cost = -1
			ai_will_do = { factor = 0 }
		}
		advisor = {
			slot = economy_minister
			idea_token = ZAR_Seyni_Kountche_eco
			allowed = { original_tag = ZAR }
			traits = {
				economy_minister
				eco_military_entrepreneur
			}
			ledger = civilian
			cost = -1
			removal_cost = -1
			ai_will_do = { factor = 0 }
		}
		field_marshal = {
			traits = {  }
			skill = 1
    		attack_skill = 1
    		defense_skill = 1
    		planning_skill = 1
    		logistics_skill = 1
		}
	}
	ZAR_Ali_Saibou = {
		name = ZAR_Ali_Saibou
		portraits = {
			civilian = {
				small = "GFX_idea_ZAR_Ali_Saibou_sec"
			}
			army = {
				large = "gfx/leaders/ZAR/Portrait_Zarmaland_Ali_Saibou.dds"
				small = "GFX_idea_ZAR_Ali_Saibou_sec"
			}
		}
		advisor = {
			slot = security_minister
			idea_token = ZAR_Ali_Saibou_sec
			allowed = { original_tag = ZAR }
			traits = {
				security_minister
				sec_prince_of_terror
			}
			ledger = civilian
			cost = -1
			removal_cost = -1
			ai_will_do = { factor = 0 }
		}
		corps_commander = {
			traits = {  }
    		skill = 1
    		attack_skill = 1
    		defense_skill = 1
    		planning_skill = 1
    		logistics_skill = 1
		}
	}
}