characters = {
	## Leaders ##
	CHL_Jorge_Alessandri = {
		name = CHL_Jorge_Alessandri
		portraits = { 
			civilian = { 
				large = "gfx/leaders/CHL/Portrait_Chile_Jorge_Alessandri.dds" 
			} 
		}
		country_leader = {
			desc = "POLITICS_ALESSANDRI_DESC"
			expire = "1984.9.4"
			ideology = liberal_democracy_subtype
			traits = { el_paleta_latin }
			id = -1
		}
	}
	CHL_Disorganized_Radicals = {
		name = CHL_Disorganized_Radicals
		portraits = { 
			civilian = { 
				large = "gfx/leaders/CHL/Portrait_Chile_Jorge_Alessandri.dds" 
			} 
		}
		country_leader = {
			desc = "POLITICS_ALESSANDRI_DESC"
			expire = "1984.9.4"
			ideology = social_democracy_subtype
			traits = { el_paleta_latin }
			id = -1
		}
	}

	CHL_Sotero_del_Rio = {
		name = CHL_Sotero_del_Rio
		portraits = { 
			civilian = { 
				#large = "gfx/leaders/CHL/Portrait_Chile_Sotero_del_Rio.dds" 
				small = "GFX_idea_CHL_Sotero_del_Rio_minister"
			} 
		}
		advisor = {
			slot = head_of_government
			idea_token = CHL_Sotero_del_Rio_hog
			allowed = { original_tag = CHL }
			traits = {
				head_of_government
			}
			ledger = civilian
			cost = -1
			removal_cost = -1
			ai_will_do = { factor = 0 }
		}
	}

	CHL_Arturo_Maschke = {
		name = CHL_Arturo_Maschke
		portraits = { 
			civilian = { 
				#large = "gfx/leaders/CHL/Portrait_Chile_Arturo_Maschke.dds"
				small = "GFX_idea_CHL_Arturo_Maschke_minister"
			} 
		}
		advisor = {
			slot = foreign_minister
			idea_token = CHL_Arturo_Maschke_for
			allowed = { original_tag = CHL }
			traits = {
				foreign_minister
			}
			ledger = civilian
			cost = -1
			removal_cost = -1
			ai_will_do = { factor = 0 }
		}
		advisor = {
			slot = economy_minister
			idea_token = CHL_Arturo_Maschke_eco
			allowed = { original_tag = CHL }
			traits = {
				economy_minister
			}
			ledger = civilian
			cost = -1
			removal_cost = -1
			ai_will_do = { factor = 0 }
		}
	}

	CHL_Carlos_Vial = {
		name = CHL_Carlos_Vial
		portraits = { 
			civilian = { 
				#large = "gfx/leaders/CHL/Portrait_Chile_Carlos_Vial.dds"
				small = "GFX_idea_CHL_Carlos_Vial_sec"
			} 
		}
		advisor = {
			slot = security_minister
			idea_token = CHL_Carlos_Vial_sec
			allowed = { original_tag = CHL }
			traits = {
				security_minister
			}
			ledger = civilian
			cost = -1
			removal_cost = -1
			ai_will_do = { factor = 0 }
		}
	}

	CHL_Julio_Philippi = {
		name = CHL_Julio_Philippi
		portraits = { 
			civilian = { 
				large = "gfx/leaders/CHL/Portrait_Chile_Julio_Philippi.dds"
				small = "GFX_idea_CHL_Julio_Philippi_minister"
			} 
		}
		advisor = {
			slot = economy_minister
			idea_token = CHL_Julio_Philippi_eco
			allowed = { original_tag = CHL }
			traits = {
				economy_minister
			}
			ledger = civilian
			cost = -1
			removal_cost = -1
			ai_will_do = { factor = 0 }
		}
		country_leader = {
			desc = "POLITICS_PHILIPPI_DESC"
			expire = "1999.4.20"
			ideology = liberal_democracy_subtype
			traits = {
				economy_minister
			}
			id = -1
		}
	}
	
	CHL_Hugo_Zepeda = {
		name = CHL_Hugo_Zepeda
		portraits = { civilian = { large = "gfx/leaders/CHL/Portrait_Chile_Hugo_Zepeda_Barrios.dds" } }
		country_leader = {
			desc = "POLITICS_ZEPEDA_DESC"
			expire = "1999.4.20"
			ideology = liberal_democracy_subtype
			traits = {}
			id = -1
		}
	}

	CHL_Eduardo_Frei = {
		name = CHL_Eduardo_Frei
		portraits = { civilian = { large = "gfx/leaders/CHL/Portrait_Chile_Frei_Montalva.dds" } }
		country_leader = {
			desc = "POLITICS_FREI_MONTALVA_DESC"
			expire = "1992.9.4"
			ideology = conservative_democracy_christian_democracy_subtype
			traits = {}
			id = -1
		}
	}

	CHL_Bernardo_Leighton = {
		name = CHL_Bernardo_Leighton
		portraits = { 
			civilian = {
				#small = "GFX_idea_CHL_Bernardo_Leighton_minister"
			}
		}
		advisor = {
			slot = head_of_government
			idea_token = CHL_Bernardo_Leighton_hog
			allowed = { original_tag = CHL }
			traits = {
				head_of_government
			}
			ledger = civilian
			cost = -1
			removal_cost = -1
			ai_will_do = { factor = 0 }
		}
	}

	CHL_Gabriel_Valdes = {
		name = CHL_Gabriel_Valdes
		portraits = { 
			civilian = { 
				#small = "GFX_idea_CHL_Gabriel_Valdes_minister"
			} 
		}
		advisor = {
			slot = foreign_minister
			idea_token = CHL_Gabriel_Valdes_for
			allowed = { original_tag = CHL }
			traits = {
				foreign_minister
			}
			ledger = civilian
			cost = -1
			removal_cost = -1
			ai_will_do = { factor = 0 }
		}
	}

	CHL_Domingo_Santa_Maria = {
		name = CHL_Domingo_Santa_Maria
		portraits = { 
			civilian = { 
				#small = "GFX_idea_CHL_Domingo_Santa_Maria_minister"
			} 
		}
		advisor = {
			slot = economy_minister
			idea_token = CHL_Domingo_Santa_Maria_eco
			allowed = { original_tag = CHL }
			traits = {
				economy_minister
			}
			ledger = civilian
			cost = -1
			removal_cost = -1
			ai_will_do = { factor = 0 }
		}
	}

	CHL_Juan_de_Dios = {
		name = CHL_Juan_de_Dios
		portraits = { 
			civilian = { 
				#small = "GFX_idea_CHL_Juan_de_Dios_sec"
			} 
		}
		advisor = {
			slot = security_minister
			idea_token = CHL_Juan_de_Dios_sec
			allowed = { original_tag = CHL }
			traits = {
				security_minister
			}
			ledger = civilian
			cost = -1
			removal_cost = -1
			ai_will_do = { factor = 0 }
		}
	}

	CHL_Jorge_Prat = {
		name = CHL_Jorge_Prat
		portraits = { civilian = { large = "gfx/leaders/CHL/Portrait_Chile_Jorge_Prat.dds" } }
		country_leader = {
			desc = "POLITICS_PRAT_ECHAURREN_DESC"
			expire = "1971.9.4"
			ideology = authoritarian_democracy_right_wing_populism_subtype
			traits = {}
			id = -1
		}
	}

	CHL_Sergio_Onofre = {
		name = CHL_Sergio_Onofre
		portraits = { 
			civilian = {
				#small = "GFX_idea_CHL_Sergio_Onofre_minister"
			}
		}
		advisor = {
			slot = head_of_government
			idea_token = CHL_Sergio_Onofre_hog
			allowed = { original_tag = CHL }
			traits = {
				head_of_government
			}
			ledger = civilian
			cost = -1
			removal_cost = -1
			ai_will_do = { factor = 0 }
		}
	}

	CHL_Salvador_Allende = {
		name = CHL_Salvador_Allende
		portraits = { civilian = { large = "gfx/leaders/CHL/Portrait_Chile_Salvador_Allende.dds" } }
		country_leader = {
			desc = "POLITICS_SALVADOR_ALLENDE_DESC"
			expire = "1993.9.4"
			ideology = socialist_revolutionary_frontism_subtype
			traits = {}
			id = -1
		}
	}

	CHL_Ramon_Callis = {
		name = CHL_Ramon_Callis
		portraits = { civilian = { large = "gfx/leaders/CHL/Portrait_Chile_Ramon_Callis.dds" } }
		country_leader = {
			#desc = "POLITICS_SALVADOR_ALLENDE_DESC"
			expire = "1984.9.4"
			ideology = fascism_national_syndicalism_subtype
			traits = {}
			id = -1
		}
	}

	CHL_Roberto_Viaux = {
		name = CHL_Roberto_Viaux
		portraits = { 
			civilian = { 
				large = "gfx/leaders/CHL/Portrait_Chile_Viaux_President.dds" 
				#small = "GFX_idea_CHL_Roberto_Viaux_minister"
			}
			army = {
				large = "gfx/leaders/CHL/Portrait_Chile_Roberto_Viaux.dds"
			}
		}
		corps_commander = {
			traits = { bearer_of_artillery infantry_officer }
			skill = 2
			legacy_id = 12564
			attack_skill = 3
			defense_skill = 3
			planning_skill = 2
			logistics_skill = 4
		}
	}

	### Vacant ###
	CHL_Generic_Vacant_hog = {
		name = Generic_Vacant_hog
		portraits = {
			civilian = { small = "GFX_idea_Generic_Position_Vacant" }
		}
		advisor = {
			slot = head_of_government
			idea_token = CHL_Vacant_hog
			allowed = { always = yes }
			ledger = civilian
			traits = {
				head_of_government
			}
			cost = -1
			removal_cost = -1
			ai_will_do = { factor = 0 }
		}
	}
	CHL_Generic_Vacant_for = {
		name = Generic_Vacant_for
		portraits = {
			civilian = { small = "GFX_idea_Generic_Position_Vacant" }
		}
		advisor = {
			slot = foreign_minister
			idea_token = CHL_Vacant_for
			allowed = { always = yes }
			ledger = civilian
			traits = {
				foreign_minister
			}
			cost = -1
			removal_cost = -1
			ai_will_do = { factor = 0 }
		}
	}
	CHL_Generic_Vacant_eco = {
		name = Generic_Vacant_eco
		portraits = {
			civilian = { small = "GFX_idea_Generic_Position_Vacant" }
		}
		advisor = {
			slot = economy_minister
			idea_token = CHL_Vacant_eco
			allowed = { always = yes }
			ledger = civilian
			traits = {
				economy_minister
			}
			cost = -1
			removal_cost = -1
			ai_will_do = { factor = 0 }
		}
	}
	CHL_Generic_Vacant_sec = {
		name = Generic_Vacant_sec
		portraits = {
			civilian = { small = "GFX_idea_Generic_Position_Vacant" }
		}
		advisor = {
			slot = security_minister
			idea_token = CHL_Vacant_sec
			allowed = { always = yes }
			ledger = civilian
			traits = {
				security_minister
			}
			cost = -1
			removal_cost = -1
			ai_will_do = { factor = 0 }
		}
	}

	### Generals ###
	CHL_Oscar_Izurieta = {
		name = CHL_Oscar_Izurieta
		portraits = { 
			army = { 
				#large = "gfx/leaders/CHL/Portrait_Chile_Oscar_Izurieta.dds" 
			} 
		}
		field_marshal = {
			traits = { organisational_leader career_officer politically_connected }
			skill = 4
			attack_skill = 4
			defense_skill = 2
			planning_skill = 2
			logistics_skill = 3
			legacy_id = 12551
		}
	}

	CHL_Bernardino_Parada = {
		name = CHL_Bernardino_Parada
		portraits = { 
			army = { 
				large = "gfx/leaders/CHL/Portrait_Chile_Bernardino_Parada_Moreno.dds" 
			} 
		}
		field_marshal = {
			traits = { thorough_planner inflexible_strategist }
			skill = 4
			legacy_id = 12552
			attack_skill = 3
			defense_skill = 4
			planning_skill = 3
			logistics_skill = 2
		}
	}

	CHL_Luis_Miqueles = {
		name = CHL_Luis_Miqueles
		portraits = { 
			army = { 
				#large = "gfx/leaders/CHL/Portrait_Chile_Luis_Miqueles.dds" 
			} 
		}
		corps_commander = {
			traits = { skilled_staffer career_officer }

			skill = 3
			legacy_id = 12553
			attack_skill = 1
			defense_skill = 3
			planning_skill = 4
			logistics_skill = 4
		}
	}

	CHL_Felix_Guerrero = {
		name = CHL_Felix_Guerrero
		portraits = { 
			army = { 
				#large = "gfx/leaders/CHL/Portrait_Chile_Guerrero_Salcedo.dds"
			} 
		}
		corps_commander = {
			traits = { organizer }

			skill = 3
			legacy_id = 12566
			attack_skill = 2
			defense_skill = 3
			planning_skill = 3
			logistics_skill = 3
		}
	}

	CHL_Rene_Cabrera = {
		name = CHL_Rene_Cabrera
		portraits = { 
			army = { 
				#large = "gfx/leaders/CHL/Portrait_Chile_Cabrera_Soto.dds" 
			} 
		}
		corps_commander = {
			skill = 3
			legacy_id = 12567
			attack_skill = 2
			defense_skill = 2
			planning_skill = 4
			logistics_skill = 2
		}
	}

	CHL_Carlos_Pollarolo = {
		name = CHL_Carlos_Pollarolo
		portraits = { 
			army = { 
				#large = "gfx/leaders/CHL/Portrait_Chile_Carlos_Pollarolo.dds" 
			} 
		}
		corps_commander = {
			traits = { infantry_officer }

			skill = 3
			legacy_id = 12568
			attack_skill = 3
			defense_skill = 3
			planning_skill = 2
			logistics_skill = 3
		}
	}

	CHL_Carlos_Hepp = {
		name = CHL_Carlos_Hepp
		portraits = { army = { large = "gfx/leaders/CHL/Portrait_Chile_Carlos_Hepp.dds" } }
		corps_commander = {
			traits = { infantry_officer }

			skill = 3
			legacy_id = 12569
			attack_skill = 2
			defense_skill = 4
			planning_skill = 4
			logistics_skill = 3
		}
	}
	
	CHL_Tulio_Marambio = {
		name = CHL_Tulio_Marambio
		portraits = { army = { large = "gfx/leaders/CHL/Portrait_Chile_Tulio_Marambio.dds" } }
		corps_commander = {
			traits = { career_officer trait_cautious }

			skill = 2
			legacy_id = 12554
			attack_skill = 1
			defense_skill = 3
			planning_skill = 2
			logistics_skill = 1
		}
	}
	
	CHL_Sergio_Castillo = {
		name = CHL_Sergio_Castillo
		portraits = { 
			army = { 
				#large = "gfx/leaders/CHL/Portrait_Chile_Castillo_Aranguiz.dds" 
			} 
		}
		corps_commander = {
			traits = { career_officer politically_connected }

			skill = 2
			legacy_id = 12555
			attack_skill = 2
			defense_skill = 2
			planning_skill = 2
			logistics_skill = 2
		}
	}
	
	CHL_Tomas_Opazo = {
		name = CHL_Tomas_Opazo
		portraits = { 
			army = { 
				#large = "gfx/leaders/CHL/Portrait_Chile_Opazo_Santander.dds" 
			} 
		}
		corps_commander = {
			traits = { bearer_of_artillery }

			skill = 2
			legacy_id = 12556
			attack_skill = 4
			defense_skill = 2
			planning_skill = 1
			logistics_skill = 2
		}
	}
	
	CHL_Ramon_Martinez = {
		name = CHL_Ramon_Martinez
		portraits = { 
			army = { 
				#large = "gfx/leaders/CHL/Portrait_Chile_Valdes_Martinez.dds" 
			} 
		}
		corps_commander = {
			traits = { }

			skill = 2
			legacy_id = 12557
			attack_skill = 2
			defense_skill = 2
			planning_skill = 3
			logistics_skill = 2
		}
	}
	
	CHL_Rene_Schneider = {
		name = CHL_Rene_Schneider
		portraits = { 
			army = { 
				#large = "gfx/leaders/CHL/Portrait_Chile_Rene_Schneider.dds" 
			} 
		}
		corps_commander = {
			traits = { career_officer }

			skill = 2
			legacy_id = 12558
			attack_skill = 2
			defense_skill = 2
			planning_skill = 3
			logistics_skill = 2
		}
	}

	CHL_Hector_Martinez = {
		name = CHL_Hector_Martinez
		portraits = { 
			army = { 
				#large = "gfx/leaders/CHL/Portrait_Chile_Rene_Schneider.dds" 
			} 
		}
		corps_commander = {
			traits = { }

			skill = 2
			legacy_id = 12559
			attack_skill = 2
			defense_skill = 1
			planning_skill = 3
			logistics_skill = 1
		}
	}

	CHL_Carlos_Prats = {
		name = CHL_Carlos_Prats
		portraits = { 
			army = { 
				large = "gfx/leaders/CHL/Portrait_Chile_Carlos_Prats.dds" 
			} 
		}
		corps_commander = {
			traits = { career_officer }

			skill = 2
			legacy_id = 12560
			attack_skill = 2
			defense_skill = 2
			planning_skill = 3
			logistics_skill = 2
		}
	}

	CHL_Manuel_Pinochet = {
		name = CHL_Manuel_Pinochet
		portraits = { 
			army = { 
				#large = "gfx/leaders/CHL/Portrait_Chile_Carlos_Prats.dds" 
			} 
		}
		corps_commander = {
			traits = { harsh_leader }

			skill = 2
			legacy_id = 12561
			attack_skill = 2
			defense_skill = 3
			planning_skill = 3
			logistics_skill = 3
		}
	}

	CHL_Camilo_Valenzuela = {
		name = CHL_Camilo_Valenzuela
		portraits = { 
			army = { 
				#large = "gfx/leaders/CHL/Portrait_Chile_Carlos_Prats.dds" 
			} 
		}
		corps_commander = {
			traits = { trait_reckless }

			skill = 2
			legacy_id = 12562
			attack_skill = 3
			defense_skill = 1
			planning_skill = 4
			logistics_skill = 1
		}
	}

	CHL_Augusto_Pinochet = {
		name = CHL_Augusto_Pinochet
		portraits = { 
			army = { 
				large = "gfx/leaders/CHL/Portrait_Chile_Augusto_Pinochet.dds" 
			} 
		}
		corps_commander = {
			traits = { career_officer }

			skill = 2
			legacy_id = 12563
			attack_skill = 3
			defense_skill = 2
			planning_skill = 4
			logistics_skill = 2
		}
	}

	CHL_Manuel_Torres = {
		name = CHL_Manuel_Torres
		portraits = { 
			army = { 
				#large = "gfx/leaders/CHL/Portrait_Chile_Augusto_Pinochet.dds" 
			} 
		}
		corps_commander = {
			traits = { bearer_of_artillery }

			skill = 2
			legacy_id = 12565
			attack_skill = 3
			defense_skill = 2
			planning_skill = 3
			logistics_skill = 2
		}
	}

	CHL_Lisandro_Contreras = {
		name = CHL_Lisandro_Contreras
		portraits = { 
			army = { 
				#large = "gfx/leaders/CHL/Portrait_Chile_Augusto_Pinochet.dds" 
			} 
		}
		corps_commander = {
			traits = { }

			skill = 1
			legacy_id = 12570
			attack_skill = 2
			defense_skill = 1
			planning_skill = 2
			logistics_skill = 1
		}
	}

	CHL_Roberto_Souper = {
		name = CHL_Roberto_Souper
		portraits = { 
			army = { 
				#large = "gfx/leaders/CHL/Portrait_Chile_Augusto_Pinochet.dds" 
			} 
		}
		corps_commander = {
			traits = { armor_officer trickster }

			skill = 1
			legacy_id = 12571
			attack_skill = 3
			defense_skill = 1
			planning_skill = 2
			logistics_skill = 1
		}
	}

	# Marine Corps #
	CHL_Pablo_Wunderlich = {
		name = CHL_Pablo_Wunderlich
		portraits = { 
			army = { 
				#large = "gfx/leaders/CHL/Portrait_Chile_Augusto_Pinochet.dds" 
			} 
		}
		corps_commander = {
			traits = { naval_invader harsh_leader }

			skill = 2
			legacy_id = 12572
			attack_skill = 2
			defense_skill = 3
			planning_skill = 3
			logistics_skill = 2
		}
	}

	CHL_Fernando_Bascunan = {
		name = CHL_Fernando_Bascunan
		portraits = { 
			army = { 
				#large = "gfx/leaders/CHL/Portrait_Chile_Augusto_Pinochet.dds" 
			} 
		}
		corps_commander = {
			traits = { naval_invader }

			skill = 2
			legacy_id = 12573
			attack_skill = 2
			defense_skill = 2
			planning_skill = 4
			logistics_skill = 4
		}
	}

	CHL_Luis_Urzua = {
		name = CHL_Luis_Urzua
		portraits = { 
			army = { 
				#large = "gfx/leaders/CHL/Portrait_Chile_Augusto_Pinochet.dds" 
			} 
		}
		corps_commander = {
			traits = { naval_invader }

			skill = 2
			legacy_id = 12574
			attack_skill = 3
			defense_skill = 1
			planning_skill = 2
			logistics_skill = 2
		}
	}

	CHL_Sergio_Huidobro = {
		name = CHL_Sergio_Huidobro
		portraits = { 
			army = { 
				large = "gfx/leaders/CHL/Portrait_Chile_Sergio_Huidobro_Justiniano.dds" 
			} 
		}
		corps_commander = {
			traits = { naval_invader }

			skill = 2
			legacy_id = 12575
			attack_skill = 2
			defense_skill = 4
			planning_skill = 3
			logistics_skill = 3
		}
	}

	CHL_Sergio_Cid = {
		name = CHL_Sergio_Cid
		portraits = { 
			army = { 
				#large = "gfx/leaders/CHL/Portrait_Chile_Sergio_Huidobro_Justiniano.dds" 
			} 
		}
		corps_commander = {
			traits = { naval_invader inflexible_strategist }

			skill = 2
			legacy_id = 12576
			attack_skill = 1
			defense_skill = 3
			planning_skill = 3
			logistics_skill = 4
		}
	}

	### Admirals ###
	CHL_Hernan_Cubillos = {
		name = CHL_Hernan_Cubillos
		portraits = { 
			navy = { 
				#large = "gfx/leaders/CHL/Portrait_Chile_Cubillos_Leiva.dds"
			} 
		}
		navy_leader = {
			traits = { }

			skill = 4
			legacy_id = 12577
			attack_skill = 3
			defense_skill = 4
			maneuvering_skill = 4
			coordination_skill = 4
		}
	}

	CHL_Jacobo_Neumann = {
		name = CHL_Jacobo_Neumann
		portraits = { 
			navy = { 
				#large = "gfx/leaders/CHL/Portrait_Chile_Neumann_Etienne.dds" 
			} 
		}
		navy_leader = {
			traits = { }

			skill = 3
			legacy_id = 12578
			attack_skill = 4
			defense_skill = 2
			maneuvering_skill = 2
			coordination_skill = 2
		}
	}

	CHL_Fernando_Porta = {
		name = CHL_Fernando_Porta
		portraits = { 
			navy = { 
				#large = "gfx/leaders/CHL/Portrait_Chile_Porta_Angulo.dds" 
			} 
		}
		navy_leader = {
			traits = { }

			skill = 3
			legacy_id = 12579
			attack_skill = 2
			defense_skill = 2
			maneuvering_skill = 2
			coordination_skill = 2
		}
	}

	CHL_Raul_Montero = {
		name = CHL_Raul_Montero
		portraits = { 
			navy = { 
				large = "gfx/leaders/CHL/Portrait_Chile_Montero_Cornejo.dds" 
			} 
		}
		navy_leader = {
			traits = { }

			skill = 2
			legacy_id = 12580
			attack_skill = 2
			defense_skill = 3
			maneuvering_skill = 3
			coordination_skill = 2
		}
	}

	CHL_Jose_Toribio = {
		name = CHL_Jose_Toribio
		portraits = { 
			navy = { 
				large = "gfx/leaders/CHL/Portrait_Chile_Toribio_Merino.dds" 
			} 
		}
		navy_leader = {
			traits = { }

			skill = 2
			legacy_id = 12581
			attack_skill = 3
			defense_skill = 2
			maneuvering_skill = 4
			coordination_skill = 2
		}
	}

	CHL_Jose_Costa = {
		name = CHL_Jose_Costa
		portraits = { 
			navy = { 
				#large = "gfx/leaders/CHL/Portrait_Chile_Costa_Francke.dds" 
			} 
		}
		navy_leader = {
			traits = { }

			skill = 3
			legacy_id = 12582
			attack_skill = 2
			defense_skill = 3
			maneuvering_skill = 2
			coordination_skill = 4
		}
	}

	CHL_Ramon_Barros = {
		name = CHL_Ramon_Barros
		portraits = { 
			navy = { 
				large = "gfx/leaders/CHL/Portrait_Chile_Barros_Gonzalez.dds" 
			} 
		}
		navy_leader = {
			traits = { }

			skill = 3
			legacy_id = 12583
			attack_skill = 2
			defense_skill = 3
			maneuvering_skill = 4
			coordination_skill = 2
		}
	}

	CHL_Alberto_Khan = {
		name = CHL_Alberto_Khan
		portraits = { 
			navy = { 
				#large = "gfx/leaders/CHL/Portrait_Chile_Khan_Wiegand.dds" 
			} 
		}
		navy_leader = {
			traits = { }

			skill = 2
			legacy_id = 12584
			attack_skill = 3
			defense_skill = 2
			maneuvering_skill = 3
			coordination_skill = 2
		}
	}

	CHL_Oscar_Ferrari = {
		name = CHL_Oscar_Ferrari
		portraits = { 
			navy = { 
				large = "gfx/leaders/CHL/Portrait_Chile_Ferrari_Chaigneau.dds" 
			} 
		}
		navy_leader = {
			traits = { }

			skill = 2
			legacy_id = 12585
			attack_skill = 3
			defense_skill = 2
			maneuvering_skill = 3
			coordination_skill = 2
		}
	}

	CHL_Raul_del_Solar = {
		name = CHL_Raul_del_Solar
		portraits = { 
			navy = { 
				#large = "gfx/leaders/CHL/Portrait_Chile_Solar_Grove.dds" 
			} 
		}
		navy_leader = {
			traits = { }

			skill = 2
			legacy_id = 12586
			attack_skill = 1
			defense_skill = 4
			maneuvering_skill = 4
			coordination_skill = 3
		}
	}

	CHL_Jorge_Swett = {
		name = CHL_Jorge_Swett
		portraits = { 
			navy = { 
				#large = "gfx/leaders/CHL/Portrait_Chile_Swett_Madge.dds" 
			} 
		}
		navy_leader = {
			traits = { }

			skill = 2
			legacy_id = 12587
			attack_skill = 2
			defense_skill = 2
			maneuvering_skill = 3
			coordination_skill = 2
		}
	}

	CHL_Agustin_Rodriguez = {
		name = CHL_Agustin_Rodriguez
		portraits = { 
			navy = { 
				#large = "gfx/leaders/CHL/Portrait_Chile_Agustin_Rodriguez.dds" 
			} 
		}
		navy_leader = {
			traits = { }

			skill = 2
			legacy_id = 12588
			attack_skill = 2
			defense_skill = 3
			maneuvering_skill = 3
			coordination_skill = 3
		}
	}

	CHL_Raul_Lopez = {
		name = CHL_Raul_Lopez
		portraits = { 
			navy = { 
				#large = "gfx/leaders/CHL/Portrait_Chile_Lopez_Silva.dds" 
			} 
		}
		navy_leader = {
			traits = { }

			skill = 1
			legacy_id = 12589
			attack_skill = 2
			defense_skill = 2
			maneuvering_skill = 4
			coordination_skill = 2
		}
	}

	CHL_Hugo_Cabezas = {
		name = CHL_Hugo_Cabezas
		portraits = { 
			navy = { 
				large = "gfx/leaders/CHL/Portrait_Chile_Cabezas_Videla.dds" 
			} 
		}
		navy_leader = {
			traits = { }

			skill = 1
			legacy_id = 12590
			attack_skill = 2
			defense_skill = 3
			maneuvering_skill = 3
			coordination_skill = 3
		}
	}
}
