characters = {
	BLZ_George_Cadle_Price = {
		name = BLZ_George_Cadle_Price
		portraits = {
			civilian = {
				large = "gfx/leaders/BLZ/Portrait_Belize_George_Cadle_Price.dds"
			}
		}
		country_leader = {
			expire = "1994.4.20"
			ideology = social_democracy_subtype
			id = -1
		}
	}
	BLZ_Herbert_Fuller = {
		name = BLZ_Herbert_Fuller
		portraits = {
			civilian = {
				large = "gfx/leaders/BLZ/Portrait_Belize_George_Cadle_Price.dds"
			}
		}
		country_leader = {
			expire = "1994.4.20"
			ideology = conservative_democracy_subtype
			id = -1
		}
	}
	BLZ_Denbeigh_Jeffery = {
		name = BLZ_Denbeigh_Jeffery
		portraits = {
			civilian = {
				large = "gfx/leaders/BLZ/Portrait_Belize_George_Cadle_Price.dds"
			}
		}
		country_leader = {
			expire = "1994.4.20"
			ideology = liberal_democracy_subtype
			id = -1
		}
	}
}