characters = {
	HWL_Felix_Steiner = {
		name = HWL_Felix_Steiner
		
		portraits = {
			civilian = {
				large = "gfx/leaders/HWL/Portrait_Heydrich_Felix_Steiner.dds"
			}
			army = {
				large = "gfx/leaders/HWL/Portrait_Heydrich_Felix_Steiner.dds"
			}
		}
		
		country_leader = {
			desc = "POLITICS_Felix_Steiner_DESC"
			ideology = esoteric_nazism_spartanism_subtype
			expire = "1999.1.1.1"
			id = -1
		}
		
		field_marshal = {
			traits = { old_guard brilliant_strategist career_officer war_hero }
			skill = 4
			attack_skill = 5
			defense_skill = 3
			planning_skill = 3
			logistics_skill = 3
			legacy_id = 14011
		}
	}
	
	HWL_Konrad_Henlein = {
		name = HWL_Konrad_Henlein
		
		portraits = {
			civilian = {
				large = "gfx/leaders/HWL/Portrait_Heydrich_Konrad_Henlein.dds"
			}
			army = {
				large = "gfx/leaders/HWL/Portrait_Heydrich_Konrad_Henlein.dds"
			}
		}
		
		country_leader = {
			desc = "POLITICS_Konrad_Henlein_DESC"
			ideology = esoteric_nazism_spartanism_subtype
			expire = "1999.1.1.1"
			id = -1
		}
		
		corps_commander = { 
			traits = { skilled_staffer }
			skill = 1
			attack_skill = 1
			defense_skill = 1
			planning_skill = 2
			logistics_skill = 2
			legacy_id = 14019
		}
	}
	
	HWL_Otto_Skorzeny = {
		name = HWL_Otto_Skorzeny
		
		portraits = {
			civilian = {
				large = "gfx/leaders/HWL/Portrait_Heydrich_Otto_Skorzeny.dds"
			}
			army = {
				large = "gfx/leaders/HWL/Portrait_Heydrich_Otto_Skorzeny.dds"
			}
		}
		
		country_leader = {
			desc = "POLITICS_Otto_Skorzeny_DESC"
			ideology = esoteric_nazism_spartanism_subtype
			expire = "1999.1.1.1"
			id = -1
		}
		
		corps_commander = { 
			traits = { war_hero trait_cautious commando  }
			skill = 4
			attack_skill = 4
			defense_skill = 2
			planning_skill = 4
			logistics_skill = 3
			legacy_id = 14007
		}
	}
	
	HWL_Karl_Donitz = {
		name = HWL_Karl_Donitz
		
		portraits = {
			civilian = {
				large = "gfx/leaders/HWL/Portrait_GER_Karl_Donitz.dds"
			}
			army = {
				large = "gfx/leaders/HWL/Portrait_GER_Karl_Donitz.dds"
			}
		}
		
		country_leader = {
			desc = "POLITICS_Karl_Donitz_DESC"
			ideology = national_socialism_subtype
			expire = "1999.1.1.1"
			id = -1
		}
		
		corps_commander = { 
			skill = 1
			attack_skill = 1
			defense_skill = 1
			planning_skill = 2
			logistics_skill = 2
			legacy_id = 14012
		}
		
		navy_leader = {
			traits = { navy_career_officer seawolf blockade_runner superior_tactician }
			skill = 5
			attack_skill = 5
			defense_skill = 3
			maneuvering_skill = 1
			coordination_skill = 1
		}
	}
	
	HWL_Sepp_Dietrich = {
		name = HWL_Sepp_Dietrich
		
		portraits = {
			civilian = {
				large = "gfx/leaders/HWL/Portrait_Heydrich_Sepp_Dietrich.dds"
			}
			army = {
				large = "gfx/leaders/HWL/Portrait_Heydrich_Sepp_Dietrich.dds"
			}
		}
		
		country_leader = {
			desc = "POLITICS_SEPP_DIETRICH_DESC"
			ideology = despotism_warlordism_subtype
			expire = "1999.1.1.1"
			id = -1
		}
		
		field_marshal = { 
			traits = { war_hero trait_reckless panzer_leader }
			skill = 4
			attack_skill = 4
			defense_skill = 3
			planning_skill = 4
			logistics_skill = 2
			legacy_id = 14000
		}
	}
	
	HWL_Reinhard_Gehlen = {
		name = HWL_Reinhard_Gehlen
		
		portraits = {
			civilian = {
				large = "gfx/leaders/HWL/Portrait_Heydrich_Reinhard_Gehlen.dds"
			}
			army = {
				large = "gfx/leaders/HWL/Portrait_Heydrich_Reinhard_Gehlen.dds"
			}
		}
		
		country_leader = {
			desc = "POLITICS_Reinhard_Gehlen_DESC"
			ideology = fascism_reformed_national_socialism_subtype
			expire = "1999.1.1.1"
			id = -1
		}
		
		corps_commander = { 
			traits = { expert_improviser camouflage_expert }
			skill = 2
			attack_skill = 2
			defense_skill = 1
			planning_skill = 2
			logistics_skill = 2
			legacy_id = 14022
		}
	}
	
	HWL_Ulrich_Wegener = {
		name = HWL_Ulrich_Wegener
		
		portraits = {
			civilian = {
				large = "gfx/leaders/HWL/Portrait_Heydrich_Ulrich_Wegener.dds"
			}
			army = {
				large = "gfx/leaders/HWL/Portrait_Heydrich_Ulrich_Wegener.dds"
			}
		}
		
		country_leader = {
			desc = "POLITICS_ULRICH_WEGENER_DESC"
			ideology = despotism_military_junta_subtype
			expire = "1999.1.1.1"
			id = -1
		}
		
		corps_commander = { 
			traits = { urban_assault_specialist commando adaptable }
			skill = 3
			attack_skill = 3
			defense_skill = 2
			planning_skill = 3
			logistics_skill = 2
			legacy_id = 14002
		}
	}
	
	HWL_Adolf_Eichmann = {
		name = HWL_Adolf_Eichmann
		
		portraits = {
			civilian = {
				large = "gfx/leaders/HWL/Portrait_Heydrich_Adolf_Eichmann.dds"
			}
			army = {
				large = "gfx/leaders/HWL/Portrait_Heydrich_Adolf_Eichmann.dds"
			}
		}
		
		country_leader = {
			desc = "POLITICS_Adolf_Eichmann_DESC"
			ideology = esoteric_nazism_spartanism_subtype
			expire = "1999.1.1.1"
			id = -1
		}
		
		field_marshal = { 
			skill = 4
			attack_skill = 4
			defense_skill = 3
			planning_skill = 2
			logistics_skill = 2
			legacy_id = 14004
		}
	}
	
	HWL_Karl_Hanke = {
		name = HWL_Karl_Hanke
		
		portraits = {
			civilian = {
				large = "gfx/leaders/HWL/Portrait_Germany_Karl_Hanke.dds"
			}
			army = {
				large = "gfx/leaders/HWL/Portrait_Germany_Karl_Hanke.dds"
			}
		}
		
		country_leader = {
			desc = "POLITICS_Karl_Hanke_DESC"
			ideology = national_socialism_technocratic_nazism_subtype
			expire = "1999.1.1.1"
			id = -1
		}
		
		field_marshal = {
			traits = { old_guard panzer_leader defensive_doctrine }
			skill = 2
			attack_skill = 2
			defense_skill = 1
			planning_skill = 3
			logistics_skill = 1
			legacy_id = 14005
		}
	}
	
	HWL_Joachim_Peiper = {
		name = HWL_Joachim_Peiper
		
		portraits = {
			civilian = {
				large = "gfx/leaders/HWL/Portrait_Heydrich_Joachim_Peiper.dds"
			}
			army = {
				large = "gfx/leaders/HWL/Portrait_Heydrich_Joachim_Peiper.dds"
			}
		}
		
		country_leader = {
			desc = "POLITICS_Joachim_Peiper_DESC"
			ideology = esoteric_nazism_spartanism_subtype
			expire = "1999.1.1.1"
			id = -1
		}
		
		corps_commander = {
			traits = { politically_connected media_personality infantry_officer }
			skill = 3
			attack_skill = 4
			defense_skill = 1
			planning_skill = 3
			logistics_skill = 2
			legacy_id = 14006
		}
	}
	
	HWL_Klaus_Barbie = {
		name = HWL_Klaus_Barbie
		
		portraits = {
			civilian = {
				large = "gfx/leaders/HWL/Portrait_Heydrich_Klaus_Barbie.dds"
			}
			army = {
				large = "gfx/leaders/HWL/Portrait_Heydrich_Klaus_Barbie.dds"
			}
		}
		
		country_leader = {
			desc = "POLITICS_Klaus_Barbie_DESC"
			ideology = esoteric_nazism_burgundian_system_subtype
			expire = "1999.1.1.1"
			id = -1
		}
		
		corps_commander = {
			traits = { career_officer organizer skilled_staffer }
			skill = 2
			attack_skill = 2
			defense_skill = 2
			planning_skill = 2
			logistics_skill = 1
			legacy_id = 14014
		}
	}
	
	HWL_Paul_Hausser = {
		name = HWL_Paul_Hausser
		
		portraits = {
			civilian = {
				large = "gfx/leaders/HWL/Portrait_Heydrich_Paul_Hausser.dds"
			}
			army = {
				large = "gfx/leaders/HWL/Portrait_Heydrich_Paul_Hausser.dds"
			}
		}
		
		country_leader = {
			desc = "POLITICS_Paul_Hausser_DESC"
			ideology = esoteric_nazism_burgundian_system_subtype
			expire = "1999.1.1.1"
			id = -1
		}
		
		corps_commander = {
			traits = { war_hero aggressive_assaulter panzer_leader commando }
			skill = 4
			attack_skill = 4
			defense_skill = 2
			planning_skill = 3
			logistics_skill = 4
			legacy_id = 14017
		}
	}
	
	HWL_Sylvester_Stadler = {
		name = HWL_Sylvester_Stadler
		
		portraits = {
			civilian = {
				large = "gfx/leaders/HWL/Portrait_Heydrich_Sylvester_Stadler.dds"
			}
			army = {
				large = "gfx/leaders/HWL/Portrait_Heydrich_Sylvester_Stadler.dds"
			}
		}
		
		country_leader = {
			desc = "POLITICS_Sylvester_Stadler_DESC"
			ideology = ultranationalism_ultramilitarism_subtype
			expire = "1999.1.1.1"
			id = -1
		}
		
		corps_commander = {
			traits = { infantry_leader ranger winter_specialist }
			skill = 3
			attack_skill = 4
			defense_skill = 2
			planning_skill = 1
			logistics_skill = 3
			legacy_id = 14016
		}
	}
	
	HWL_Herbert_Otto_Gille = {
		name = HWL_Herbert_Otto_Gille
		
		portraits = {
			civilian = {
				large = "gfx/leaders/HWL/Portrait_Heydrich_Herbert_Otto_Gille.dds"
			}
			army = {
				large = "gfx/leaders/HWL/Portrait_Heydrich_Herbert_Otto_Gille.dds"
			}
		}
		
		country_leader = {
			desc = "POLITICS_Herbert_Otto_Gillie_DESC"
			ideology = national_socialism_stratocratic_nazism_subtype
			expire = "1999.1.1.1"
			id = -1
		}
	}
	
	HWL_Wilhelm_Mohnke = {
		name = HWL_Wilhelm_Mohnke
		
		portraits = {
			civilian = {
				large = "gfx/leaders/HWL/Portrait_Heydrich_Wilhelm_Mohnke.dds"
			}
			army = {
				large = "gfx/leaders/HWL/Portrait_Heydrich_Wilhelm_Mohnke.dds"
			}
		}
		
		country_leader = {
			desc = "POLITICS_Wilhelm_Mohnke_DESC"
			ideology = esoteric_nazism_burgundian_system_subtype
			expire = "1999.1.1.1"
			id = -1
		}
		
		field_marshal = {
			traits = { harsh_leader unyielding_defender }
			skill = 3
			attack_skill = 3
			defense_skill = 4
			planning_skill = 2
			logistics_skill = 2
			legacy_id = 14008
		}
	}
	
	HWL_Otto_Ernst_Remer = {
		name = HWL_Otto_Ernst_Remer
		
		portraits = {
			civilian = {
				large = "gfx/leaders/HWL/Portrait_GER_Otto_Ernst_Remer.dds"
			}
			army = {
				large = "gfx/leaders/HWL/Portrait_GER_Otto_Ernst_Remer.dds"
			}
		}
		
		country_leader = {
			desc = "POLITICS_Otto_Ernst_Remer_DESC"
			ideology = ultranationalism_ultramilitarism_subtype
			expire = "1999.1.1.1"
			id = -1
		}
		
		corps_commander = {
			traits = { infantry_leader urban_assault_specialist }
			skill = 3
			attack_skill = 2
			defense_skill = 3
			planning_skill = 2
			logistics_skill = 2
			legacy_id = 14020
		}
	}
	
	HWL_Johannes_Steinhoff = {
		name = HWL_Johannes_Steinhoff
		
		portraits = {
			civilian = {
				large = "gfx/leaders/HWL/Portrait_GER_Johannes_Steinhoff.dds"
			}
			army = {
				large = "gfx/leaders/HWL/Portrait_GER_Johannes_Steinhoff.dds"
			}
		}
		
		country_leader = {
			desc = "POLITICS_JOHANNES_STEINHOFF_DESC"
			ideology = despotism_military_junta_subtype
			expire = "1999.1.1.1"
			id = -1
		}
		
		corps_commander = {
			traits = { media_personality commando paratrooper }
			skill = 2
			attack_skill = 2
			defense_skill = 1
			planning_skill = 2
			logistics_skill = 2
			legacy_id = 14010
		}
	}
	
	HWL_Kazimierz_Piechowski = {
		name = HWL_Kazimierz_Piechowski
		
		portraits = {
			civilian = {
				large = "gfx/leaders/HWL/Portrait_Heydrich_Kazimierz_Piechowski.dds"
			}
			army = {
				large = "gfx/leaders/HWL/Portrait_Heydrich_Kazimierz_Piechowski.dds"
			}
		}
		
		country_leader = {
			desc = "POLITICS_Kazimierz_Piechowski_DESC"
			ideology = despotism_partisan_movement_subtype
			expire = "1999.1.1.1"
			id = -1
		}
	}
	
	HWL_Hermann_Fegelein = {
		name = HWL_Hermann_Fegelein
		
		portraits = {
			civilian = {
				large = "gfx/leaders/HWL/Portrait_Heydrich_Hermann_Fegelein.dds"
			}
			army = {
				large = "gfx/leaders/HWL/Portrait_Heydrich_Hermann_Fegelein.dds"
			}
		}
		
		country_leader = {
			desc = "POLITICS_Hermann_Fegelein_DESC"
			ideology = esoteric_nazism_burgundian_system_subtype
			expire = "1999.1.1.1"
			id = -1
		}
		
		corps_commander = {
			traits = { politically_connected career_officer media_personality }
			skill = 2
			attack_skill = 1
			defense_skill = 2
			planning_skill = 2
			logistics_skill = 2
			legacy_id = 14018
		}
	}
	
	HWL_Theodor_Eicke = {
		name = HWL_Theodor_Eicke
		
		portraits = {
			civilian = {
				large = "gfx/leaders/HWL/Portrait_Burgundy_Theodor_Eicke.dds"
			}
			army = {
				large = "gfx/leaders/HWL/Portrait_Burgundy_Theodor_Eicke.dds"
			}
		}
		
		country_leader = {
			desc = "POLITICS_Theodor_Eicke_DESC"
			ideology = esoteric_nazism_burgundian_system_subtype
			expire = "1999.1.1.1"
			id = -1
		}
		
		field_marshal = {
			traits = { harsh_leader aggressive_assaulter winter_specialist }
			skill = 2
			attack_skill = 2
			defense_skill = 1
			planning_skill = 2
			logistics_skill = 2
			legacy_id = 14001
		}
	}

	HWL_Ulrike_Meinhof = {
		name = HWL_Ulrike_Meinhof
		
		portraits = {
			civilian = {
				large = "gfx/leaders/HWL/Portrait_Heydrich_Ulrike_Meinhof.dds"
			}
		}
		
		country_leader = {
			desc = "POLITICS_ULRIKE_MEINHOF_HGR_DESC"
			ideology = despotism_partisan_movement_subtype
			expire = "1999.1.1.1"
			id = -1
		}
	}
	
	HWL_Ernst_Kaltenbrunner = {
		name = HWL_Ernst_Kaltenbrunner
		
		portraits = {
			civilian = {
				large = "gfx/leaders/HWL/Portrait_Heydrich_Ernst_Kaltenbrunner.dds"
			}
			army = {
				large = "gfx/leaders/HWL/Portrait_Heydrich_Ernst_Kaltenbrunner.dds"
			}
		}
		
		country_leader = {
			desc = "POLITICS_Ernst_Kaltenbrunner_DESC"
			ideology = esoteric_nazism_burgundian_system_subtype
			expire = "1999.1.1.1"
			id = -1
		}
		
		field_marshal = {
			traits = { war_hero fast_planner career_officer }
			skill = 3
			attack_skill = 2
			defense_skill = 3
			planning_skill = 3
			logistics_skill = 2
			legacy_id = 14009
		}
	}
	
	HWL_Fritz_Klingenberg = {
		name = HWL_Fritz_Klingenberg
		
		portraits = {
			civilian = {
				large = "gfx/leaders/HWL/Portrait_Burgundy_Fritz_Klingenberg.dds"
			}
			army = {
				large = "gfx/leaders/HWL/Portrait_Burgundy_Fritz_Klingenberg.dds"
			}
		}
		
		country_leader = {
			desc = "POLITICS_FRITZ_KLINGENBERG_DESC"
			ideology = esoteric_nazism_burgundian_system_subtype
			expire = "1999.1.1.1"
			id = -1
		}
		
		field_marshal = {
			traits = { trait_reckless trickster commando }
			skill = 3
			attack_skill = 4
			defense_skill = 1
			planning_skill = 3
			logistics_skill = 2
			legacy_id = 14003
		}
	}
}