characters = {
	# Country leaders #
	URL_Janis_Mendriks = {
		name = URL_Janis_Mendriks
		portraits = {
			civilian = {
				large = "gfx/leaders/URL/Portrait_Ural_League_Janis_Mendriks.dds"
			}
		}
		country_leader = {
			desc = "POLITICS_JANIS_MENDRIKS_DESC"
			expire = "1999.1.1"
			ideology = authoritarian_democracy_stratocracy_subtype
			id = -1
		}
	}
	# Ministers #
	URL_Vasily_Zaytsev = {
		name = URL_Vasily_Zaytsev
		portraits = {
			army = {
				large = "gfx/leaders/URL/Portrait_Ural_League_Vasily_Zaytsev.dds"
			}
			civilian = {
				small = "GFX_idea_URL_Vasily_Zaytsev"
			}
		}
		advisor = {
			slot = head_of_government
			idea_token = URL_Vasily_Zaytsev_hog
			allowed = { original_tag = URL }
			traits = {
				head_of_government
				hog_respected_war_hero
			}
			ledger = civilian
			cost = -1
			removal_cost = -1
			ai_will_do = { factor = 0 }
		}
		corps_commander = {
			traits = {
				war_hero
				trickster
				expert_improviser
			}
			skill = 2
			attack_skill = 1
			defense_skill = 1
			planning_skill = 3
			logistics_skill = 2
			legacy_id = 3509
		}
	}
	URL_Alexey_Eisner = {
		name = URL_Alexey_Eisner
		portraits = {
			civilian = {
				small = "GFX_idea_URL_Alexey_Eisner"
			}
		}
		advisor = {
			slot = foreign_minister
			idea_token = URL_Alexey_Eisner_for
			allowed = { original_tag = URL }
			traits = {
				foreign_minister
				for_well_connected
			}
			ledger = civilian
			cost = -1
			removal_cost = -1
			ai_will_do = { factor = 0 }
		}
	}
	URL_Moisey_Averbakh = {
		name = URL_Moisey_Averbakh
		portraits = {
			civilian = {
				small = "GFX_idea_URL_Moisey_Averbakh"
			}
		}
		advisor = {
			slot = economy_minister
			idea_token = URL_Moisey_Averbakh_eco
			allowed = { original_tag = URL }
			traits = {
				economy_minister
				eco_balanced_budget_economy
			}
			ledger = civilian
			cost = -1
			removal_cost = -1
			ai_will_do = { factor = 0 }
		}
	}
	URL_Ilya_Starinov = {
		name = URL_Ilya_Starinov
		portraits = {
			civilian = {
				small = "GFX_idea_URL_Ilya_Starinov"
			}
			army = {
				large = "gfx/leaders/URL/Portrait_Ural_League_Ilya_Starinov.dds"
			}
		}
		advisor = {
			slot = security_minister
			idea_token = URL_Ilya_Starinov_sec
			allowed = { original_tag = URL }
			traits = {
				security_minister
				carm_commando_doctrine
			}
			ledger = civilian
			cost = -1
			removal_cost = -1
			ai_will_do = { factor = 0 }
		}
	}
	
	# Generals #
	URL_Hadji_Umar_Mamsurov = {
		name = URL_Hadji_Umar_Mamsurov
		portraits = {
			army = {
				large = "gfx/leaders/URL/Portrait_Ural_League_Hadji_Umar_Mamsurov.dds"
			}
			civilian = {
				large = "gfx/leaders/URL/Portrait_Ural_League_Hadji_Umar_Mamsurov.dds"
			}
		}
		corps_commander = {
			traits = { war_hero trait_mountaineer }
			skill = 4
			attack_skill = 2
			defense_skill = 3
			planning_skill = 4
			logistics_skill = 4
			legacy_id = 3507
		}
	}
	URL_Ivan_Banov = {
		name = URL_Ivan_Banov
		portraits = {
			army = {
				large = "gfx/leaders/URL/Portrait_Ural_League_Ivan_Banov.dds"
			}
		}
		corps_commander = {
			traits = { trait_reckless winter_specialist }
			skill = 3
			attack_skill = 4
			defense_skill = 1
			planning_skill = 3
			logistics_skill = 2
			legacy_id = 3508
		}
	}
	URL_Mikhail_Maltsev = {
		name = URL_Mikhail_Maltsev
		portraits = {
			army = {
				large = "gfx/leaders/URL/Portrait_Ural_League_Mikhail_Maltsev.dds"
			}
		}
		corps_commander = {
			traits = { trickster expert_improviser }
			skill = 2
			attack_skill = 2
			defense_skill = 2
			planning_skill = 1
			logistics_skill = 2
			legacy_id = 3510
		}
	}
}