characters = {
	# Country leaders
	KRS_Nikolai_Andreev = {
		name = KRS_Nikolai_Andreev
		portraits = {
			civilian = {
				large = "gfx/leaders/KRS/Portrait_Krasnoyarsk_Nikolai_Andreev.dds"
			}
			army = {
				large = "gfx/leaders/KRS/Portrait_Krasnoyarsk_Nikolai_Andreev.dds"
			}
		}
		country_leader = {
			desc = "POLITICS_NIKOLAI_ANDREEV_DESC"
			expire = "1999.1.1"
			ideology = authoritarian_democracy_controlled_democracy_subtype
			id = -1
		}
		country_leader = {
			desc = "POLITICS_NIKOLAI_ANDREEV_DESC"
			expire = "1999.1.1"
			ideology = communist_subtype
			id = -1
		}
		country_leader = {
			desc = "POLITICS_NIKOLAI_ANDREEV_DESC"
			expire = "1999.1.1"
			ideology = conservative_democracy_subtype
			id = -1
		}
		country_leader = {
			desc = "POLITICS_NIKOLAI_ANDREEV_DESC"
			expire = "1999.1.1"
			ideology = despotism_subtype
			id = -1
		}
		field_marshal = {
			desc = "MILITARY_NIKOLAI_ANDREEV_DESC"
			traits = { trait_cautious infantry_leader winter_specialist }
			skill = 2
			attack_skill = 2
			defense_skill = 1
			planning_skill = 3
			logistics_skill = 1
			legacy_id = 3651
		}
	}
	KRS_Ivan_Sevastyanov = {
		name = KRS_Ivan_Sevastyanov
		portraits = {
			civilian = {
				large = "gfx/leaders/KRS/Portrait_RSSWR_Ivan_Sevastyanov.dds"
			}
		}
	}
	# Ministers
	KRS_Oleg_Troyanovsky = {
		name = KRS_Oleg_Troyanovsky
		portraits = {
			civilian = {
				small = "GFX_idea_KRS_minister_oleg_troyanovsky"
			}
		}
		advisor = {
			slot = head_of_government
			idea_token = KRS_Oleg_Troyanovsky_hog
			allowed = { original_tag = KRS }
			traits = {
				head_of_government
				hog_silent_workhorse
			}
			ledger = civilian
			cost = -1
			removal_cost = -1
			ai_will_do = { factor = 0 }
		}
	}
	KRS_Viktor_Astafyev = {
		name = KRS_Viktor_Astafyev
		portraits = {
			civilian = {
				small = "GFX_idea_KRS_minister_viktor_astafyev"
			}
		}
		advisor = {
			slot = foreign_minister
			idea_token = KRS_Viktor_Astafyev_for
			allowed = { original_tag = KRS }
			traits = {
				foreign_minister
				for_fierce_negotiator
			}
			ledger = civilian
			cost = -1
			removal_cost = -1
			ai_will_do = { factor = 0 }
		}
	}
	KRS_Pyotr_Lomako = {
		name = KRS_Pyotr_Lomako
		portraits = {
			civilian = {
				small = "GFX_idea_KRS_minister_pyotr_lomako"
			}
		}
		advisor = {
			slot = economy_minister
			idea_token = KRS_Pyotr_Lomako_eco
			allowed = { original_tag = KRS }
			traits = {
				economy_minister
				eco_resource_industrialist
			}
			ledger = civilian
			cost = -1
			removal_cost = -1
			ai_will_do = { factor = 0 }
		}
	}
	KRS_Nikolai_Lyashchenko = {
		name = KRS_Nikolai_Lyashchenko
		portraits = {
			civilian = {
				small = "GFX_idea_KRS_minister_nikolai_lyashchenko"
			}
			army = {
				large = "gfx/leaders/KRS/Portrait_Krasnoyarsk_Nikolai_Lyashchenko.dds"
			}
		}
		advisor = {
			slot = security_minister
			idea_token = KRS_Nikolai_Lyashchenko_sec
			allowed = { original_tag = KRS }
			traits = {
				security_minister
				sec_army_instructor
			}
			ledger = civilian
			cost = -1
			removal_cost = -1
			ai_will_do = { factor = 0 }
		}
		corps_commander = {
			desc = "MILITARY_NIKOLAI_LYASHCHENKO_DESC"
			traits = {
				commando
				ranger
			}
			skill = 3
			attack_skill = 3
			defense_skill = 2
			planning_skill = 2
			logistics_skill = 3
			legacy_id = 3653
		}
	}
	KRS_Yegor_Burlov = {
		name = KRS_Yegor_Burlov
		portraits = {
			civilian = {
				small = "GFX_idea_KRS_minister_Yegor_Burlov"
			}
		}
		advisor = {
			slot = head_of_government
			idea_token = KRS_Yegor_Burlov_hog
			allowed = { original_tag = KRS }
			traits = {
				head_of_government
				hog_ambitious_union_boss
			}
			ledger = civilian
			cost = -1
			removal_cost = -1
			ai_will_do = { factor = 0 }
		}
	}
	KRS_Leonid_Gorshkov = {
		name = KRS_Leonid_Gorshkov
		portraits = {
			civilian = {
				small = "GFX_idea_KRS_minister_Leonid_Gorshkov"
			}
		}
		advisor = {
			slot = foreign_minister
			idea_token = KRS_Leonid_Gorshkov_for
			allowed = { original_tag = KRS }
			traits = {
				foreign_minister
				for_great_compromiser
			}
			ledger = civilian
			cost = -1
			removal_cost = -1
			ai_will_do = { factor = 0 }
		}
	}
	KRS_Gleb_Vanak = {
		name = KRS_Gleb_Vanak
		portraits = {
			civilian = {
				small = "GFX_idea_KRS_minister_Gleb_Vanak"
			}
		}
		advisor = {
			slot = economy_minister
			idea_token = KRS_Gleb_Vanak_eco
			allowed = { original_tag = KRS }
			traits = {
				economy_minister
				eco_planned_economy_proponent
			}
			ledger = civilian
			cost = -1
			removal_cost = -1
			ai_will_do = { factor = 0 }
		}
	}
	KRS_Victor_Us = {
		name = KRS_Victor_Us
		portraits = {
			civilian = {
				small = "GFX_idea_KRS_minister_Victor_Us"
			}
			army = {
				large = "gfx/leaders/KRS/Portrait_RSSWR_Victor_Us.dds"
			}
		}
		advisor = {
			slot = security_minister
			idea_token = KRS_Victor_Us_sec
			allowed = { original_tag = KRS }
			traits = {
				security_minister
				sec_army_instructor
			}
			ledger = civilian
			cost = -1
			removal_cost = -1
			ai_will_do = { factor = 0 }
		}
	}
	
	# Generals #
	KRS_Alexey_Pesterev = {
		name = KRS_Alexey_Pesterev
		portraits = {
			army = {
				large = "gfx/leaders/KRS/Portrait_Krasnoyarsk_Alexey_Pesterev.dds"
			}
		}
		corps_commander = {
			desc = "MILITARY_ALEXEY_PESTEREV_DESC"
			traits = { brilliant_strategist trait_engineer }
			skill = 2
			attack_skill = 2
			defense_skill = 2
			planning_skill = 2
			logistics_skill = 1
			legacy_id = 3652
		}
	}
	KRS_Aleksandra_Samusenko = {
		name = KRS_Aleksandra_Samusenko
		portraits = {
			army = {
				large = "gfx/leaders/KRS/Portrait_Krasnoyarsk_Aleksandra_Samusenko.dds"
			}
		}
		corps_commander = {
			desc = "MILITARY_ALEKSANDRA_SAMUSENKO_DESC"
			traits = { media_personality panzer_leader winter_specialist }
			skill = 3
			attack_skill = 2
			defense_skill = 1
			planning_skill = 4
			logistics_skill = 3
			legacy_id = 3654
		}
	}
}