characters = {
	# Leaders
	IRK_Genrikh_Yagoda = {
		name = IRK_Genrikh_Yagoda
		portraits = { civilian = { large = "gfx/leaders/IRK/Portrait_Irkutsk_Genrikh_Yagoda.dds" } }
		country_leader = {
			desc = "POLITICS_GENRIKH_YAGODA_DESC"
			expire = "1999.1.1.1"
			ideology = communist_bukharinism_subtype
			id = -1
		}
	}

	IRK_Sergey_Bessonov = {
		name = IRK_Sergey_Bessonov
		portraits = { 
			civilian = { 
				large = "gfx/leaders/IRK/Portrait_Irkutsk_Sergey_Bessonov.dds" 
				small = "GFX_idea_IRK_minister_Sergey_Bessonov" 
			} 
		}
		country_leader = {
			desc = "POLITICS_SERGEY_BESSONOV_DESC"
			expire = "1999.1.1.1"
			ideology = communist_bukharinism_subtype
			id = -1
		}
		advisor = {
			slot = head_of_government
			idea_token = IRK_Sergey_Bessonov_hog
			allowed = { original_tag = IRK }
			traits = {
				head_of_government
				hog_pragmatic_statesman
			}
			ledger = civilian
			cost = -1
			removal_cost = -1
			ai_will_do = { factor = 0 }
		}
		advisor = {
			slot = foreign_minister
			idea_token = IRK_Sergey_Bessonov_for
			allowed = { original_tag = IRK }
			traits = {
				foreign_minister
				for_ideological_crusader
			}
			ledger = civilian
			cost = -1
			removal_cost = -1
			ai_will_do = { factor = 0 }
		}
	}

	# Ministers 

	IRK_Yakov_Agranov = {
		name = IRK_Yakov_Agranov
		portraits = { 	
			civilian = { 
				small = "GFX_idea_IRK_minister_Yakov_Agranov" 
			} 
		}
		advisor = {
			slot = head_of_government
			idea_token = IRK_Yakov_Agranov_hog
			allowed = { original_tag = IRK }
			traits = {
				head_of_government
				hog_silent_workhorse
			}
			ledger = civilian
			cost = -1
			removal_cost = -1
			ai_will_do = { factor = 0 }
		}
	}

	IRK_Konstantin_Chernenko = {
		name = IRK_Konstantin_Chernenko
		portraits = { 	
			civilian = { 
				small = "GFX_idea_IRK_minister_Konstantin_Chernenko" 
			} 
		}
		advisor = {
			slot = foreign_minister
			idea_token = IRK_Konstantin_Chernenko_for
			allowed = { original_tag = IRK }
			traits = {
				foreign_minister
				for_ideological_crusader
			}
			ledger = civilian
			cost = -1
			removal_cost = -1
			ai_will_do = { factor = 0 }
		}
	}

	IRK_Yakov_Malik = {
		name = IRK_Yakov_Malik
		portraits = { 	
			civilian = { 
				small = "GFX_idea_IRK_minister_Yakov_Malik" 
			} 
		}
		advisor = {
			slot = foreign_minister
			idea_token = IRK_Yakov_Malik_for
			allowed = { original_tag = IRK }
			traits = {
				foreign_minister
				for_apologetic_clerk
			}
			ledger = civilian
			cost = -1
			removal_cost = -1
			ai_will_do = { factor = 0 }
		}
	}

	IRK_Vladimir_Novikov = {
		name = IRK_Vladimir_Novikov
		portraits = { 	
			civilian = { 
				small = "GFX_idea_IRK_minister_Vladimir_Novikov" 
			} 
		}
		advisor = {
			slot = economy_minister
			idea_token = IRK_Vladimir_Novikov_eco
			allowed = { original_tag = IRK }
			traits = {
				economy_minister
				eco_mixed_economy
			}
			ledger = civilian
			cost = -1
			removal_cost = -1
			ai_will_do = { factor = 0 }
		}
	}

	IRK_Grigory_Grinko = {
		name = IRK_Grigory_Grinko
		portraits = { 	
			civilian = { 
				small = "GFX_idea_IRK_minister_Grigory_Grinko" 
			} 
		}
		advisor = {
			slot = head_of_government
			idea_token = IRK_Grigory_Grinko_hog
			allowed = { original_tag = IRK }
			traits = {
				head_of_government
				hog_silent_workhorse
			}
			ledger = civilian
			cost = -1
			removal_cost = -1
			ai_will_do = { factor = 0 }
		}
		advisor = {
			slot = economy_minister
			idea_token = IRK_Grigory_Grinko_eco
			allowed = { original_tag = IRK }
			traits = {
				economy_minister
				eco_planned_economy_proponent
			}
			ledger = civilian
			cost = -1
			removal_cost = -1
			ai_will_do = { factor = 0 }
		}
	}

	IRK_Nikolai_Tikhonov = {
		name = IRK_Nikolai_Tikhonov
		portraits = { 	
			civilian = { 
				small = "GFX_idea_IRK_minister_Nikolai_Tikhonov" 
			} 
		}
		advisor = {
			slot = head_of_government
			idea_token = IRK_Nikolai_Tikhonov_hog
			allowed = { original_tag = IRK }
			traits = {
				head_of_government
				hog_pragmatic_statesman
			}
			ledger = civilian
			cost = -1
			removal_cost = -1
			ai_will_do = { factor = 0 }
		}
	}

	IRK_Pavel_Bulanov = {
		name = IRK_Pavel_Bulanov
		portraits = { 	
			civilian = { 
				small = "GFX_idea_IRK_minister_Pavel_Bulanov" 
			} 
		}
		advisor = {
			slot = security_minister
			idea_token = IRK_Pavel_Bulanov_sec
			allowed = { original_tag = IRK }
			traits = {
				security_minister
				sec_secret_police_chief
			}
			ledger = civilian
			cost = -1
			removal_cost = -1
			ai_will_do = { factor = 0 }
		}
	}

	# Commanders

	IRK_Ivan_Maslennikov = {
		name = IRK_Ivan_Maslennikov
		portraits = { 
			army = {
				large = "gfx/leaders/IRK/Portrait_Irkutsk_Ivan_Maslennikov.dds"
			}
		}
		field_marshal = {
			traits = { inflexible_strategist defensive_doctrine infantry_officer }
			skill = 3
			attack_skill = 1
			defense_skill = 2
			planning_skill = 3
			logistics_skill = 4
			legacy_id = 3701
		}
	}

	IRK_Rodion_Malinovsky = {
		name = IRK_Rodion_Malinovsky
		portraits = { 
			army = {
				large = "gfx/leaders/IRK/Portrait_Irkutsk_Rodion_Malinovsky.dds"
			}
		}
		field_marshal = {
			traits = { brilliant_strategist offensive_doctrine organizer }
			skill = 3
			attack_skill = 3
			defense_skill = 1
			planning_skill = 4
			logistics_skill = 2
			legacy_id = 371
		}
	}
	
	IRK_Genrikh_Lyushkov = {
		name = IRK_Genrikh_Lyushkov
		portraits = { 
			army = {
				large = "gfx/leaders/IRK/Portrait_Irkutsk_Genrikh_Lyushkov.dds"
			}
		}
		corps_commander = {
			traits = { politically_connected harsh_leader }
			skill = 3
			attack_skill = 3
			defense_skill = 2
			planning_skill = 3
			logistics_skill = 2
			legacy_id = 3702
		}
	}

	IRK_Pavel_Poluboyarov = {
		name = IRK_Pavel_Poluboyarov
		portraits = { 
			army = {
				large = "gfx/leaders/IRK/Portrait_Irkutsk_Pavel_Poluboyarov.dds"
			}
		}
		corps_commander = {
			traits = { infantry_leader career_officer skilled_staffer winter_specialist }
			skill = 2
			attack_skill = 2
			defense_skill = 2
			planning_skill = 2
			logistics_skill = 4
			legacy_id = 3703
		}
	}

	IRK_Alexander_Tevchenkov = {
		name = IRK_Alexander_Tevchenkov
		portraits = { 
			army = {
				large = "gfx/leaders/IRK/Portrait_Irkutsk_Alexander_Tevchenkov.dds"
			}
		}
		corps_commander = {
			traits = { panzer_leader armor_officer inflexible_strategist }
			skill = 3
			attack_skill = 3
			defense_skill = 1
			planning_skill = 2
			logistics_skill = 4
			legacy_id = 3704
		}
	}

	IRK_Izrail_Levin = {
		name = IRK_Izrail_Levin
		portraits = { 
			army = {
				large = "gfx/leaders/IRK/Portrait_Irkutsk_Izrail_Levin.dds"
			}
		}
		corps_commander = {
			traits = { infantry_leader career_officer infantry_officer }
			skill = 3
			attack_skill = 3
			defense_skill = 3
			planning_skill = 2
			logistics_skill = 2
			legacy_id = 3705
		}
	}

	IRK_Arkady_Apollonov = {
		name = IRK_Arkady_Apollonov
		portraits = { 
			army = {
				large = "gfx/leaders/IRK/Portrait_Irkutsk_Arkady_Apollonov.dds"
			}
		}
		corps_commander = {
			traits = { bearer_of_artillery trait_engineer trait_cautious }
			skill = 3
			attack_skill = 2
			defense_skill = 3
			planning_skill = 2
			logistics_skill = 3
			legacy_id = 3706
		}
	}

	IRK_Gurgen_Aseryants = {
		name = IRK_Gurgen_Aseryants
		portraits = { 
			army = {
				large = "gfx/leaders/IRK/Portrait_Irkutsk_Gurgen_Aseryants.dds"
			}
		}
		corps_commander = {
			traits = { infantry_leader winter_specialist }
			skill = 2
			attack_skill = 2
			defense_skill = 1
			planning_skill = 1
			logistics_skill = 3
			legacy_id = 3707
		}
	}

	IRK_Alexander_Scherbakov = {
		name = IRK_Alexander_Scherbakov
		portraits = { 
			army = {
				large = "gfx/leaders/IRK/Portrait_Irkutsk_Alexander_Scherbakov.dds"
			}
		}
		corps_commander = {
			traits = { trickster career_officer }
			skill = 2
			attack_skill = 1
			defense_skill = 2
			planning_skill = 2
			logistics_skill = 2
			legacy_id = 3708
		}
	}

	IRK_Andrey_Belov = {
		name = IRK_Andrey_Belov
		portraits = { 
			army = {
				large = "gfx/leaders/IRK/Portrait_Irkutsk_Andrey_Belov.dds"
			}
		}
		corps_commander = {
			traits = { infantry_leader urban_assault_specialist }
			skill = 2
			attack_skill = 3
			defense_skill = 2
			planning_skill = 1
			logistics_skill = 2
			legacy_id = 3709
		}
	}

	IRK_Vasily_Petrov = {
		name = IRK_Vasily_Petrov
		portraits = { 
			army = {
				large = "gfx/leaders/IRK/Portrait_Irkutsk_Vasily_Petrov.dds"
			}
		}
		corps_commander = {
			traits = { career_officer winter_specialist  }
			skill = 2
			attack_skill = 2
			defense_skill = 2
			planning_skill = 1
			logistics_skill = 2
			legacy_id = 3710
		}
	}

	#Post Men collapse
	IRK_Zhambal_Gomboev = {
		name = "IRK_Zhambal_Gomboev"
		portraits = {
			civilian = {
				large = "gfx/leaders/IRK/Portrait_Irkutsk_Zhambal_Gomboev.dds"
			}
		}
	}
}
