characters = {
	## Oromia ##
   	# Country Leaders #
   	ORM_Maammoo_Mazamir = {
       	name = ORM_Maammoo_Mazamir
       	portraits = {
           	civilian = {
				large = "gfx/leaders/ORM/Portrait_Oromo_Maammoo_Mazammir.dds"
			}
       	}
       	country_leader = {
        	desc = "POLITICS_OJUKWU_DESC"
        	expire = "1985.1.1"
			ideology = social_democracy_subtype
        	traits = {
	        	
        	}
       		id = -1
       	}
   	}
	ORM_Tadesse_Birru = {
       	name = ORM_Tadesse_Birru
       	portraits = {
       		civilian = {
				large = "gfx/leaders/ORM/Portrait_Oromo_Tadesse_Birru.dds"
			}
       	}
       	country_leader = {
	       	desc = "POLITICS_OJUKWU_DESC"
	       	expire = "1985.1.1"
			ideology = despotism_subtype
	       	traits = {
		       	
	       	}
       		id = -1
       	}
    }
}