characters = {
	## Eritea ##
    # Country Leaders #
	ERT_Woldeab_Woldemariam = {
       	name = ERT_Woldeab_Woldemariam
       	portraits = {
           	civilian = {
				large = "gfx/leaders/ERT/Portrait_Eritrea_Woldeab_Woldemariam.dds"
			}
       	}
       	country_leader = {
	       	expire = "1985.1.1"
			ideology = liberal_democracy_subtype
	       	traits = {
		       	
	       	}
           	id = -1
       	}
    }
	ERT_Isaias_Afwerki = {
       	name = ERT_Isaias_Afwerki
       	portraits = {
     		civilian = {
				large = "gfx/leaders/ERT/Portrait_Eritrea_Isaias_Afwerki.dds"
			}
       	}
       	country_leader = {
        	expire = "1985.1.1"
			ideology = fascism_subtype
        	traits = {
		        	
        	}
    		id = -1
       	}
   	}
	ERT_Hamid_Idris_Awate = {
       	name = ERT_Hamid_Idris_Awate
       	portraits = {
     		civilian = {
				large = "gfx/leaders/IEA/Portrait_IEA_Hamid_Idris_Awate.dds"
			}
       	}
       	country_leader = {
        	expire = "1985.1.1"
			ideology = authoritarian_democracy_subtype
        	traits = {
		        	
        	}
    		id = -1
       	}
   	}
}