characters = {
	CRO_Tomislav_II = {
		name = CRO_Tomislav_II
		portraits = {
			civilian = {
				large = "gfx/leaders/CRO/Portrait_Croatia_Tomislav_II.dds"
			}
		}
		country_leader = {
			desc = "POLITICS_TOMISLAV_II_DESC"
			expire = "1999.1.1"
			ideology = authoritarian_democracy_subtype
			id = -1
		}
		country_leader = {
			desc = "POLITICS_TOMISLAV_II_DESC"
			expire = "1999.1.1"
			ideology = despotism_subtype
			id = -1
		}
		country_leader = {
			desc = "POLITICS_TOMISLAV_II_DESC"
			expire = "1999.1.1"
			ideology = fascism_subtype
			id = -1
		}
	}
	CRO_Jure_Francetic = {
		name = CRO_Jure_Francetic
		portraits = {
			civilian = {
				large = "gfx/leaders/CRO/Portrait_Croatia_Jure_Francetic.dds"
			}
		}
	}
	CRO_Josip_Broz_Tito = {
		name = CRO_Josip_Broz_Tito
		portraits = {
			civilian = {
				large = "gfx/leaders/CRO/Portrait_Yugoslavia_Josip_Broz_Tito.dds"
			}
		}
	}
	CRO_Zvonimir_II = {
		name = CRO_Zvonimir_II
		portraits = {
			civilian = {
				large = "gfx/leaders/CRO/Portrait_Croatia_Zvonimir_II.dds"
			}
		}
	}
}