characters = {
	## Ethiopia ##
    	# Country Leaders #
		ETH_Haile_Selassie_Gugsa = {
        	name = ETH_Haile_Selassie_Gugsa
        	portraits = {
           		civilian = {
					large = "gfx/leaders/ETH/Portrait_Amhara_Haile_Selassie_Gugsa.dds"
				}
        	}
        	country_leader = {
	        	desc = "POLITICS_OJUKWU_DESC"
	        	expire = "1985.1.1"
				ideology = authoritarian_democracy_subtype
	        	traits = {
		        	
	        	}
            		id = -1
        	}
    	}
		ENS_Mengistu_Haile_Mariam = {
        	name = ENS_Mengistu_Haile_Mariam
        	portraits = {
            	civilian = {
					large = "gfx/leaders/ENS/Portrait_Ethiopia_Mengistu_Haile_Mariam.dds"
				}
        	}
        	country_leader = {
	        	desc = "POLITICS_OJUKWU_DESC"
	        	expire = "1965.1.1"
				ideology = communist_subtype
	        	traits = {
		        	
	        	}
            	id = -1
        	}
    	}
		ETB_Abebe_Aregai = {
        	name = ETB_Abebe_Aregai
        	portraits = {
            	civilian = {
					large = "gfx/leaders/ETB/Abebe_Aregai.dds"
				}
        	}
        	country_leader = {
	        	desc = "POLITICS_OJUKWU_DESC"
	        	expire = "1965.1.1"
				ideology = authoritarian_democracy_subtype
	        	traits = {
		        	
	        	}
            	id = -1
        	}
    	}
		AFR_Hassan_Gouled_Aptidon = {
        	name = AFR_Hassan_Gouled_Aptidon
        	portraits = {
            	civilian = {
					large = "gfx/leaders/AFR/Portrait_Afar_Hassan_Gouled_Aptidon.dds"
				}
        	}
        	country_leader = {
	        	desc = "POLITICS_OJUKWU_DESC"
	        	expire = "1965.1.1"
				ideology = authoritarian_democracy_subtype
	        	traits = {
		        	
	        	}
            	id = -1
        	}
    	}
}