characters = {
	## Somalia ##
    # Country Leaders #
	SML_Abdullahi_Issa_Mohamud = {
       	name = SML_Abdullahi_Issa_Mohamud
       	portraits = {
            civilian = {
				large = "gfx/leaders/SML/Portrait_Somalia_Abdullahi_Issa_Mohamud.dds"
			}
       	}
       	country_leader = {
	       	desc = "POLITICS_OJUKWU_DESC"
	       	expire = "1985.1.1"
			ideology = conservative_democracy_subtype
	       	traits = {
	        	
	       	}
          	id = -1
       	}
    }
	SML_Siad_Barre = {
       	name = SML_Siad_Barre
       	portraits = {
          	civilian = {
				large = "gfx/leaders/SML/Portrait_Somalia_Siad_Barre.dds"
			}
        }
        country_leader = {
	       	desc = "POLITICS_OJUKWU_DESC"
	       	expire = "1985.1.1"
			ideology = communist_subtype
	       	traits = {
		       	
	       	}
           	id = -1
        }
    }
}