ideas = {
	country = {
		### GENERAL ###
		AM_salted_earth = {
			on_add = {log = "[GetDateText]: [Root.GetName]: add idea AM_salted_earth"}
			allowed = {
				always = no
			}
			allowed_civil_war = {
				always = yes
			}
			removal_cost = -1
			picture = AM_salted_earth
			modifier = {
				MONTHLY_POPULATION = -0.45
				production_speed_buildings_factor = -0.25
				consumer_goods_use_modifier = 0.25
				attrition = 0.15
				conscription_factor = -0.1
			}
		}

		### NORTH RUSSIAN LIBERATION FRONT ###
		TMA_nothing_left_but_the_people = {
			on_add = {log = "[GetDateText]: [Root.GetName]: add idea TMA_nothing_left_but_the_people"}
			allowed = {
				always = no
			}
			allowed_civil_war = {
				always = yes
			}
			removal_cost = -1
			picture = TMA_nothing_left_but_the_people
			modifier = {
				army_core_defence_factor = 0.25
				political_power_factor = -0.50
			}
		}
		TMA_impossible_position = {
			on_add = {log = "[GetDateText]: [Root.GetName]: add idea TMA_impossible_position"}
			allowed = {
				always = no
			}
			allowed_civil_war = {
				always = yes
			}
			removal_cost = -1
			picture = TMA_an_impossible_position
			targeted_modifier = {
				tag = FIN
				extra_trade_to_target_factor = 0.20
			}
		}

		### IMPERIAL MERCANTILE CONSORTIUM ###
		TMV_corporate_pillars = {
			on_add = {log = "[GetDateText]: [Root.GetName]: add idea TMV_corporate_pillars"}
			allowed = {
				always = no
			}
			allowed_civil_war = {
				always = yes
			}
			removal_cost = -1
			picture = TMV_The_Corporate_Pillars
			modifier = {
				political_power_factor = -0.25
				local_resources_factor = 0.30
			}
		}
		TMV_fraying_strings = {
			on_add = {log = "[GetDateText]: [Root.GetName]: add idea TMV_fraying_strings"}
			allowed = {
				always = no
			}
			allowed_civil_war = {
				always = yes
			}
			removal_cost = -1
			picture = TMV_Fraying_Strings
			modifier = {
				stability_weekly = 0.001
			}
		}

		### HOLY RUSSIAN EMPIRE ###
		KOM_imperium_nihilus = {
			on_add = {log = "[GetDateText]: [Root.GetName]: add idea KOM_imperium_nihilus"}
			allowed = {
				always = no
			}
			allowed_civil_war = {
				always = yes
			}
			removal_cost = -1
			picture = KOM_imperium_nihilus
			modifier = {
				stability_weekly = -0.005
			}
		}
		KOM_hermit_kingdom = {
			on_add = {log = "[GetDateText]: [Root.GetName]: add idea KOM_hermit_kingdom"}
			allowed = {
				always = no
			}
			allowed_civil_war = {
				always = yes
			}
			removal_cost = -1
			picture = KOM_hermit_kingdom
			modifier = {
				max_dig_in = 10
			}
		}

		### CHRISTIAN REPUBLIC OF SAMARA ###
		TMS_beacon_in_the_wastes = {
			on_add = {log = "[GetDateText]: [Root.GetName]: add idea TMS_beacon_in_the_wastes"}
			allowed = {
				always = no
			}
			allowed_civil_war = {
				always = yes
			}
			removal_cost = -1
			picture = TMS_beacon_in_the_wastes
			modifier = {
				weekly_manpower = 250
			}
		}
		TMS_blessed_isolation = {
			on_add = {log = "[GetDateText]: [Root.GetName]: add idea TMS_blessed_isolation"}
			allowed = {
				always = no
			}
			allowed_civil_war = {
				always = yes
			}
			removal_cost = -1
			picture = TMS_Blessed_Isolation
			modifier = {
				justify_war_goal_time = 1.0
			}
		}

		### AUTONOMOUS SOVIET LIBERATION ARMY ###
		TML_not_yet_lost = {
			on_add = {log = "[GetDateText]: [Root.GetName]: add idea TML_not_yet_lost"}
			allowed = {
				always = no
			}
			allowed_civil_war = {
				always = yes
			}
			removal_cost = -1
			picture = TML_not_yet_lost
			modifier = {
				war_support_factor = 0.1
				army_defence_factor = 0.25
			}
		}

		### Idel-Ural Free State ###
		TMQ_bitter_survivors = {
			on_add = {log = "[GetDateText]: [Root.GetName]: add idea TMQ_bitter_survivors"}
			allowed = {
				always = no
			}
			allowed_civil_war = {
				always = yes
			}
			removal_cost = -1
			picture = TMQ_bitter_survivors
			modifier = {
				army_core_defence_factor = 0.30
			}
		}

		### URAL PURIFICATION ZONE ###
		TMU_horsemans_ride = {
			on_add = {log = "[GetDateText]: [Root.GetName]: add idea TMU_horsemans_ride"}
			allowed = {
				always = no
			}
			allowed_civil_war = {
				always = yes
			}
			removal_cost = -1
			picture = TMU_horsemans_ride
			modifier = {
				conscription_factor = -0.75
				army_attack_factor = 0.20
			}
		}

		### REVOLUTIONARY COMMUNES OF ORENBURG ###
		TMN_new_land_of_iron = {
			on_add = {log = "[GetDateText]: [Root.GetName]: add idea TMN_new_land_of_iron"}
			allowed = {
				always = no
			}
			allowed_civil_war = {
				always = yes
			}
			removal_cost = -1
			picture = TMN_new_land_of_iron
			modifier = {
				production_speed_buildings_factor = 0.25
				production_factory_efficiency_gain_factor = 0.15
			}
		}
		TMN_last_revolution = {
			on_add = {log = "[GetDateText]: [Root.GetName]: add idea TMN_last_revolution"}
			allowed = {
				always = no
			}
			allowed_civil_war = {
				always = yes
			}
			removal_cost = -1
			picture = TMN_final_revolution
			modifier = {
				drift_defence_factor = 1.00
				stability_factor = -0.35
			}
		}

		### THE INSTITUTE ###
		TMI_visionary_enclave = {
			on_add = {log = "[GetDateText]: [Root.GetName]: add idea TMI_visionary_enclave"}
			allowed = {
				always = no
			}
			allowed_civil_war = {
				always = yes
			}
			removal_cost = -1
			picture = TMI_visionary_enclave
			modifier = {
				research_speed_factor = 0.15
				political_power_factor = -0.05
				stability_factor = 0.05
			}
		}
		TMI_the_cutting_edge = {
			on_add = {log = "[GetDateText]: [Root.GetName]: add idea TMI_the_cutting_edge"}
			allowed = {
				always = no
			}
			allowed_civil_war = {
				always = yes
			}
			removal_cost = -1
			picture = TMI_the_cutting_edge
			modifier = {
				army_org_factor = 0.2
				army_defence_factor = 0.15
				supply_consumption_factor = 0.05
			}
		}
		
		### CENTRAL EURASIAN REPUBLIC ###
		
		TME_Benevolent_Authoritarianism = {
			on_add = {log = "[GetDateText]: [Root.GetName]: add idea TME_Benevolent_Authoritarianism"}
			allowed = {
				always = no
			}
			allowed_civil_war = {
				always = yes
			}
			
			removal_cost = -1
			
			picture = TME_Benevolent_Authoritarianism
			
			modifier = {
				stability_factor = 0.20
			}
		}
		
		### NEW TOMSK ###
		
		TMJ_legacy_of_the_salons = {
			on_add = {log = "[GetDateText]: [Root.GetName]: add idea TMJ_legacy_of_the_salons"}
			allowed = {
				always = no
			}
			allowed_civil_war = {
				always = yes
			}
			
			removal_cost = -1
			
			picture = TMJ_legacy_of_the_salons
			
			modifier = {
				authoritarian_democracy_drift = 0.05
				conservative_democracy_drift = 0.02
				social_democracy_drift = 0.02
				liberal_democracy_drift = 0.01
			}
		}
		
		TMJ_Crumbling_City = {
			on_add = {log = "[GetDateText]: [Root.GetName]: add idea TMJ_Crumbling_City"}
			allowed = {
				always = no
			}
			allowed_civil_war = {
				always = yes
			}
			
			removal_cost = -1
			
			picture = TMJ_Crumbling_City
			
			modifier = {
				production_speed_buildings_factor = -0.40
			}
		}
		
		### KINGDOM OF ALTAY ###
		
		TMH_The_Practical_Kingdom = {
			on_add = {log = "[GetDateText]: [Root.GetName]: add idea TMH_The_Practical_Kingdom"}
			allowed = {
				always = no
			}
			allowed_civil_war = {
					always = yes
			}
		
			removal_cost = -1
		
			picture = TMH_The_Practical_Kingdom
		
			modifier = {
				stability_factor = 0.10
				political_power_factor = -0.25
				drift_defence_factor = -0.10
			}
		}
		
		### SIBERIAN FREE TERRITORY ###
		
		TMW_Empty_Magazines_Full_Hearts = {
			on_add = {log = "[GetDateText]: [Root.GetName]: add idea TMW_Empty_Magazines_Full_Hearts"}
			allowed = {
				always = no
			}
			allowed_civil_war = {
					always = yes
			}
		
			removal_cost = -1
		
			picture = TMW_Empty_Magazines_Full_Hearts
		
			modifier = {
				industrial_capacity_factory = -0.25
				army_core_defence_factor = 0.10
				production_factory_max_efficiency_factor = 0.10
			}
		}
		
		### BRATSK COMMUNAL VANGUARD ###
		
		TMX_Black_Bandits = {
			on_add = {log = "[GetDateText]: [Root.GetName]: add idea TMX_Black_Bandits"}
			allowed = {
				always = no
			}
			allowed_civil_war = {
					always = yes
			}
		
			removal_cost = -1
		
			picture = TMX_Black_Bandits
		
			modifier = {
				stability_factor = -0.30
				war_support_factor = 0.15
			}
		}
		
		###########Russian Empire###############
		TMG_the_pretender_of_the_people = {
			on_add = {log = "[GetDateText]: [Root.GetName]: add idea TMG_the_pretender_of_the_people"}
			allowed = {
				always = no
			}
			allowed_civil_war = {
				always = yes
			}

			removal_cost = -1

			picture = TMG_pretender_of_the_people

			modifier = {
				political_power_gain = 0.25
			}
		}
		TMG_a_red_tsar = {
			on_add = {log = "[GetDateText]: [Root.GetName]: add idea TMG_a_red_tsar"}
			allowed = {
				always = no
			}
			allowed_civil_war = {
				always = yes
			}

			removal_cost = -1

			picture = TMG_the_red_tsar

			modifier = {
				production_factory_max_efficiency_factor = 0.1
				production_factory_efficiency_gain_factor = 0.1
				industrial_capacity_factory = 0.1
			}
		}
		###########Regency of Holy Russia###############
		TMY_all_alone = {
			on_add = {log = "[GetDateText]: [Root.GetName]: add idea TMY_all_alone"}
			allowed = {
				always = no
			}
			allowed_civil_war = {
				always = yes
			}

			removal_cost = -1

			picture = TMY_all_alone

			modifier = {
				max_dig_in = 5
				defence = 0.15
				stability_weekly = -0.005
			}
		}
		###########Amur Refugee Zone###############
		TMR_critical_supply_shortage = {
			on_add = {log = "[GetDateText]: [Root.GetName]: add idea TMR_critical_supply_shortage"}
			allowed = {
				always = no
			}
			allowed_civil_war = {
				always = yes
			}

			removal_cost = -1

			picture = TMR_Critical_Supply_Shortages

			modifier = {
				local_resources_factor = -0.50
				supply_consumption_factor = 0.50
			}
		}
		###########Free Port Of Magadan###############
		TMM_shiver_my_soul = {
			on_add = {log = "[GetDateText]: [Root.GetName]: add idea TMM_shiver_my_soul"}
			allowed = {
				always = no
			}
			allowed_civil_war = {
				always = yes
			}

			removal_cost = -1

			picture = TMM_Shiver_my_Soul

			modifier = {
				conscription_factor = 0.10
			}
		}
		TMM_greed_and_felony = {
			on_add = {log = "[GetDateText]: [Root.GetName]: add idea TMM_greed_and_felony"}
			allowed = {
				always = no
			}
			allowed_civil_war = {
				always = yes
			}

			removal_cost = -1

			picture = TMM_Greed_and_Felony

			modifier = {
				consumer_goods_use_modifier = -0.05
				industrial_capacity_dockyard = 0.1
			}
		}
		###########United Siberian Salvation Committee###############
		TMC_a_light_from_the_east = {
			on_add = {
				log = "[GetDateText]: [Root.GetName]: add idea TMC_a_light_from_the_east"
				custom_effect_tooltip = TMC_a_light_from_the_east_effect
			}
			allowed = {
				always = no
			}
			allowed_civil_war = {
				always = yes
			}

			removal_cost = -1

			picture = TMC_The_Torch_In_The_East

			modifier = {
				stability_weekly = 0.001
				weekly_manpower = 125
			}
		}
		###########Kazakh Purification Army###############
		TMP_eye_for_an_eye = {
			on_add = {log = "[GetDateText]: [Root.GetName]: add idea TMP_eye_for_an_eye"}
			allowed = {
				always = no
			}
			allowed_civil_war = {
				always = yes
			}

			removal_cost = -1

			picture = TMP_eye_for_an_eye

			modifier = {
				army_core_defence_factor = 0.20
				conscription_factor = -0.35
			}
		}
		############ Trans-Ural Confederation###########
		TMT_memories_of_heroism = {
			on_add = {log = "[GetDateText]: [Root.GetName]: add idea TMT_memories_of_heroism"}
			allowed = {
				always = no
			}
			allowed_civil_war = {
				always = yes
			}

			removal_cost = -1

			picture = TMT_memories_of_heroism

			modifier = {
				army_morale_factor = 0.15
				offence = 0.15
				defence = 0.15
			}
		}

		################# Imperial Airborne Brigades ########
		TMD_sky_reavers = {
			on_add = {log = "[GetDateText]: [Root.GetName]: add idea TMD_sky_reavers"}
			allowed = {
				always = no
			}
			allowed_civil_war = {
				always = yes
			}

			removal_cost = -1

			picture = TMD_sky_reavers

			modifier = {
				air_range_factor = 0.3
				base_fuel_gain_factor = 0.15
			}
		}

		######################### Nenetsian Free Army #################
		TMF_depleted_population = {
			on_add = {log = "[GetDateText]: [Root.GetName]: add idea TMF_depleted_population"}
			allowed = {
				always = no
			}
			allowed_civil_war = {
				always = yes
			}

			removal_cost = -1

			picture = TMF_depleted_population

			modifier = {
				conscription_factor = -0.35
			}
		}

		####################### Redeemed Black League #####################
		TMO_insular_enclave = {
			on_add = {log = "[GetDateText]: [Root.GetName]: add idea TMO_insular_enclave"}
			allowed = {
				always = no
			}
			allowed_civil_war = {
				always = yes
			}

			removal_cost = -1

			picture = TMO_Insular_Enclave

			modifier = {
				offence = 0.15
				monthly_population = -0.5
			}

		}
		TMO_redemptionary_service = {
			on_add = {log = "[GetDateText]: [Root.GetName]: add idea TMO_redemptionary_service"}
			allowed = {
				always = no
			}
			allowed_civil_war = {
				always = yes
			}

			removal_cost = -1

			picture = TMO_Redemptionary_Service

			modifier = {
				conscription = 0.025
			}

		}
		####################### Brotherhood of Cain #####################

		TMB_deranged_cult = {
			on_add = {log = "[GetDateText]: [Root.GetName]: add idea TMB_deranged_cult"}
			allowed = {
				always = no
			}
			allowed_civil_war = {
				always = yes
			}

			removal_cost = -1

			picture = TMB_Deranged_Cult

			modifier = {
				stability_factor = -0.50
				war_support_factor = 0.25
			}

		}

		TMB_evil_unbound = {
			on_add = {log = "[GetDateText]: [Root.GetName]: add idea TMB_evil_unbound"}
			allowed = {
				always = no
			}
			allowed_civil_war = {
				always = yes
			}

			removal_cost = -1

			picture = TMB_evil_unbound

			modifier = {
				monthly_population = -0.75
			}

		}

		####################### The Free Kazakh Clans #####################

		TMK_scarred_steppes = {
			on_add = {log = "[GetDateText]: [Root.GetName]: add idea TMK_scarred_steppes"}
			allowed = {
				always = no
			}
			allowed_civil_war = {
				always = yes
			}

			removal_cost = -1

			picture = TMK_scarred_steppe

			modifier = {
				production_speed_buildings_factor = -0.50
			}
		}
	}
}