ideas = {
	hidden_ideas = {
		SBA_redistribution_cost = {
			on_add = {log = "[GetDateText]: [Root.GetName]: add idea SBA_redistribution_cost"}
			allowed = {
				always = no
			}
            cancel = { has_country_flag = RUS_cancel_all_ideas }
			allowed_civil_war = {
				always = yes
			}
			removal_cost = -1
			modifier = {
				misc_costs_modifier = 0.03
			}
		}
		SBA_developing_the_free_territory = {
			on_add = {log = "[GetDateText]: [Root.GetName]: add idea SBA_developing_the_free_territory"}
			allowed = {
				always = no
			}
            cancel = { has_country_flag = RUS_cancel_all_ideas }
			allowed_civil_war = {
				always = yes
			}
			removal_cost = -1
			modifier = {
				misc_costs_modifier = 0.1
			}
		}
		SBA_education_projects = {
			on_add = {log = "[GetDateText]: [Root.GetName]: add idea SBA_education_projects"}
			allowed = {
				always = no
			}
            cancel = { has_country_flag = RUS_cancel_all_ideas }
			allowed_civil_war = {
				always = yes
			}
			removal_cost = -1
			modifier = {
				misc_costs_modifier = 0.1
			}
		}
		SBA_making_our_message_clear = {
			on_add = {log = "[GetDateText]: [Root.GetName]: add idea SBA_making_our_message_clear"}
			allowed = {
				always = no
			}
            cancel = { has_country_flag = RUS_cancel_all_ideas }
			allowed_civil_war = {
				always = yes
			}
			removal_cost = -1
			modifier = {
				misc_costs_modifier = 0.15
			}
		}
		SBA_nuclear_development_project = {
			on_add = {log = "[GetDateText]: [Root.GetName]: add idea SBA_nuclear_development_project"}
			allowed = {
				always = no
			}
            cancel = { has_country_flag = RUS_cancel_all_ideas }
			allowed_civil_war = {
				always = yes
			}
			removal_cost = -1
			modifier = {
				misc_costs_modifier = 0.2
			}
		}
		SBA_nuclear_development_project_2 = {
			on_add = {log = "[GetDateText]: [Root.GetName]: add idea SBA_nuclear_development_project_2"}
			allowed = {
				always = no
			}
            cancel = { has_country_flag = RUS_cancel_all_ideas }
			allowed_civil_war = {
				always = yes
			}
			removal_cost = -1
			modifier = {
				misc_costs_modifier = 0.15
			}
		}
		SBA_nuclear_development_project_3 = {
			on_add = {log = "[GetDateText]: [Root.GetName]: add idea SBA_nuclear_development_project_3"}
			allowed = {
				always = no
			}
            cancel = { has_country_flag = RUS_cancel_all_ideas }
			allowed_civil_war = {
				always = yes
			}
			removal_cost = -1
			modifier = {
				misc_costs_modifier = 0.05
			}
		}
	}
	country = {
		SBA_anarchist_refuge = {
			on_add = {log = "[GetDateText]: [Root.GetName]: add idea SBA_anarchist_refuge"}
			allowed = {
				always = no
			}
            cancel = { has_country_flag = RUS_cancel_all_ideas }
			allowed_civil_war = {
				always = yes
			}
			removal_cost = -1
			picture = SBA_siberian_free_territory
			modifier = {
				debt_to_GDP_ceiling_modifier = 0.9
				military_expenditures_factor = -0.2
				consumer_goods_use_modifier = 0.1
				political_power_factor = -0.1
				army_org_factor = -0.2
				local_resources_factor = -0.15
				stability_factor = 0.25
			}
		}
		SBA_anarchist_refuge_2 = {
			on_add = {log = "[GetDateText]: [Root.GetName]: add idea SBA_anarchist_refuge_2"}
			allowed = {
				always = no
			}
            cancel = { has_country_flag = RUS_cancel_all_ideas }
			allowed_civil_war = {
				always = yes
			}
			removal_cost = -1
			picture = SBA_siberian_free_territory
			modifier = {
				debt_to_GDP_ceiling_modifier = 0.9
				military_expenditures_factor = -0.2
				consumer_goods_use_modifier = 0.05
				political_power_factor = -0.05
				army_org_factor = -0.1
				local_resources_factor = -0.15
				stability_factor = 0.2
			}
		}
		SBA_anarchist_refuge_3 = {
			on_add = {log = "[GetDateText]: [Root.GetName]: add idea SBA_anarchist_refuge_3"}
			allowed = {
				always = no
			}
            cancel = { has_country_flag = RUS_cancel_all_ideas }
			allowed_civil_war = {
				always = yes
			}
			removal_cost = -1
			picture = SBA_siberian_free_territory
			modifier = {
				debt_to_GDP_ceiling_modifier = 1
				military_expenditures_factor = -0.2
				consumer_goods_use_modifier = 0.05
				army_org_factor = -0.1
				local_resources_factor = -0.15
				stability_factor = 0.15
			}
		}
		SBA_anarchist_refuge_4 = {
			on_add = {log = "[GetDateText]: [Root.GetName]: add idea SBA_anarchist_refuge_4"}
			allowed = {
				always = no
			}
			allowed_civil_war = {
				always = yes
			}
			removal_cost = -1
			picture = SBA_siberian_free_territory
			modifier = {
				debt_to_GDP_ceiling_modifier = 1
				military_expenditures_factor = -0.2
				army_org_factor = -0.1
				stability_factor = 0.1
			}
		}
		SBA_anarchist_refuge_5 = {
			on_add = {log = "[GetDateText]: [Root.GetName]: add idea SBA_anarchist_refuge_5"}
			allowed = {
				always = no
			}
			allowed_civil_war = {
				always = yes
			}
			removal_cost = -1
			picture = SBA_siberian_free_territory
			modifier = {
				debt_to_GDP_ceiling_modifier = 1.15
				military_expenditures_factor = -0.2
				army_org_factor = -0.1
				stability_factor = 0.05
			}
		}
		SBA_anarchist_refuge_6 = {
			on_add = {log = "[GetDateText]: [Root.GetName]: add idea SBA_anarchist_refuge_6"}
			allowed = {
				always = no
			}
			allowed_civil_war = {
				always = yes
			}
			removal_cost = -1
			picture = SBA_siberian_free_territory
			modifier = {
				debt_to_GDP_ceiling_modifier = 1.15
				military_expenditures_factor = -0.1
				political_power_factor = 0.05
			}
		}
		SBA_anarchist_refuge_7 = {
			on_add = {log = "[GetDateText]: [Root.GetName]: add idea SBA_anarchist_refuge_7"}
			allowed = {
				always = no
			}
			allowed_civil_war = {
				always = yes
			}
			removal_cost = -1
			picture = SBA_siberian_free_territory
			modifier = {
				debt_to_GDP_ceiling_modifier = 1.15
				military_expenditures_factor = -0.05
				army_org_factor = 0.05
				stability_factor = -0.05
			}
		}
		SBA_anarchist_refuge_8 = {
			on_add = {log = "[GetDateText]: [Root.GetName]: add idea SBA_anarchist_refuge_8"}
			allowed = {
				always = no
			}
			allowed_civil_war = {
				always = yes
			}
			removal_cost = -1
			picture = SBA_siberian_free_territory
			modifier = {
				socialist_drift = 0.02
				debt_to_GDP_ceiling_modifier = 1.15
				military_expenditures_factor = -0.1
				political_power_factor = -0.05
				stability_factor = 0.1
			}
		}
		SBA_militarized_society = {
			on_add = {log = "[GetDateText]: [Root.GetName]: add idea SBA_militarized_society"}
			allowed = {
				always = no
			}
            cancel = { has_country_flag = RUS_cancel_all_ideas }
			allowed_civil_war = {
				always = yes
			}
			removal_cost = -1
			picture = GBE_militia_based_army
			modifier = {
				army_attack_factor = -0.05
				war_support_factor = 0.15
				army_core_defence_factor = 0.1
				army_core_attack_factor = 0.1
				conscription_factor = 0.15
			}
		}
		SBA_militarized_society_2 = {
			on_add = {log = "[GetDateText]: [Root.GetName]: add idea SBA_militarized_society_2"}
			allowed = {
				always = no
			}
            cancel = { has_country_flag = RUS_cancel_all_ideas }
			allowed_civil_war = {
				always = yes
			}
			removal_cost = -1
			picture = GBE_militia_based_army
			modifier = {
				war_support_factor = 0.2
				army_core_defence_factor = 0.1
				army_core_attack_factor = 0.1
				conscription_factor = 0.2
			}
		}
		SBA_guardians_of_the_revolution = {
			on_add = {log = "[GetDateText]: [Root.GetName]: add idea SBA_guardians_of_the_revolution"}
			allowed = {
				always = no
			}
            cancel = { has_country_flag = RUS_cancel_all_ideas }
			allowed_civil_war = {
				always = yes
			}
			removal_cost = -1
			picture = CNT_militia_army
			modifier = {
				war_support_factor = 0.2
				army_core_defence_factor = 0.1
				army_core_attack_factor = 0.05
				conscription_factor = 0.2
				army_morale_factor = 0.1
				experience_gain_army = 0.01
			}
		}
		SBA_army_for_liberation = {
			on_add = {log = "[GetDateText]: [Root.GetName]: add idea SBA_army_for_liberation"}
			allowed = {
				always = no
			}
            cancel = { has_country_flag = RUS_cancel_all_ideas }
			allowed_civil_war = {
				always = yes
			}
			removal_cost = -1
			picture = CNT_militia_army
			modifier = {
				war_support_factor = 0.2
				army_core_defence_factor = 0.05
				army_attack_factor = 0.1
				conscription_factor = 0.2
				army_morale_factor = 0.2
				experience_gain_army = 0.01
				ai_focus_aggressive_factor = 0.2
			}
		}
		SBA_army_for_defense = {
			on_add = {log = "[GetDateText]: [Root.GetName]: add idea SBA_army_for_liberation"}
			allowed = {
				always = no
			}
            cancel = { has_country_flag = RUS_cancel_all_ideas }
			allowed_civil_war = {
				always = yes
			}
			removal_cost = -1
			picture = CNT_militia_army
			modifier = {
				war_support_factor = 0.2
				army_core_defence_factor = 0.15
				army_core_attack_factor = 0.05
				conscription_factor = 0.2
				army_morale_factor = 0.1
				army_org_factor = 0.1
				experience_gain_army = 0.01
				ai_focus_defense_factor = 0.15
			}
		}
		SBA_black_army_administration_1 = {
			on_add = {log = "[GetDateText]: [Root.GetName]: add idea SBA_black_army_administration_1"}
			allowed = {
				always = no
			}
            cancel = { has_country_flag = RUS_cancel_all_ideas }
			allowed_civil_war = {
				always = yes
			}
			removal_cost = -1
			picture = KRS_Military_Guided_Democracy
			modifier = {
				army_attack_factor = 0.025
				army_morale_factor = 0.025
				despotism_drift = 0.02
			}
		}
		SBA_black_army_administration_2 = {
			on_add = {log = "[GetDateText]: [Root.GetName]: add idea SBA_black_army_administration_2"}
			allowed = {
				always = no
			}
            cancel = { has_country_flag = RUS_cancel_all_ideas }
			allowed_civil_war = {
				always = yes
			}
			removal_cost = -1
			picture = KRS_Military_Guided_Democracy
			modifier = {
				army_attack_factor = 0.05
				army_morale_factor = 0.05
				despotism_drift = 0.04
			}
		}
		SBA_black_army_administration_3 = {
			on_add = {log = "[GetDateText]: [Root.GetName]: add idea SBA_black_army_administration_3"}
			allowed = {
				always = no
			}
            cancel = { has_country_flag = RUS_cancel_all_ideas }
			allowed_civil_war = {
				always = yes
			}
			removal_cost = -1
			picture = KRS_Military_Guided_Democracy
			modifier = {
				army_attack_factor = 0.1
				army_morale_factor = 0.1
				despotism_drift = 0.06
			}
		}
		SBA_black_army_administration_4 = {
			on_add = {log = "[GetDateText]: [Root.GetName]: add idea SBA_black_army_administration_4"}
			allowed = {
				always = no
			}
            cancel = { has_country_flag = RUS_cancel_all_ideas }
			allowed_civil_war = {
				always = yes
			}
			removal_cost = -1
			picture = KRS_Military_Guided_Democracy
			modifier = {
				army_attack_factor = 0.125
				army_morale_factor = 0.125
				despotism_drift = 0.08
			}
		}
		SBA_black_army_administration_5 = {
			on_add = {log = "[GetDateText]: [Root.GetName]: add idea SBA_black_army_administration_5"}
			allowed = {
				always = no
			}
            cancel = { has_country_flag = RUS_cancel_all_ideas }
			allowed_civil_war = {
				always = yes
			}
			removal_cost = -1
			picture = KRS_Military_Guided_Democracy
			modifier = {
				army_attack_factor = 0.15
				army_morale_factor = 0.15
				despotism_drift = 0.1
			}
		}
		SBA_final_preparations = {
			on_add = {log = "[GetDateText]: [Root.GetName]: add idea SBA_final_preparations"}
			allowed = {
				always = no
			}
            cancel = { has_country_flag = RUS_cancel_all_ideas }
			allowed_civil_war = {
				always = yes
			}
			removal_cost = -1
			picture = DER_Preparing_The_Militias
			modifier = {
				army_attack_factor = 0.1
				planning_speed = 0.2
				max_planning = 0.175
			}
		}
		SBA_collective_defense_requirements = {
			on_add = {log = "[GetDateText]: [Root.GetName]: add idea SBA_collective_defense_requirements"}
			allowed = {
				always = no
			}
            cancel = { has_country_flag = RUS_cancel_all_ideas }
			allowed_civil_war = {
				always = yes
			}
			removal_cost = -1
			picture = SBA_collective_defense_requirements_alt
			modifier = {
				production_speed_infrastructure_factor = 0.15
				production_speed_buildings_factor = 0.10
				stability_factor = -0.05
			}
		}
		SBA_enhanced_infantry_production = {
			on_add = {log = "[GetDateText]: [Root.GetName]: add idea SBA_enhanced_infantry_production"}
			allowed = {
				always = no
			}
            cancel = { has_country_flag = RUS_cancel_all_ideas }
			allowed_civil_war = {
				always = yes
			}
			removal_cost = -1
			picture = SBA_enhanced_infantry_production
			equipment_bonus = {
				infantry_equipment = {
					build_cost_ic = -0.15
					reliability = 0.1
					instant = yes
				}
			}
		}
		SBA_integrating_tomsk = {
			on_add = {log = "[GetDateText]: [Root.GetName]: add idea SBA_enhanced_infantry_production"}
			allowed = {
				always = no
			}
            cancel = { has_country_flag = RUS_cancel_all_ideas }
			allowed_civil_war = {
				always = yes
			}
			removal_cost = -1
			picture = SBA_integrate_tomsk
			modifier = {
				war_support_factor = -0.15
			}
		}
		SBA_integrating_novosibirsk = {
			on_add = {log = "[GetDateText]: [Root.GetName]: add idea SBA_enhanced_infantry_production"}
			allowed = {
				always = no
			}
            cancel = { has_country_flag = RUS_cancel_all_ideas }
			allowed_civil_war = {
				always = yes
			}
			removal_cost = -1
			picture = SBA_integrate_novosibirsk
			modifier = {
				war_support_factor = -0.15
			}
		}
		SBA_integrating_oyrotia = {
			on_add = {log = "[GetDateText]: [Root.GetName]: add idea SBA_enhanced_infantry_production"}
			allowed = {
				always = no
			}
            cancel = { has_country_flag = RUS_cancel_all_ideas }
			allowed_civil_war = {
				always = yes
			}
			removal_cost = -1
			picture = SBA_integrate_oyrotia
			modifier = {
				war_support_factor = -0.15
			}
		}
		SBA_restoring_order = {
			on_add = {log = "[GetDateText]: [Root.GetName]: add idea SBA_enhanced_infantry_production"}
			allowed = {
				always = no
			}
            cancel = { has_country_flag = RUS_cancel_all_ideas }
			allowed_civil_war = {
				always = yes
			}
			removal_cost = -1
			picture = SBA_restoring_order
			modifier = {
				socialist_drift = -0.05
				stability_factor = -0.15
			}
		}
		SBA_anarchist_CIA = {
			on_add = {log = "[GetDateText]: [Root.GetName]: add idea SBA_anarchist_CIA"}
			allowed = {
				always = no
			}
            cancel = { has_country_flag = RUS_cancel_all_ideas }
			allowed_civil_war = {
				always = yes
			}
			removal_cost = -1
			picture = BRT_international_diplomacy
			modifier = {
				decryption_factor = 0.15
				send_volunteer_size = 2
			}
		}
		SBA_anarchist_FBI = {
			on_add = {log = "[GetDateText]: [Root.GetName]: add idea SBA_anarchist_FBI"}
			allowed = {
				always = no
			}
            cancel = { has_country_flag = RUS_cancel_all_ideas }
			allowed_civil_war = {
				always = yes
			}
			removal_cost = -1
			picture = BRT_international_diplomacy
			modifier = {
				encryption_factor = 0.25
				drift_defence_factor = 0.2
			}
		}
		SBA_present_the_cure_high = {
			on_add = {log = "[GetDateText]: [Root.GetName]: add idea SBA_present_the_cure_high"}
			allowed = {
				always = no
			}
            cancel = { has_country_flag = RUS_cancel_all_ideas }
			allowed_civil_war = {
				always = yes
			}
			removal_cost = -1
			picture = CNT_nobody_favored
			modifier = {
				drift_defence_factor = 0.30
			}
		}
		SBA_present_the_cure_low = {
			on_add = {log = "[GetDateText]: [Root.GetName]: add idea SBA_present_the_cure_low"}
			allowed = {
				always = no
			}
            cancel = { has_country_flag = RUS_cancel_all_ideas }
			allowed_civil_war = {
				always = yes
			}
			removal_cost = -1
			picture = CNT_nobody_favored
			modifier = {
				drift_defence_factor = 0.1
				socialist_drift = 0.01
			}
		}
		SBA_kostinsty = {
			on_add = {log = "[GetDateText]: [Root.GetName]: add idea SBA_kostinsty"}
			allowed = {
				always = no
			}
            cancel = { has_country_flag = RUS_cancel_all_ideas }
			allowed_civil_war = {
				always = yes
			}
			removal_cost = -1
			picture = BRY_wheels_of_labor
			modifier = {
				army_org_factor = 0.05
				local_resources_factor = 0.1
			}
		}
		SBA_council_of_trade_unions = {
			on_add = {log = "[GetDateText]: [Root.GetName]: add idea SBA_council_of_trade_unions"}
			allowed = {
				always = no
			}
            cancel = { has_country_flag = RUS_cancel_all_ideas }
			allowed_civil_war = {
				always = yes
			}
			removal_cost = -1
			picture = BRY_wheels_of_labor
			modifier = {
				conscription_factor = 0.05
				production_speed_buildings_factor = 0.1
			}
		}
		SBA_i_hate_komnothun = { #love from varflock
			on_add = {log = "[GetDateText]: [Root.GetName]: add idea SBA_i_hate_komnothun"}
			allowed = {
				always = no
			}
            cancel = { has_country_flag = RUS_cancel_all_ideas }
			allowed_civil_war = {
				always = yes
			}
			removal_cost = -1
			picture = generic_weapons_production
			modifier = {
				army_defence_factor = 0.1
			}
		}
		SBA_black_army_chaos = {
			on_add = {log = "[GetDateText]: [Root.GetName]: add idea SBA_black_army_chaos"}
			allowed = {
				always = no
			}
            cancel = { has_country_flag = RUS_cancel_all_ideas }
			allowed_civil_war = {
				always = yes
			}
			removal_cost = -1
			picture = ITA_broken_army
			modifier = {
				army_org_factor = -0.2
				army_attack_factor = -0.5
				army_defence_factor = -0.5
				land_doctrine_cost_factor = 0.25
			}
		}
		SBA_black_army_in_shambles = {
			on_add = {log = "[GetDateText]: [Root.GetName]: add idea SBA_black_army_in_shambles"}
			allowed = {
				always = no
			}
            cancel = { has_country_flag = RUS_cancel_all_ideas }
			allowed_civil_war = {
				always = yes
			}
			removal_cost = -1
			picture = ITA_broken_army
			modifier = {
				army_org_factor = -0.35
				army_attack_factor = -0.75
				army_defence_factor = -0.75
				land_doctrine_cost_factor = 0.5
			}
		}
		SBA_starting_from_scratch = {
			on_add = {log = "[GetDateText]: [Root.GetName]: add idea SBA_starting_from_scratch"}
			allowed = {
				always = no
			}
            cancel = { has_country_flag = RUS_cancel_all_ideas }
			allowed_civil_war = {
				always = yes
			}
			removal_cost = -1
			picture = MGN_army_bad
			modifier = {
				conscription_factor = 0.2
				army_org_factor = -0.35
				army_attack_factor = -0.75
				army_defence_factor = -0.75
				land_doctrine_cost_factor = 0.5
			}
		}
		SBA_citizens_army = {
			on_add = {log = "[GetDateText]: [Root.GetName]: add idea SBA_citizens_army"}
			allowed = {
				always = no
			}
            cancel = { has_country_flag = RUS_cancel_all_ideas }
			allowed_civil_war = {
				always = yes
			}
			removal_cost = -1
			picture = BRY_Idealistic_Revolutionaries
			modifier = {
				attrition = -0.15
				army_core_attack_factor = 0.1
				army_core_defence_factor = 0.15
				war_support_factor = 0.1
				army_org_factor = -0.1
				land_doctrine_cost_factor = 0.1
			}
		}
		SBA_towards_a_professional_army = {
			on_add = {log = "[GetDateText]: [Root.GetName]: add idea SBA_towards_a_professional_army"}
			allowed = {
				always = no
			}
            cancel = { has_country_flag = RUS_cancel_all_ideas }
			allowed_civil_war = {
				always = yes
			}
			removal_cost = -1
			picture = URL_militias_fully_integrated
			modifier = {
				attrition = 0.1
				army_attack_factor = 0.05
				army_defence_factor = 0.05
				army_org_factor = 0.1
			}
		}
		SBA_earning_their_liberation = {
			on_add = {log = "[GetDateText]: [Root.GetName]: add idea SBA_earning_their_liberation"}
			allowed = {
				always = no
			}
            cancel = { has_country_flag = RUS_cancel_all_ideas }
			allowed_civil_war = {
				always = yes
			}
			removal_cost = -1
			picture = IRK_forced_labor
			modifier = {
				local_resources_factor = 0.15
				industrial_capacity_factory = 0.1
			}
		}
		SBA_decentralisation = {
			on_add = {log = "[GetDateText]: [Root.GetName]: add idea SBA_decentralisation"}
			allowed = {
				always = no
			}
            cancel = { has_country_flag = RUS_cancel_all_ideas }
			allowed_civil_war = {
				always = yes
			}
			removal_cost = -1
			picture = CNT_the_stable_front
			modifier = {
				political_power_gain = -0.35
				consumer_goods_use_modifier = -0.1
				production_speed_buildings_factor = 0.1
			}
		}
		SBA_centralised_anarchism = {
			on_add = {log = "[GetDateText]: [Root.GetName]: add idea SBA_centralised_anarchism"}
			allowed = {
				always = no
			}
            cancel = { has_country_flag = RUS_cancel_all_ideas }
			allowed_civil_war = {
				always = yes
			}
			removal_cost = -1
			picture = CNT_the_stable_front
			modifier = {
				industrial_capacity_factory = 0.15
				production_factory_max_efficiency_factor = 0.1
				consumer_goods_use_modifier = 0.075
			}
		}
		SBA_fighting_for_your_home = {
			on_add = {log = "[GetDateText]: [Root.GetName]: add idea SBA_fighting_for_your_home"}
			allowed = {
				always = no
			}
            cancel = { has_country_flag = RUS_cancel_all_ideas }
			allowed_civil_war = {
				always = yes
			}
			removal_cost = -1
			picture = MST_Social_Rights_3
			modifier = {
				stability_factor = 0.075
			}
		}
		SBA_fighting_for_our_home = {
			on_add = {log = "[GetDateText]: [Root.GetName]: add idea SBA_fighting_for_our_home"}
			allowed = {
				always = no
			}
            cancel = { has_country_flag = RUS_cancel_all_ideas }
			allowed_civil_war = {
				always = yes
			}
			removal_cost = -1
			picture = MST_Social_Rights_3
			modifier = {
				stability_factor = 0.1
				political_power_factor = 0.025
			}
		}
		SBA_fighting_for_a_better_tomorrow = {
			on_add = {log = "[GetDateText]: [Root.GetName]: add idea SBA_fighting_for_a_better_tomorrow"}
			allowed = {
				always = no
			}
            cancel = { has_country_flag = RUS_cancel_all_ideas }
			allowed_civil_war = {
				always = yes
			}
			removal_cost = -1
			picture = MST_Social_Rights_3
			modifier = {
				stability_factor = 0.1
				political_power_factor = 0.025
				production_factory_efficiency_gain_factor = 0.1
				monthly_population = 0.05
				industrial_capacity_factory = -0.05
			}
		}
		SBA_fighting_for_those_who_need_it_most_1 = {
			on_add = {log = "[GetDateText]: [Root.GetName]: add idea SBA_fighting_for_those_who_need_it_most_1"}
			allowed = {
				always = no
			}
            cancel = { has_country_flag = RUS_cancel_all_ideas }
			allowed_civil_war = {
				always = yes
			}
			removal_cost = -1
			picture = MST_Social_Rights_3
			modifier = {
				stability_factor = 0.15
				political_power_factor = 0.05
				production_factory_efficiency_gain_factor = 0.1
				monthly_population = 0.1
				industrial_capacity_factory = -0.05
			}
		}
		SBA_fighting_for_those_who_need_it_most_2 = {
			on_add = {log = "[GetDateText]: [Root.GetName]: add idea SBA_fighting_for_those_who_need_it_most_2"}
			allowed = {
				always = no
			}
            cancel = { has_country_flag = RUS_cancel_all_ideas }
			allowed_civil_war = {
				always = yes
			}
			removal_cost = -1
			picture = MST_Social_Rights_3
			modifier = {
				stability_factor = 0.1
				political_power_factor = 0.05
				production_factory_efficiency_gain_factor = 0.1
				monthly_population = 0.1
			}
		}
		SBA_fighting_for_a_stronger_territory_1 = {
			on_add = {log = "[GetDateText]: [Root.GetName]: add idea SBA_fighting_for_a_stronger_territory_1"}
			allowed = {
				always = no
			}
			allowed_civil_war = {
				always = yes
			}
			removal_cost = -1
			picture = MST_Social_Rights_3
			modifier = {
				stability_factor = 0.1
				political_power_factor = 0.05
				production_factory_efficiency_gain_factor = 0.1
				monthly_population = 0.1
			}
		}
		SBA_fighting_for_a_stronger_territory_2 = {
			on_add = {log = "[GetDateText]: [Root.GetName]: add idea SBA_fighting_for_a_stronger_territory_2"}
			allowed = {
				always = no
			}
			allowed_civil_war = {
				always = yes
			}
			removal_cost = -1
			picture = MST_Social_Rights_3
			modifier = {
				stability_factor = 0.05
				political_power_factor = 0.025
				production_factory_efficiency_gain_factor = 0.1
				monthly_population = 0.05
			}
		}
		SBA_fighting_to_prove_a_point = {
			on_add = {log = "[GetDateText]: [Root.GetName]: add idea SBA_fighting_to_prove_a_point"}
			allowed = {
				always = no
			}
            cancel = { has_country_flag = RUS_cancel_all_ideas }
			allowed_civil_war = {
				always = yes
			}
			removal_cost = -1
			picture = MST_Social_Rights_3
			modifier = {
				stability_factor = 0.1
				political_power_factor = 0.075
				production_factory_efficiency_gain_factor = 0.1
				monthly_population = 0.1
				socialist_drift = 0.03
			}
		}
		SBA_the_future_is_anarchy_1 = {
			on_add = {log = "[GetDateText]: [Root.GetName]: add idea SBA_the_future_is_anarchy_1"}
			allowed = {
				always = no
			}
            cancel = { has_country_flag = RUS_cancel_all_ideas }
			allowed_civil_war = {
				always = yes
			}
			removal_cost = -1
			picture = MGN_Constructive_Science
			modifier = {
				research_speed_factor = 0.025
			}
		}
		SBA_the_future_is_anarchy_2 = {
			on_add = {log = "[GetDateText]: [Root.GetName]: add idea SBA_the_future_is_anarchy_2"}
			allowed = {
				always = no
			}
            cancel = { has_country_flag = RUS_cancel_all_ideas }
			allowed_civil_war = {
				always = yes
			}
			removal_cost = -1
			picture = MGN_Constructive_Science
			modifier = {
				research_speed_factor = 0.05
				local_resources_factor = 0.1
			}
		}
		SBA_communal_science = {
			on_add = {log = "[GetDateText]: [Root.GetName]: add idea SBA_communal_science"}
			allowed = {
				always = no
			}
            cancel = { has_country_flag = RUS_cancel_all_ideas }
			allowed_civil_war = {
				always = yes
			}
			removal_cost = -1
			picture = MGN_Constructive_Science
			modifier = {
				research_speed_factor = 0.05
			}
		}
		SBA_abort = {
			on_add = {log = "[GetDateText]: [Root.GetName]: add idea SBA_abort"}
			allowed = {
				always = no
			}
            cancel = { has_country_flag = RUS_cancel_all_ideas }
			allowed_civil_war = {
				always = yes
			}
			removal_cost = -1
			picture = MGN_Purged_Intelligentsia
			modifier = {
				research_speed_factor = -0.1
			}
		}
		SBA_this_we_will_defend = {
			on_add = {log = "[GetDateText]: [Root.GetName]: add idea SBA_this_we_will_defend"}
			allowed = {
				always = no
			}
            cancel = { has_country_flag = RUS_cancel_all_ideas }
			allowed_civil_war = {
				always = yes
			}
			removal_cost = -1
			picture = BRY_Idealistic_Revolutionaries
			modifier = {
				army_attack_factor = 0.1
				army_defence_factor = 0.05
				army_core_defence_factor = 0.15
			}
		}
		SBA_removing_lev_krasnopevtsev_from_history = {
			on_add = {log = "[GetDateText]: [Root.GetName]: add idea SBA_removing_lev_krasnopevtsev_from_history"}
			allowed = {
				always = no
			}
            cancel = { has_country_flag = RUS_cancel_all_ideas }
			allowed_civil_war = {
				always = yes
			}
			removal_cost = -1
			picture = ANG_incoherant_bookkeeping
			modifier = {
				stability_factor = -0.2
				industrial_capacity_factory = -0.15
				consumer_goods_use_modifier = 0.1
				production_factory_max_efficiency_factor = -0.1
			}
		}
		SBA_the_original_anarchist = {
			on_add = {log = "[GetDateText]: [Root.GetName]: add idea SBA_the_original_anarchist"}
			allowed = {
				always = no
			}
            cancel = { has_country_flag = RUS_cancel_all_ideas }
			allowed_civil_war = {
				always = yes
			}
			removal_cost = -1
			picture = ORE_anarchic_commune
			modifier = {
				industrial_capacity_factory = 0.1
				war_support_factor = 0.15
				army_morale_factor = 0.1
				consumer_goods_use_modifier = -0.05
			}
		}
		SBA_the_represented_army = {
			on_add = {log = "[GetDateText]: [Root.GetName]: add idea SBA_the_represented_army"}
			allowed = {
				always = no
			}
            cancel = { has_country_flag = RUS_cancel_all_ideas }
			allowed_civil_war = {
				always = yes
			}
			removal_cost = -1
			picture = KRS_Military_Guided_Democracy
			equipment_bonus = {
				infantry_equipment = {
					build_cost_ic = -0.1
					instant = yes
				}
			}
			modifier = {
				industrial_capacity_factory = 0.075
				conscription_factor = 0.05
			}
		}
		SBA_military_anarchism = {
			on_add = {log = "[GetDateText]: [Root.GetName]: add idea SBA_military_anarchism"}
			allowed = {
				always = no
			}
            cancel = { has_country_flag = RUS_cancel_all_ideas }
			allowed_civil_war = {
				always = yes
			}
			removal_cost = -1
			picture = ORE_anarchic_commune_military
			modifier = {
				army_attack_factor = 0.075
				army_defence_factor = 0.05
				army_morale_factor = 0.1
				attrition = -0.15
			}
		}
		SBA_military_anarchism_2 = {
			on_add = {log = "[GetDateText]: [Root.GetName]: add idea SBA_military_anarchism_2"}
			allowed = {
				always = no
			}
            cancel = { has_country_flag = RUS_cancel_all_ideas }
			allowed_civil_war = {
				always = yes
			}
			removal_cost = -1
			picture = ORE_anarchic_commune_military
			equipment_bonus = {
				infantry_equipment = {
					build_cost_ic = -0.1
					instant = yes
				}
			}
			modifier = {
				army_attack_factor = 0.1
				army_defence_factor = 0.1
				army_morale_factor = 0.125
				attrition = -0.05
				conscription_factor = 0.05
				industrial_capacity_factory = 0.075
			}
		}
		SBA_paying_off_kilchichakov = {
			on_add = {log = "[GetDateText]: [Root.GetName]: add idea SBA_paying_off_kilchichakov"}
			allowed = {
				always = no
			}
            cancel = { has_country_flag = RUS_cancel_all_ideas }
			allowed_civil_war = {
				always = yes
			}
			removal_cost = -1
			picture = generic_money_payment
			modifier = {
				consumer_goods_use_modifier = 0.05
			}
		}
		SBA_the_next_generation_of_freedom_fighters = {
			on_add = {log = "[GetDateText]: [Root.GetName]: add idea SBA_the_next_generation_of_freedom_fighters"}
			allowed = {
				always = no
			}
            cancel = { has_country_flag = RUS_cancel_all_ideas }
			allowed_civil_war = {
				always = yes
			}
			removal_cost = -1
			picture = Token_Soldiers
			modifier = {
				army_attack_factor = 0.05
				army_defence_factor = 0.05
				attrition = -0.1
			}
		}
		SBA_built_for_war = {
			on_add = {log = "[GetDateText]: [Root.GetName]: add idea SBA_built_for_war"}
			allowed = {
				always = no
			}
            cancel = { has_country_flag = RUS_cancel_all_ideas }
			allowed_civil_war = {
				always = yes
			}
			removal_cost = -1
			picture = WRS_Soldiers_of_the_Long_War
			modifier = {
				research_speed_factor = -0.05
				conscription_factor = 0.1
				army_attack_factor = 0.1
				army_morale_factor = 0.1
			}
		}
		SBA_fight_smarter_not_harder_1 = {
			on_add = {log = "[GetDateText]: [Root.GetName]: add idea SBA_fight_smarter_not_harder_1"}
			allowed = {
				always = no
			}
            cancel = { has_country_flag = RUS_cancel_all_ideas }
			allowed_civil_war = {
				always = yes
			}
			removal_cost = -1
			picture = generic_Preparing_The_Army
			modifier = {
				industrial_capacity_factory = 0.1
				production_speed_buildings_factor = 0.05
				attrition = -0.15
				land_doctrine_cost_factor = -0.25
			}
		}
		SBA_fight_smarter_not_harder_2 = {
			on_add = {log = "[GetDateText]: [Root.GetName]: add idea SBA_fight_smarter_not_harder_2"}
			allowed = {
				always = no
			}
            cancel = { has_country_flag = RUS_cancel_all_ideas }
			allowed_civil_war = {
				always = yes
			}
			removal_cost = -1
			picture = generic_Preparing_The_Army
			modifier = {
				industrial_capacity_factory = 0.1
				production_speed_buildings_factor = 0.05
				attrition = -0.15
				conscription_factor = 0.05
				army_attack_factor = 0.05
				army_core_defence_factor = 0.1
				land_doctrine_cost_factor = -0.25
			}
		}
		SBA_black_army_mining_detachments_1 = {
			on_add = {log = "[GetDateText]: [Root.GetName]: add idea SBA_black_army_mining_detachments_1"}
			allowed = {
				always = no
			}
            cancel = { has_country_flag = RUS_cancel_all_ideas }
			allowed_civil_war = {
				always = yes
			}
			removal_cost = -1
			picture = IND_Indira_Officer_Proposal
			modifier = {
				army_attack_factor = -0.05
				local_resources_factor = 0.2
			}
		}
		SBA_black_army_mining_detachments_2 = {
			on_add = {log = "[GetDateText]: [Root.GetName]: add idea SBA_black_army_mining_detachments_2"}
			allowed = {
				always = no
			}
            cancel = { has_country_flag = RUS_cancel_all_ideas }
			allowed_civil_war = {
				always = yes
			}
			removal_cost = -1
			picture = IND_Indira_Officer_Proposal
			modifier = {
				army_attack_factor = -0.1
				local_resources_factor = 0.2
				army_org_factor = 0.05
			}
		}
		SBA_a_deal_with_the_enemy = {
			on_add = {log = "[GetDateText]: [Root.GetName]: add idea SBA_a_deal_with_the_enemy"}
			allowed = {
				always = no
			}
            cancel = { has_country_flag = RUS_cancel_all_ideas }
			allowed_civil_war = {
				always = yes
			}
			removal_cost = -1
			picture = IRK_forced_labor
			modifier = {
				stability_factor = -0.05
				local_resources_factor = 0.15
			}
		}
		SBA_worked_to_the_bone = {
			on_add = {log = "[GetDateText]: [Root.GetName]: add idea SBA_worked_to_the_bone"}
			allowed = {
				always = no
			}
            cancel = { has_country_flag = RUS_cancel_all_ideas }
			allowed_civil_war = {
				always = yes
			}
			removal_cost = -1
			picture = IRK_forced_labor
			modifier = {
				local_resources_factor = 0.1
			}
		}
		SBA_research_boost = {
			on_add = {log = "[GetDateText]: [Root.GetName]: add idea SBA_research_boost"}
			allowed = {
				always = no
			}
            cancel = { has_country_flag = RUS_cancel_all_ideas }
			allowed_civil_war = {
				always = yes
			}
			removal_cost = -1
			picture = MGN_Constructive_Science
			modifier = {
				research_speed_factor = 0.1
			}
		}
		SBA_granted_economic_autonomy = {
			on_add = {log = "[GetDateText]: [Root.GetName]: add idea SBA_granted_economic_autonomy"}
			allowed = {
				always = no
			}
            cancel = { has_country_flag = RUS_cancel_all_ideas }
			allowed_civil_war = {
				always = yes
			}
			removal_cost = -1
			picture = generic_economic_control
			modifier = {
				consumer_goods_use_modifier = 0.05
			}
		}
		SBA_collapsed_communes = {
			on_add = {log = "[GetDateText]: [Root.GetName]: add idea SBA_collapsed_communes"}
			allowed = {
				always = no
			}
            cancel = { has_country_flag = RUS_cancel_all_ideas }
			allowed_civil_war = {
				always = yes
			}
			removal_cost = -1
			picture = CNT_the_shattered_front
			modifier = {
				stability_factor = -0.25
				army_attack_factor = -0.5
				army_defence_factor = -0.5
				political_power_factor = -0.15
			}
		}
		SBA_memories_of_the_federation = {
			on_add = {log = "[GetDateText]: [Root.GetName]: add idea SBA_memories_of_the_federation"}
			allowed = {
				always = no
			}
            cancel = { has_country_flag = RUS_cancel_all_ideas }
			allowed_civil_war = {
				always = yes
			}
			removal_cost = -1
			picture = TME_Benevolent_Authoritarianism
			modifier = {
				stability_factor = -0.05
			}
			targeted_modifier = {
				tag = NOV
				attack_bonus_against = 0.1
			}
		}
		SBA_dreams_of_the_republic = {
			on_add = {log = "[GetDateText]: [Root.GetName]: add idea SBA_dreams_of_the_republic"}
			allowed = {
				always = no
			}
            cancel = { has_country_flag = RUS_cancel_all_ideas }
			allowed_civil_war = {
				always = yes
			}
			removal_cost = -1
			picture = TOM_warlord_of_the_city
			modifier = {
				army_core_defence_factor = 0.1
				stability_factor = 0.05
			}
		}
		SBA_against_all_tyranny = {
			on_add = {log = "[GetDateText]: [Root.GetName]: add idea SBA_against_all_tyranny"}
			allowed = {
				always = no
			}
            cancel = { has_country_flag = RUS_cancel_all_ideas }
			allowed_civil_war = {
				always = yes
			}
			removal_cost = -1
			picture = CNT_militia_army
			modifier = {
				war_support_factor = 0.05
			}
			targeted_modifier = {
				tag = ALT
				attack_bonus_against = 0.05
			}
			targeted_modifier = {
				tag = KEM
				attack_bonus_against = 0.05
			}
			targeted_modifier = {
				tag = PRC
				attack_bonus_against = 0.05
			}
		}
		SBA_return_of_the_king = {
			on_add = {log = "[GetDateText]: [Root.GetName]: add idea SBA_return_of_the_king"}
			allowed = {
				always = no
			}
            cancel = { has_country_flag = RUS_cancel_all_ideas }
			allowed_civil_war = {
				always = yes
			}
			removal_cost = -1
			picture = KEM_Esoteric_Kingdom
			modifier = {
				army_org_factor = 0.1
				stability_factor = 0.05
			}
		}
		SBA_hopes_of_peace = {
			on_add = {log = "[GetDateText]: [Root.GetName]: add idea SBA_hopes_of_peace"}
			allowed = {
				always = no
			}
            cancel = { has_country_flag = RUS_cancel_all_ideas }
			allowed_civil_war = {
				always = yes
			}
			removal_cost = -1
			picture = generic_idealistic_democracy
			modifier = {
				army_core_defence_factor = 0.15
				army_attack_factor = -0.05
				ai_focus_defense_factor = 0.2
			}
		}
		SBA_reclaiming_the_free_territory = {
			on_add = {log = "[GetDateText]: [Root.GetName]: add idea SBA_reclaiming_the_free_territory"}
			allowed = {
				always = no
			}
            cancel = { has_country_flag = RUS_cancel_all_ideas }
			allowed_civil_war = {
				always = yes
			}
			removal_cost = -1
			picture = SBA_restoring_order
			modifier = {
				army_attack_factor = 0.075
				army_org_factor = -0.15
			}
		}
		SBA_stepanovs_crusade = {
			on_add = {log = "[GetDateText]: [Root.GetName]: add idea SBA_stepanovs_crusade"}
			allowed = {
				always = no
			}
            cancel = { has_country_flag = RUS_cancel_all_ideas }
			allowed_civil_war = {
				always = yes
			}
			removal_cost = -1
			picture = TMX_Black_Bandits
			modifier = {
				army_attack_factor = 0.1
				ai_focus_aggressive_factor = 0.35
			}
		}
		SBA_an_end_to_occupations = {
			on_add = {log = "[GetDateText]: [Root.GetName]: add idea SBA_an_end_to_occupations"}
			allowed = {
				always = no
			}
            cancel = { has_country_flag = RUS_cancel_all_ideas }
			allowed_civil_war = {
				always = yes
			}
			removal_cost = -1
			picture = GBE_militia_based_army
			modifier = {
				war_support_factor = 0.05
			}
			targeted_modifier = {
				tag = PRC
				attack_bonus_against = 0.15
				defense_bonus_against = 0.15
			}
		}
	}
}
