defined_text = {
	name = GetMAG_USA_support
	text = {
		trigger = {
			check_variable = { MAG_USA_support > 79 }
		}
		localization_key = MAG_USA_support_very_high
	}
	text = {
		trigger = {
			check_variable = { MAG_USA_support > 59 }
		}
		localization_key = MAG_USA_support_high
	}
	text = {
		trigger = {
			check_variable = { MAG_USA_support > 39 }
		}
		localization_key = MAG_USA_support_medium
	}
	text = {
		trigger = {
			check_variable = { MAG_USA_support > 19 }
		}
		localization_key = MAG_USA_support_low
	}
	text = {
		localization_key = MAG_USA_support_very_low
	}
}

defined_text = {
	name = GetMAG_reformists_vs_labourists
	text = {
		trigger = {
			check_variable = { MAG_reformers_influence = MAG_labourist_influence }
		}
		localization_key = MAG_equal_faction_influence
	}
	text = {
		trigger = {
			check_variable = { MAG_reformers_influence > MAG_labourist_influence }
		}
		localization_key = MAG_reformists_influential
	}
	text = {
		trigger = {
			check_variable = { MAG_reformers_influence < MAG_labourist_influence }
		}
		localization_key = MAG_labourists_influential
	}
}

defined_text = {
	name = GetMAG_WA_Yemeni_Civil_War
	text = {
		trigger = {
			NYM = { has_war_with = YEM }
		}
		localization_key = MAG_WA_Yemen_war
	}
	text = {
		trigger = {
			NOT = {
				NYM = { has_war_with = YEM }
			}
		}
		localization_key = MAG_WA_no_war
	}
}

defined_text = {
	name = GetMAG_WA_Saudi_War
	text = {
		trigger = {
			NYM = { has_war_with = SAU }
		}
		localization_key = MAG_WA_Saudi_war
	}
	text = {
		trigger = {
			NOT = {
				NYM = { has_war_with = SAU }
			}
		}
		localization_key = MAG_WA_no_war
	}
}

defined_text = {
	name = GetMAG_WA_Egyptian_Civil_War
	text = {
		trigger = {
			OR = {
				EGB = { has_war_with = EGY }
				EGQ = { has_war_with = EGY }
				EGQ = { has_war_with = EGB }
			}
		}
		localization_key = MAG_WA_Egypt_war
	}
	text = {
		trigger = {
			NOT = {
				OR = {
					EGB = { has_war_with = EGY }
					EGQ = { has_war_with = EGY }
					EGQ = { has_war_with = EGB }
				}
			}
		}
		localization_key = MAG_WA_no_war
	}
}

defined_text = {
	name = GetMAG_WA_Sudanese_Civil_War
	text = {
		trigger = {
			OR = {
				RPS = { has_war_with = SDS }
				SDF = { has_war_with = SDS }
				RPS = { has_war_with = SDF }
			}
		}
		localization_key = MAG_WA_Sudan_war
	}
	text = {
		trigger = {
			NOT = {
				OR = {
					RPS = { has_war_with = SDS }
					SDF = { has_war_with = SDS }
					RPS = { has_war_with = SDF }
				}
			}
		}
		localization_key = MAG_WA_no_war
	}
}

defined_text = {
	name = GetMAG_WA_South_Sudanese_Civil_War
	text = {
		trigger = {
			AYA = { has_war_with = AZA }
		}
		localization_key = MAG_WA_South_Sudan_war
	}
	text = {
		trigger = {
			NOT = {
				AYA = { has_war_with = AZA }
			}
		}
		localization_key = MAG_WA_no_war
	}
}

defined_text = {
	name = GetMAG_WA_Iraqi_Civil_War
	text = {
		trigger = {
			OR = {
				IRQ = { has_war_with = SNI }
				IRQ = { has_war_with = IRP }
				IRQ = { has_war_with = BIR }
				BIR = { has_war_with = SNI }
				BIR = { has_war_with = IRP }
				IRP = { has_war_with = SNI }
			}
		}
		localization_key = MAG_WA_Iraq_war
	}
	text = {
		trigger = {
			NOT = {
				OR = {
					IRQ = { has_war_with = SNI }
					IRQ = { has_war_with = IRP }
					IRQ = { has_war_with = BIR }
					BIR = { has_war_with = SNI }
					BIR = { has_war_with = IRP }
					IRP = { has_war_with = SNI }
				}
			}
		}
		localization_key = MAG_WA_no_war
	}
}

defined_text = {
	name = GetMAG_WA_Omani_Civil_War
	text = {
		trigger = {
			OR = {
				OMB = { has_war_with = OMI }
				OMB = { has_war_with = OMA }
				OMA = { has_war_with = OMI }
			}
		}
		localization_key = MAG_WA_Oman_war
	}
	text = {
		trigger = {
			NOT = {
				OR = {
					OMB = { has_war_with = OMI }
					OMB = { has_war_with = OMA }
					OMA = { has_war_with = OMI }
				}
			}
		}
		localization_key = MAG_WA_no_war
	}
}

defined_text = {
	name = GetMAG_WA_Iranian_Civil_War
	text = {
		trigger = {
			OR = {
				IRA = { has_war_with = PER }
				IRA = { has_war_with = IRL }
				IRA = { has_war_with = IRI }
				IRA = { has_war_with = IRC }
				IRC = { has_war_with = PER }
				IRC = { has_war_with = IRL }
				IRC = { has_war_with = IRI }
				IRI = { has_war_with = PER }
				IRI = { has_war_with = IRL }
				IRL = { has_war_with = PER }
			}
		}
		localization_key = MAG_WA_Iran_war
	}
	text = {
		trigger = {
			NOT = {
				OR = {
					IRA = { has_war_with = PER }
					IRA = { has_war_with = IRL }
					IRA = { has_war_with = IRI }
					IRA = { has_war_with = IRC }
					IRC = { has_war_with = PER }
					IRC = { has_war_with = IRL }
					IRC = { has_war_with = IRI }
					IRI = { has_war_with = PER }
					IRI = { has_war_with = IRL }
					IRL = { has_war_with = PER }
				}
			}
		}
		localization_key = MAG_WA_no_war
	}
}

defined_text = {
	name = GetMAG_WA_Iberian_Wars
	text = {
		trigger = {
			MAG_WA_iberian_wars_active = yes
		}
		localization_key = MAG_WA_Iberian_Wars
	}
	text = {
		trigger = {
			NOT = {
				MAG_WA_iberian_wars_active = yes
			}
		}
		localization_key = MAG_WA_no_war
	}
}

defined_text = {
	name = GetMAG_WA_Congolese_Civil_War
	text = {
		trigger = {
			has_global_flag = CONGO_PW_HAPPENING
		}
		localization_key = MAG_WA_Congolese_Civil_War
	}
	text = {
		localization_key = MAG_WA_no_war
	}
}

defined_text = {
	name = GetMAG_WA_Angolan_Civil_War
	text = {
		trigger = {
			ANG = { has_war_with = ANL }
		}
		localization_key = MAG_WA_Angolan_Civil_War
	}
	text = {
		localization_key = MAG_WA_no_war
	}
}

defined_text = {
	name = GetMAG_WA_Mozambique_Civil_War
	text = {
		trigger = {
			MAG_WA_mozambique_civil_war_active = yes
		}
		localization_key = MAG_WA_Mozambique_Civil_War
	}
	text = {
		localization_key = MAG_WA_no_war
	}
}

defined_text = {
	name = GetMAG_WA_West_African_War
	text = {
		trigger = {
			has_global_flag = west_african_war_ongoing
		}
		localization_key = MAG_WA_West_African_War
	}
	text = {
		localization_key = MAG_WA_no_war
	}
}

defined_text = {
	name = GetMAG_WA_Beafrikan_War
	text = {
		trigger = {
			CAF = { has_war_with = CPR }
		}
		localization_key = MAG_WA_Beafrikan_War
	}
	text = {
		localization_key = MAG_WA_no_war
	}
}

defined_text = {
	name = GetMAG_WA_Mano_Campaign
	text = {
		trigger = {
			CAO = { has_war_with = LIB }
		}
		localization_key = MAG_WA_Mano_Campaign
	}
	text = {
		localization_key = MAG_WA_no_war
	}
}

defined_text = {
	name = GetMAG_WA_Indonesian_War
	text = {
		trigger = {
			FRI = { has_war_with = INS }
		}
		localization_key = MAG_WA_Indonesian_War
	}
	text = {
		localization_key = MAG_WA_no_war
	}
}

defined_text = {
	name = GetMAG_WA_Yemen_Contract
	text = {
		trigger = {
			NYM = { has_idea = MAG_WA_mercenary_contract_idea }
		}
		localization_key = MAG_WA_Yemen_Republicans
	}
	text = {
		trigger = {
			YEM = { has_idea = MAG_WA_mercenary_contract_idea }
		}
		localization_key = MAG_WA_Yemen_Monarchists
	}
	text = {
		trigger = {
			NOT = {
				OR = {
					NYM = { has_idea = MAG_WA_mercenary_contract_idea }
					YEM = { has_idea = MAG_WA_mercenary_contract_idea }
				}
			}
		}
		localization_key = MAG_WA_No_Side
	}
}

defined_text = {
	name = GetMAG_WA_Saudi_Contract
	text = {
		trigger = {
			NYM = { has_idea = MAG_WA_mercenary_contract_idea }
		}
		localization_key = MAG_WA_Yemen
	}
	text = {
		trigger = {
			SAU = { has_idea = MAG_WA_mercenary_contract_idea }
		}
		localization_key = MAG_WA_Saudi
	}
	text = {
		trigger = {
			NOT = {
				OR = {
					NYM = { has_idea = MAG_WA_mercenary_contract_idea }
					SAU = { has_idea = MAG_WA_mercenary_contract_idea }
				}
			}
		}
		localization_key = MAG_WA_No_Side
	}
}

defined_text = {
	name = GetMAG_WA_Egypt_Contract
	text = {
		trigger = {
			EGB = { has_idea = MAG_WA_mercenary_contract_idea }
		}
		localization_key = MAG_WA_Egypt_Nasserists
	}
	text = {
		trigger = {
			EGY = { has_idea = MAG_WA_mercenary_contract_idea }
		}
		localization_key = MAG_WA_Egypt_Monarchists
	}
	text = {
		trigger = {
			NOT = {
				OR = {
					EGB = { has_idea = MAG_WA_mercenary_contract_idea }
					EGY = { has_idea = MAG_WA_mercenary_contract_idea }
				}
			}
		}
		localization_key = MAG_WA_No_Side
	}
}

defined_text = {
	name = GetMAG_WA_Sudan_Contract
	text = {
		trigger = {
			SDS = { has_idea = MAG_WA_mercenary_contract_idea }
		}
		localization_key = MAG_WA_Sudan_Baathists
	}
	text = {
		trigger = {
			RPS = { has_idea = MAG_WA_mercenary_contract_idea }
		}
		localization_key = MAG_WA_Sudan_Republicans
	}
	text = {
		trigger = {
			SDF = { has_idea = MAG_WA_mercenary_contract_idea }
		}
		localization_key = MAG_WA_Sudan_Junta
	}
	text = {
		trigger = {
			NOT = {
				OR = {
					SDS = { has_idea = MAG_WA_mercenary_contract_idea }
					RPS = { has_idea = MAG_WA_mercenary_contract_idea }
					SDF = { has_idea = MAG_WA_mercenary_contract_idea }
				}
			}
		}
		localization_key = MAG_WA_No_Side
	}
}

defined_text = {
	name = GetMAG_WA_South_Sudan_Contract
	text = {
		trigger = {
			AYA = { has_idea = MAG_WA_mercenary_contract_idea }
		}
		localization_key = MAG_WA_Anyanya
	}
	text = {
		trigger = {
			AZA = { has_idea = MAG_WA_mercenary_contract_idea }
		}
		localization_key = MAG_WA_Azania
	}
	text = {
		trigger = {
			NOT = {
				OR = {
					AYA = { has_idea = MAG_WA_mercenary_contract_idea }
					AZA = { has_idea = MAG_WA_mercenary_contract_idea }
				}
			}
		}
		localization_key = MAG_WA_No_Side
	}
}

defined_text = {
	name = GetMAG_WA_Iraq_Contract
	text = {
		trigger = {
			IRQ = { has_idea = MAG_WA_mercenary_contract_idea }
		}
		localization_key = MAG_WA_Iraq_Italians
	}
	text = {
		trigger = {
			IRP = { has_idea = MAG_WA_mercenary_contract_idea }
		}
		localization_key = MAG_WA_Iraq_Democrats
	}
	text = {
		trigger = {
			BIR = { has_idea = MAG_WA_mercenary_contract_idea }
		}
		localization_key = MAG_WA_Iraq_Baathists
	}
	text = {
		trigger = {
			SNI = { has_idea = MAG_WA_mercenary_contract_idea }
		}
		localization_key = MAG_WA_Iraq_Islamists
	}
	text = {
		trigger = {
			KUR = { has_idea = MAG_WA_mercenary_contract_idea }
		}
		localization_key = MAG_WA_Kurdistan
	}
	text = {
		trigger = {
			NOT = {
				OR = {
					IRQ = { has_idea = MAG_WA_mercenary_contract_idea }
					IRP = { has_idea = MAG_WA_mercenary_contract_idea }
					BIR = { has_idea = MAG_WA_mercenary_contract_idea }
					SNI = { has_idea = MAG_WA_mercenary_contract_idea }
					KUR = { has_idea = MAG_WA_mercenary_contract_idea }
				}
			}
		}
		localization_key = MAG_WA_No_Side
	}
}

defined_text = {
	name = GetMAG_WA_Oman_Contract
	text = {
		trigger = {
			OMB = { has_idea = MAG_WA_mercenary_contract_idea }
		}
		localization_key = MAG_WA_Oman_Baathists
	}
	text = {
		trigger = {
			OMI = { has_idea = MAG_WA_mercenary_contract_idea }
		}
		localization_key = MAG_WA_Oman_Islamists
	}
	text = {
		trigger = {
			OMA = { has_idea = MAG_WA_mercenary_contract_idea }
		}
		localization_key = MAG_WA_Oman_Sultanate
	}
	text = {
		trigger = {
			NOT = {
				OR = {
					OMB = { has_idea = MAG_WA_mercenary_contract_idea }
					OMI = { has_idea = MAG_WA_mercenary_contract_idea }
					OMA = { has_idea = MAG_WA_mercenary_contract_idea }
				}
			}
		}
		localization_key = MAG_WA_No_Side
	}
}

defined_text = {
	name = GetMAG_WA_Iran_Contract
	text = {
		trigger = {
			IRA = { has_idea = MAG_WA_mercenary_contract_idea }
		}
		localization_key = MAG_WA_Iran_Communists
	}
	text = {
		trigger = {
			PER = { has_idea = MAG_WA_mercenary_contract_idea }
		}
		localization_key = MAG_WA_Iran_Monarchists
	}
	text = {
		trigger = {
			IRL = { has_idea = MAG_WA_mercenary_contract_idea }
		}
		localization_key = MAG_WA_Iran_Liberals
	}
	text = {
		trigger = {
			IRI = { has_idea = MAG_WA_mercenary_contract_idea }
		}
		localization_key = MAG_WA_Iran_Islamists
	}
	text = {
		trigger = {
			IRC = { has_idea = MAG_WA_mercenary_contract_idea }
		}
		localization_key = MAG_WA_Iran_Constitutionalists
	}
	text = {
		trigger = {
			NOT = {
				OR = {
					IRA = { has_idea = MAG_WA_mercenary_contract_idea }
					PER = { has_idea = MAG_WA_mercenary_contract_idea }
					IRL = { has_idea = MAG_WA_mercenary_contract_idea }
					IRI = { has_idea = MAG_WA_mercenary_contract_idea }
					IRC = { has_idea = MAG_WA_mercenary_contract_idea }
				}
			}
		}
		localization_key = MAG_WA_No_Side
	}
}

defined_text = {
	name = GetMAG_WA_Iberia_Contract
	text = {
		trigger = {
			IBR = { has_idea = MAG_WA_mercenary_contract_idea }
		}
		localization_key = MAG_WA_Union_Remnants
	}
	text = {
		trigger = {
			SPR = { has_idea = MAG_WA_mercenary_contract_idea }
		}
		localization_key = MAG_WA_Spain_Republicans
	}
	text = {
		trigger = {
			SPS = { has_idea = MAG_WA_mercenary_contract_idea }
		}
		localization_key = MAG_WA_Spain_Falangists
	}
	text = {
		trigger = {
			CTL = { has_idea = MAG_WA_mercenary_contract_idea }
		}
		localization_key = MAG_WA_Catalonia_Republicans
	}
	text = {
		trigger = {
			CNT = { has_idea = MAG_WA_mercenary_contract_idea }
		}
		localization_key = MAG_WA_Catalonia_CNT
	}
	text = {
		trigger = {
			BSQ = { has_idea = MAG_WA_mercenary_contract_idea }
		}
		localization_key = MAG_WA_Basques
	}
	text = {
		trigger = {
			GNS = { has_idea = MAG_WA_mercenary_contract_idea }
		}
		localization_key = MAG_WA_Portugal_GNS
	}
	text = {
		trigger = {
			POR = { has_idea = MAG_WA_mercenary_contract_idea }
		}
		localization_key = MAG_WA_Portugal_Salazarists
	}
	text = {
		trigger = {
			PPR = { has_idea = MAG_WA_mercenary_contract_idea }
		}
		localization_key = MAG_WA_Portugal_Communists
	}
	text = {
		trigger = {
			RPP = { has_idea = MAG_WA_mercenary_contract_idea }
		}
		localization_key = MAG_WA_Portugal_Republicans
	}
	text = {
		trigger = {
			GAL = { has_idea = MAG_WA_mercenary_contract_idea }
		}
		localization_key = MAG_WA_Galicia
	}
	text = {
		trigger = {
			ADL = { has_idea = MAG_WA_mercenary_contract_idea }
		}
		localization_key = MAG_WA_Andalusia
	}
	text = {
		trigger = {
			MOR = { has_idea = MAG_WA_mercenary_contract_idea }
		}
		localization_key = MAG_WA_Morroco
	}
	text = {
		trigger = {
			RIF = { has_idea = MAG_WA_mercenary_contract_idea }
		}
		localization_key = MAG_WA_Rif_Republic
	}
	text = {
		trigger = {
			TRZ = { has_idea = MAG_WA_mercenary_contract_idea }
		}
		localization_key = MAG_WA_Trarza
	}
	text = {
		trigger = {
			NOT = {
				OR = {
					IBR = { has_idea = MAG_WA_mercenary_contract_idea }
					SPR = { has_idea = MAG_WA_mercenary_contract_idea }
					SPS = { has_idea = MAG_WA_mercenary_contract_idea }
					CTL = { has_idea = MAG_WA_mercenary_contract_idea }
					CNT = { has_idea = MAG_WA_mercenary_contract_idea }
					BSQ = { has_idea = MAG_WA_mercenary_contract_idea }
					GNS = { has_idea = MAG_WA_mercenary_contract_idea }
					POR = { has_idea = MAG_WA_mercenary_contract_idea }
					PPR = { has_idea = MAG_WA_mercenary_contract_idea }
					RPP = { has_idea = MAG_WA_mercenary_contract_idea }
					GAL = { has_idea = MAG_WA_mercenary_contract_idea }
					ADL = { has_idea = MAG_WA_mercenary_contract_idea }
					MOR = { has_idea = MAG_WA_mercenary_contract_idea }
					RIF = { has_idea = MAG_WA_mercenary_contract_idea }
					TRZ = { has_idea = MAG_WA_mercenary_contract_idea }
				}
			}
		}
		localization_key = MAG_WA_No_Side
	}
}

defined_text = {
	name = GetMAG_WA_Congo_Contract
	text = {
		trigger = {
			AZD = { has_idea = MAG_WA_mercenary_contract_idea }
		}
		localization_key = MAG_WA_Congo_Azandeland
	}
	text = {
		trigger = {
			CFS = { has_idea = MAG_WA_mercenary_contract_idea }
		}
		localization_key = MAG_WA_Congo_Republic
	}
	text = {
		trigger = {
			CPR = { has_idea = MAG_WA_mercenary_contract_idea }
		}
		localization_key = MAG_WA_Congo_Pan_Africans
	}
	text = {
		trigger = {
			KTG = { has_idea = MAG_WA_mercenary_contract_idea }
		}
		localization_key = MAG_WA_Congo_Katanga
	}
	text = {
		trigger = {
			KSI = { has_idea = MAG_WA_mercenary_contract_idea }
		}
		localization_key = MAG_WA_Congo_Kasai
	}
	text = {
		trigger = {
			GRO = { has_idea = MAG_WA_mercenary_contract_idea }
		}
		localization_key = MAG_WA_Congo_Remnants
	}
	text = {
		trigger = {
			COG = { has_idea = MAG_WA_mercenary_contract_idea }
		}
		localization_key = MAG_WA_Congo_Federals
	}
	text = {
		localization_key = MAG_WA_No_Side
	}
}

defined_text = {
	name = GetMAG_WA_Angola_Contract
	text = {
		trigger = {
			ANG = { has_idea = MAG_WA_mercenary_contract_idea }
		}
		localization_key = MAG_WA_Angola_UNITA
	}
	text = {
		trigger = {
			ANL = { has_idea = MAG_WA_mercenary_contract_idea }
		}
		localization_key = MAG_WA_Angola_MPLA
	}
	text = {
		localization_key = MAG_WA_No_Side
	}
}

defined_text = {
	name = GetMAG_WA_Mozambique_Contract
	text = {
		trigger = {
			GAZ = { has_idea = MAG_WA_mercenary_contract_idea }
		}
		localization_key = MAG_WA_Mozambique_Pop_Republic
	}
	text = {
		trigger = {
			GZO = { has_idea = MAG_WA_mercenary_contract_idea }
		}
		localization_key = MAG_WA_Mozambique_PLA
	}
	text = {
		trigger = {
			GZS = { has_idea = MAG_WA_mercenary_contract_idea }
		}
		localization_key = MAG_WA_Mozambique_Republic
	}
	text = {
		localization_key = MAG_WA_No_Side
	}
}

defined_text = {
	name = GetMAG_WA_West_African_War_Contract
	text = {
		trigger = {
			FFR = { has_idea = MAG_WA_mercenary_contract_idea }
		}
		localization_key = MAG_WA_West_African_War_FFR
	}
	text = {
		trigger = {
			WOL = { has_idea = MAG_WA_mercenary_contract_idea }
		}
		localization_key = MAG_WA_West_African_War_WAA
	}
	text = {
		trigger = {
			CAO = { has_idea = MAG_WA_mercenary_contract_idea }
		}
		localization_key = MAG_WA_West_African_War_PALF
	}
	text = {
		localization_key = MAG_WA_No_Side
	}
}

defined_text = {
	name = GetMAG_WA_Beafrica_Contract
	text = {
		trigger = {
			CAF = { has_idea = MAG_WA_mercenary_contract_idea }
		}
		localization_key = MAG_WA_Beafrika_War_Beafrika
	}
	text = {
		trigger = {
			CPR = { has_idea = MAG_WA_mercenary_contract_idea }
		}
		localization_key = MAG_WA_Beafrika_War_Pan_Africans
	}
	text = {
		localization_key = MAG_WA_No_Side
	}
}

defined_text = {
	name = GetMAG_WA_Mano_Contract
	text = {
		trigger = {
			LIB = { has_idea = MAG_WA_mercenary_contract_idea }
		}
		localization_key = MAG_WA_Mano_Liberia
	}
	text = {
		trigger = {
			CAO = { has_idea = MAG_WA_mercenary_contract_idea }
		}
		localization_key = MAG_WA_Mano_Cameroon
	}
	text = {
		localization_key = MAG_WA_No_Side
	}
}

defined_text = {
	name = GetMAG_WA_Indonesia_Contract
	text = {
		trigger = {
			INS = { has_idea = MAG_WA_mercenary_contract_idea }
		}
		localization_key = MAG_WA_Indonesia_Sukarno
	}
	text = {
		trigger = {
			FRI = { has_idea = MAG_WA_mercenary_contract_idea }
		}
		localization_key = MAG_WA_Indonesia_Hatta
	}
	text = {
		localization_key = MAG_WA_No_Side
	}
}
