state={
	id=1003
	name="STATE_1003"
	provinces={
		1192 4065 4095 7196 11956 12038 12083 
	}
	history={
		owner = IBR
		victory_points = { 12038 5 }
		add_core_of = IBR
		
		buildings = {
			prisons = 1
			infrastructure = 3
		}
	}
	manpower=466219
	buildings_max_level_factor=1.000
	state_category = town
}
