
state={
	id=1024
	name="STATE_1024"

	history={
		owner = JAP
		add_core_of = KOR
		victory_points = { 11835 5 }
		buildings = {
			infrastructure = 3
			radar_station = 1
			barracks = 1
			hospitals = 1
			prisons = 1
		}
	}

	provinces={
		906 912 978 1003 3912 4107 6963 7070 7155 7171 9790 9795 9918 9981 11775 11828 11835 11896 11915 12040
	}
	manpower=5420000
	buildings_max_level_factor=1.000
	state_category=town
}
