state={
	id=1026
	name="STATE_1026"
	history = {
		owner = GER
		buildings = {
			offices = 1
			hospitals = 1
			barracks = 1
			prisons = 1
			infrastructure = 6
			air_base = 7
			anti_air_building = 2
		}
		add_core_of = GER
		victory_points = { 3499 5 }
	}
	provinces={
		3499 9428 11505 
	}
	manpower=2107112
	buildings_max_level_factor=1.000
	state_category=large_city
}
