
state={
	id=1030
	name="STATE_1030"

	history={
		owner = ANG
		add_core_of = ANG
		buildings = {
			infrastructure = 1
			thermoelectric_plant = 1
		}
		victory_points = { 13720 10 }
	}

	provinces={
		8136 13712 13720 13732
	}
	manpower=152244
	buildings_max_level_factor=1.000
	state_category=rural
}
