
state={
	id=1037
	name="STATE_1037"

	history={
		owner = ANG
		add_core_of = ANG
		buildings = {
			schools = 1
			infrastructure = 1
		}
		victory_points = { 1552 10 }
	}

	provinces={
		1552 2126 13808 13810 13825
	}
	manpower=131590
	buildings_max_level_factor=1.000
	state_category=pastoral
}
