
state={
	id=1040
	name="STATE_1040"

	history={
		owner = ANG
		add_core_of = ANG
		buildings = {
			schools = 2
			hospitals = 1
			prisons = 1
			infrastructure = 1
		}
		victory_points = { 13807 5 }
	}

	provinces={
		8054 13781 13789 13791 13798 13807 13817
	}
	manpower=68002
	buildings_max_level_factor=1.000
	state_category=rural
}
