
state={
	id=1062
	name="STATE_1062"

	history={
		owner = GRO
		add_core_of = GRO
		buildings = {
			infrastructure = 2
			radar_station = 2
		}
		victory_points = { 13731 5 }
	}

	provinces={
		1874 2216 10929 13731
	}
	manpower = 502266
	buildings_max_level_factor=1.000
	state_category=rural
}
