
state={
	id=1067
	name="STATE_1067"

	resources = {
		chromium = 8	
		tungsten = 4
	}

	history={
		owner = GRO
		add_core_of = GRO
		buildings = {
			infrastructure = 2
		}
		victory_points = { 12677 10 }
	}

	provinces={
		697 7872 12677 13799 14411
	}
	manpower=107386
	buildings_max_level_factor=1.000
	state_category=pastoral
}
