
state={
	id=1075
	name="STATE_1075"

	history={
		owner = GRO
		add_core_of = GRO
		buildings = {
			infrastructure = 2
		}
		victory_points = { 13811 5 }
	}

	provinces={
		2255 13797 13802 13811 13822
	}
	manpower=655228
	buildings_max_level_factor=1.000
	state_category=rural
}
