
state={
	id=1076
	name="STATE_1076"

	history={
		owner = GRO
		add_core_of = GRO
		buildings = {
			infrastructure = 1
		}
		victory_points = { 13820 5 }
	}

	provinces={
		10972 13812 13819 13820
	}
	manpower = 271160
	buildings_max_level_factor=1.000
	state_category=pastoral
}
