
state={
	id=1092
	name="STATE_1092"

	history={
		owner = IEA
		add_core_of = IEA
		buildings = {
			infrastructure = 2
			air_base = 1
		}
		victory_points = { 13926 25 }
		victory_points = { 10962 2 }
	}

	provinces={
		6020 10962 13913 13921 13926
	}
	manpower=1967659
	buildings_max_level_factor=1.000
	state_category=town
}
