
state={
	id=1096
	name="STATE_1096"

	history={
		owner = IEA
		add_core_of = IEA
		victory_points = { 13933 3 }
		buildings = {
			infrastructure = 2
		}
	}

	provinces={
		5160 13933 13939 13942 13946
	}
	manpower=1763432
	buildings_max_level_factor=1.000
	state_category=pastoral
}
