
state={
	id=1099
	name="STATE_1099"

	history={
		owner = IEA
		add_core_of = IEA
		victory_points = { 14005 3 }
	}

	provinces={
		8062 13979 13995 14005
	}
	manpower=1819109
	buildings_max_level_factor=1.000
	state_category=rural
}
