
state={
	id=1110
	name="STATE_1110"

	history={
		owner = IEA
		add_core_of = IEA
		victory_points = { 14086 10 }
		buildings = {
			infrastructure = 1
		}
	}

	provinces={
		10777 14086 14102
	}
	manpower=352988
	buildings_max_level_factor=1.000
	state_category=rural
}
