
state={
	id=1115
	name="STATE_1115"

	history={
		owner = EGY
		add_core_of = EGY
		victory_points = { 12764 1 }
		buildings = {
			infrastructure = 2

		}
	}

	provinces={
		1143 7216 10127 10869 12764 14389
	}
	manpower=16835
	buildings_max_level_factor=1.000
	state_category=pastoral
}
