
state={
	id=1116
	name="STATE_1116"

	history={
		owner = EGY
		add_core_of = EGY
		victory_points = { 14366 1 }
		victory_points = { 14341 1 }
		buildings = {
			infrastructure = 1
			radar_station = 1

		}
	}

	resources={
		uranium = 2
	}

	provinces={
		2064 12099 12771 14340 14341 14366
	}
	manpower=13815
	buildings_max_level_factor=1.000
	state_category=wasteland
}
