
state={
	id=1118
	name="STATE_1118"

	history={
		owner = GRO
		buildings = {
			prisons = 3
			infrastructure = 2
			radar_station = 2
			13879 = {
				naval_base = 1
			}
		}
		add_extra_state_shared_building_slots = 2
		add_core_of = GRO
		victory_points = { 13879 10 }
	}

	provinces={
		13879 13888
	}
	manpower=274411
	buildings_max_level_factor=1.000
	state_category=small_island
}
