
state={
	id=1119
	name="STATE_1119"

	history={
		owner = EGY
		add_core_of = EGY
		victory_points = { 14309 1 }
		buildings = {
			infrastructure = 2
			air_base = 1 
		}
	}

	provinces={
		1977 4910 10844 14303 14309 14312
	}
	manpower=84840
	buildings_max_level_factor=1.000
	state_category=wasteland
}
