
state={
	id=117
	name="STATE_117"
	resources={
		aluminium=16.000
		steel=24.000
	}

	history={
		owner = ITA
		victory_points = { 819 30 }
		victory_points = { 851 5 }
		victory_points = { 11803 5 }
		buildings = {
			barracks = 1
			infrastructure = 5
			air_base = 3
			schools = 1
		}
		add_core_of = ITA

	}

	provinces={
		819 851 955 3958 9826 11803 
	}
	manpower=6400333
	buildings_max_level_factor=1.000
	state_category=large_city
}
