##POP DONE
state=
{
	id=118
	name="STATE_118"
	manpower=221372
	
	state_category = rural
	history={
		owner = IBR
		victory_points = { 4135 10 }
		buildings = {
			infrastructure = 5
			air_base = 2
			4135 = {
				naval_base = 6
				coastal_bunker = 3
			}
		}	
		add_core_of = IBR
		
	}
	provinces={
		4135
	}
}
