
state={
	id=1215
	name="STATE_1215"

	history={
		owner = AST
		add_core_of = AST
		victory_points = { 7859 30 }
		buildings = {
			infrastructure = 5
			air_base = 1
			7859 = {
				bunker = 1

			}
			4673 = { #Jervis Bay, I think
				naval_base = 1
			}
		}
	}

	provinces={
		7859 4673
	}
	manpower=90032
	buildings_max_level_factor=1.000
	state_category=town
}
