
state={
	id=1254
	name="STATE_1254"
	manpower = 296683
	
	state_category = town

	history={
		owner = VEN
		buildings = {
			offices = 2
			hospitals = 1
			barracks = 1
			infrastructure = 3

		}
		add_core_of = VEN
		victory_points = { 4526 5 }
	}

	provinces={
		7219 12003 4526 7161
		}
}
