
state={
	id=1259
	name="STATE_1259"
	manpower = 479400
	
	state_category = rural

	history={
		owner = VEN
		buildings = {
			offices = 1
			hospitals = 1
			infrastructure = 2

		}
		add_core_of = VEN
		victory_points = { 2052 10 }
	}

	provinces={
		2052
		}
}
