
state={
	id=1268
	name="STATE_1268"
	history={
		owner = BUL
		victory_points = { 3796 3 }
		victory_points = { 6842 2 }
		buildings = {
			infrastructure = 5
		}
		add_core_of = BUL

	}

	provinces={
		3796 3819 3952 6842 9610 9612
	}
	manpower = 1011156
	buildings_max_level_factor=1.000
	state_category=town
}