
state={
	id=1272
	name="STATE_1272"
	history={
		owner = SER
		buildings = {
			infrastructure = 6
			air_base = 5

		}
		victory_points = { 11586 40 }
		add_core_of = SER

	}

	provinces={
		11586
	}
	manpower=1012153
	buildings_max_level_factor=1.000
	state_category=city
}