
state={
	id=1286
	name="STATE_1286"
	manpower = 891962
	
	state_category = rural
	
	history=
	{
		owner = ROM
		buildings = {
			infrastructure = 4
		}
		add_core_of = ROM
	}
	provinces=
	{ 414 3407 3577 6600 }
}