
state={
	id=1287
	name="STATE_1287"
	manpower = 330106

	resources={
		steel=6
	}
	
	state_category = rural

	history={
		owner = ROM
		buildings = {
			infrastructure = 3
		}
		victory_points = { 676 5 }
		add_core_of = ROM
	}

	provinces={
		676 3665 3694 6679 9619
	}
}
