
state={
	id=1288
	name="STATE_1288"
	manpower= 1194725
	
	state_category = rural
	
	history={
		owner = ROM
		buildings = {
			infrastructure = 3
			radar_station = 1
		}
		victory_points = { 746 2 }
		add_core_of = ROM
		add_core_of = HUN
	}

	provinces={
		727 746 6731 9672 9685 9704 11676  
	}
}
