state={
	id=1333
	name="STATE_1333"

	state_category = large_town

	resources={
		oil=12
	}

	history = {
		owner = IRQ
		add_core_of = IRQ
		buildings = {
			infrastructure = 3
		}
	}

	provinces={
		78 7994 7977 12046 12855 
	}
	manpower= 1230544
	buildings_max_level_factor=1.000
}
