state={

	id=1354
	name="STATE_1354"

	history={
		owner = IRE
		victory_points = { 6405 1 }
		buildings = {
			infrastructure = 3
			schools = 1
			barracks = 1
			prisons = 1
			offices = 1
			radar_station = 2
		}
		add_core_of = IRE
		add_extra_state_shared_building_slots = 2
	}

	provinces={
		9405 6405
	}
	manpower=116458
	buildings_max_level_factor=1.000
	state_category="pastoral"
}
