state={
	id=1367
	name="STATE_1367"

	history={
		owner = IME
		buildings = {
			infrastructure = 3
		}
		add_core_of = IME
	}

	provinces={
		1065
	}

	manpower=126790
	buildings_max_level_factor=1.000
	state_category=pastoral
}