state={
	id=137
	name="STATE_137"

	history={
		owner = GER
		add_core_of = UKR
		buildings = {
			infrastructure = 5
			air_base = 3
			radar_station = 3
			9680 = {
				naval_base = 1
				coastal_bunker = 1
			}
		}
	}

	provinces={
		705 3722 6704 6724 9677 9680 9718 11649 
	}
	manpower=381034
	buildings_max_level_factor=1.000
	state_category=town
}
