state = {
	id = 1387
	name = "STATE_1387"
	
	manpower = 174400
	state_category = pastoral
	
	history = {
		owner = GGN
		add_core_of = GGN

		buildings = {
			infrastructure = 4
		}
	}

	provinces = {
		6431 6483
	}
}