state = {
	id = 1395
	name = "STATE_1395"
	
	manpower = 203126
	state_category = pastoral
	
	history = {
		owner = OST
		add_core_of = OST
		victory_points = { 14602 5 }

		buildings = {
			dockyard = 1
			infrastructure = 4
		}
	}

	provinces = {
		14607 14604 11291 14602
	}
}