state = {
	id = 1405
	name = "STATE_1405"
	
	manpower = 362320
	state_category = town
	
	history = {
		owner = OST
		add_core_of = OST
		victory_points = { 11322 5 }

		buildings = {
			infrastructure = 3
			prisons = 1
			barracks = 1
		}
	}

	provinces = {
		9341 14577 6371 9241 14564 11322 216 14562 3267 6220
	}
}