state = {
	id = 1413
	name = "STATE_1413"
	
	manpower = 1897851
	state_category = large_town
	
	resources = {
		steel = 6
	}
	history = {
		owner = MEX
		add_core_of = MEX
		victory_points = { 14501 5 }
		buildings = {
			infrastructure = 4
			offices = 4
			schools = 1
			hospitals = 1
		}
	}

	provinces = {
		14501 14502 14491
	}
}