state = {
	id = 1416
	name = "STATE_1416"
	
	manpower = 1735490
	state_category = town
	
	history = {
		owner = MEX
		add_core_of = MEX
		victory_points = { 14510 20 }

		buildings = {
			infrastructure = 3
		}
	}

	provinces = {
		14517 14509 2008 14510
	}
}