
state={
	id=1434
	name="STATE_1434"

	history={
		owner = MCW
		add_core_of = MCW
		victory_points = { 117 10 }
		victory_points = { 9234	5 }
		buildings = {
			infrastructure = 4
			air_base = 1

		}

	}

	provinces={
		117 320 3089 9234 11072 11109 
	}
	manpower=134500
	buildings_max_level_factor=1.000
	state_category=town
}
