
state={
	id=1506
	name="STATE_1506"

	history={
		owner = ARG
		buildings = {
			infrastructure = 3

		}
		add_core_of = ARG
		victory_points = {
			12998 1 
		}

	}

	provinces={
		10935 12998 14913 14920 14923 14925 14927 14930 14931 14935 14940 15059 
	}
	manpower=158746
	buildings_max_level_factor=1.000
	state_category=rural
}
