
state={
	id=1516
	name="STATE_1516"
	manpower = 143423
	
	state_category = town

	resources={
		steel = 8
	}

	history={
		owner = CHL
		buildings = {
			infrastructure = 3
			radar_station = 2
			barracks = 1
			
		}
		add_core_of = CHL
		victory_points = { 14838 3 }
	}

	provinces={
		14838 14839 14840 14841
	}
}
