
state={
	id=1525
	name="STATE_1525"
	manpower = 265118
	
	state_category = rural

	history={
		owner = CHL
		buildings = {
			infrastructure = 2
			barracks = 1
			schools = 1
		}
		add_core_of = CHL
		victory_points = { 14810 3 }
	}

	provinces={
		14808 14810 14811 15307
	}
}
