###POP DONE 
state={
	id=1559
	name="STATE_1559"
	history={
		owner = CAU
		buildings = {
			infrastructure = 2

		}
		
		add_core_of = CAU
		add_core_of = ADY
	}

	provinces={
		9649 11633
	}
	manpower=719193
	buildings_max_level_factor=1.000
	state_category=rural
}
