###POP DONE 
state={
	id=1561
	name="STATE_1561"
	resources={
		chromium=2.000
	}

	history={
		owner = CAU
		buildings = {
			infrastructure = 3

		}
		
		add_core_of = CAU
		add_core_of = ADY
	}

	provinces={
		670 9628 9647 15137
	}
	manpower=719193
	buildings_max_level_factor=1.000
	state_category=rural
}
