###POP DONE 
state={
	id=1563
	name="STATE_1563"
	manpower = 1063000
	
	state_category = rural
	
	resources={
		oil=4
	}

	history={
		owner = CAU
		buildings = {
			infrastructure = 2
		}
		victory_points = { 712 1 }
		
		add_core_of = CAU
		add_core_of = DAG
	}

	provinces={
		683 700 712 728 6730 6748 11632
	}
}
