state={
	id=1610
	name="STATE_1610"
	
	history={
		owner = FRA
		add_core_of = FRA
		victory_points = { 15206 5 }
		victory_points = { 15208 3 }
		buildings = {
			infrastructure = 4
		}
	}

	provinces={
		929 3749 9882 9884 11699 12169 15203 15204 15205 15206 15207 15208 15209
	}
	manpower=543697
	buildings_max_level_factor=1.000
	state_category=town
}