state={
	id=1615
	name="STATE_1615"
	
	history={
		owner = ARG
		add_core_of = ARG
		buildings = {
			infrastructure = 4
		}
		victory_points = {
			4573 5 
		}
	}

	provinces={
		4573
	}
	manpower=113332
	buildings_max_level_factor=1.000
	state_category=town
}