
state={
	id=1630
	name="STATE_1630"
	manpower = 141427
	
	state_category = rural
	
	history={
		owner = URG
		buildings = {
			infrastructure = 1
		}
		add_core_of = URG
	}

	provinces={
		12496 15303 15306
	}
}
