
state={
	id=1633
	name="STATE_1633"
	manpower = 233055
	
	state_category = rural
	
	history={
		owner = URG
		buildings = {
			infrastructure = 1
		}
		add_core_of = URG
		victory_points = { 12468 5 }
		victory_points = { 15302 5 }
	}

	provinces={
		12440 12468 15302
	}
}
