
state={
	id=174
	name="STATE_174"

	resources = {
		tungsten=9
	}

	history={
		owner = IBR
		victory_points = { 726 5 }
		victory_points = { 6907 5 }
		buildings = {
			infrastructure = 5
		}
		
		add_core_of = IBR


	}

	provinces={
		726 918 920 3725 3727 3729 3744 3918 3920 6746 6907 9699 11843
	}
	manpower=966041
	buildings_max_level_factor=1.000
	state_category=large_town
}
