
state={
	id=199
	name="STATE_199"

	history={
		owner = UKR
		buildings = {
			infrastructure = 4
			air_base = 3

		}
		
		add_core_of = UKR
	}

	provinces={
		462 3457 3511 6509 
	}
	manpower=828513
	buildings_max_level_factor=1.000
	state_category=rural
}
