###POP DONE 
state={
	id=207
	name="STATE_207"

	history={
		owner = OST
		victory_points = { 11241 5 }
		buildings = {
			infrastructure = 4
			air_base = 5
			prisons = 1
			barracks = 1
		}
		
		add_core_of = OST

	}

	provinces={
		323 3219 3331 6249 6326 9323 11220 11241 233 14584 358 14572 14580
	}
	manpower=732890
	buildings_max_level_factor=1.000
	state_category=town
}
