
state={
	id=213
	name="STATE_213"
	manpower = 109751
	state_category = rural
	resources={
		steel=16
		chromium=18
	}

	history={
		owner = FIN
		victory_points = { 6181 3 }
		buildings = {
			infrastructure = 2
		}
		
		add_core_of = FIN
	}

	provinces={
		15 74 98 116 142 178 3012 3121 3170 6117 6140 6157 6181 6194 9039 9059 9115 9123 9162 9165 9179 9201 9203 9215 9217 11031 11088 11117 11128 11140 11183 11196 
	}
}
