
state={
	id=218
	name="STATE_218"

	history={
		owner = UKR
		victory_points = { 9417 15 }
		victory_points = { 6445 1 }
		buildings = {
			infrastructure = 4
			air_base = 3
			9417 = {
				naval_base = 5

			}

		}
	}

	provinces={
		6445 9417 9430 11418 11434 11450 
	}
	manpower=1650957
	buildings_max_level_factor=1.000
	state_category=large_town
}
