
state={
	id=222
	name="STATE_222"
	resources = {
		steel = 10
	}
	history={
		owner = MCW
		victory_points = { 9355 20 }
		victory_points = { 328 5 }
		buildings = {
			infrastructure = 4
			air_base = 2

		}
		add_core_of = MCW

	}

	provinces={
		302 328 384 6355 9328 9355 9384 9411 11214 11283 11310 11337 11368 
	}
	manpower=824665
	buildings_max_level_factor=1.000
	state_category=city
}
