
state={
	id=240
	name="STATE_240"
	resources = {
		steel = 10
	}
	history={
		owner = MCW
		victory_points = { 9552 5 }
		buildings = {
			infrastructure = 4
			radar_station = 2

		}
		add_core_of = MCW

	}

	provinces={
		473 534 3469 6432 6577 9424 9489 9552 11412 11439 11475 11500 
	}
	manpower=1095995
	buildings_max_level_factor=1.000
	state_category=town
}
