
state={
	id=244
	name="STATE_244"
	history={
		owner = MCW
		victory_points = { 9753 10 }
		buildings = {
			infrastructure = 5

		}
		add_core_of = MCW

	}

	provinces={
		757 3726 6758 6760 9592 9753 11706 11736 
	}
	manpower=420523
	buildings_max_level_factor=1.000
	state_category=large_town
}
