###POP DONE 
state={
	id=25
	name="STATE_25"

	history={
		owner = FRA
		buildings = {
			infrastructure = 4
			offices = 1
			hospitals = 1 
			schools = 1
		}
		add_core_of = FRA
		victory_points = {
			15233 2
		}
	}

	provinces={
		3771 13368 15231 15232 15233
	}
	manpower=1376244
	buildings_max_level_factor=1.000
	state_category=town
}
