
state={
	id=259
	name="STATE_259" # Poltava
	manpower = 2070861
	
	state_category = rural

	history={
		owner = UKR
		victory_points = { 11504 10 }
		buildings = {
			infrastructure = 4
		}
		
		add_core_of = UKR
	}

	provinces={
		511 559 3557 6495 6507 6578 6605 9413 9519 11504 
	}
}
