state=
{
	id=269
	name="STATE_269"
	manpower = 121325
	
	state_category = rural
	
	history= {
		owner = IEA
		buildings = {
			infrastructure = 2
			10833 = {
				naval_base = 2
			}
		}
		victory_points = { 10833 5 }
		add_core_of = IEA
	}
	provinces={
		1905 5068 8094 10833 12759
	}
}
