
state={
	id=276
	name="STATE_276"

	history={
		owner = CAN
		buildings = {
			infrastructure = 5
			air_base = 5
			radar_station = 2
			nuclear_reactor = 1

		}
		add_core_of = CAN
		victory_points = { 3778 20 }
		victory_points = { 3775 10 }
		victory_points = { 14615 3 }

	}

	provinces={
		605 722 749 774 779 3605 3608 3635 3661 3763 3775 3778 4270 6607 6610 6625 6630 6662 6676 6797 9580 9583 9585 9634 9667 9711 9743 11567 11569 11585 11602 11695 11725 11728 13156 14615
	}
	manpower=5612483
	buildings_max_level_factor=1.000
	state_category=metropolis
}
