
state={
	id=291
	name="STATE_291"
	resources={
		oil=9.000
	}

	history={
		owner = IRQ
		add_core_of = IRQ
		victory_points = { 2097 5 }
		buildings = {
			infrastructure = 4
			air_base = 4
			radar_station = 1

		}
		add_core_of = IRQ

	}

	provinces={
		2097 
	}
	manpower=1952425
	buildings_max_level_factor=1.000
	state_category= large_city
}
