##POP DONE
state={
	id=316
	name="STATE_316"
	manpower = 1537041
	resources={

		chromium=1
	}
	
	state_category = town
	

	history={
		owner = COS
		buildings = {
			infrastructure = 3
			air_base = 1
			thermoelectric_plant = 1
			13087 = {
				naval_base = 1
			}
		}
		add_core_of = COS
		victory_points = { 13087 3 }

	}

	provinces={
		12878 13087 13092 
	}
}
