state=
{
	id=337
	name="STATE_337"
	manpower = 25900
	
	state_category = small_island
	
	history=
	{
		owner = ICE
		buildings = {
			infrastructure = 3
			radar_station = 3
			air_base = 3
			13003 = {
				naval_base = 2
				coastal_bunker = 2
				bunker = 1
			}
		}
		add_core_of = ICE
		victory_points = { 
			13003 1 
		}
	}
	provinces= { 13003 }
}
