
state={
	id=430
	name="STATE_430"

	history={
		owner = AZH
		buildings = {
			infrastructure = 2
			radar_station = 2
		}
		add_core_of = AZH
		add_core_of = IND
	}

	provinces={
		4616 7662 9993 10416 10443 
	}
	manpower=51000000
	buildings_max_level_factor=1.000
	state_category=town
}
