state={
	id=452
	name="STATE_452"
	manpower = 114040
	
	state_category = pastoral

	history={
		owner = EGY
		victory_points = { 11967 1 }
		buildings = {
			air_base = 1
			infrastructure = 2
			radar_station = 1
			dockyard = 1
		}

	add_core_of = EGY
	}

	provinces={
		7079 9989 10061 11910 11967 5078 12033 12091 7148 
	}

}
