
state={
	id=457
	name="STATE_457"

	history={
		owner = EGY
		buildings = {
			infrastructure = 2
			12002 = {
				naval_base = 3
			}
		}
		victory_points = { 12002 1 }
		victory_points = { 4068 1 }
		add_core_of = EGY

	}

	resources={
		uranium = 2
	}

	provinces={
		1080 4068 5069 7156 9957 10126 12002 12889 
	}
	manpower=10000
	buildings_max_level_factor=1.000
	state_category=pastoral
}
