
state={
	id=459
	name="STATE_459"
	resources={
		steel=36.000
	}

	history={
		owner = SLG
		add_core_of = FRA
		add_core_of = ALG
		add_core_of = SLG
		victory_points = { 7132 5 }
		victory_points = { 7008 1 }
		buildings = {
			infrastructure = 3
			air_base = 5
			radar_station = 1
			7132 = {
				naval_base = 5

			}

		}
		add_core_of = ALG

	}

	provinces={
		4150 7008 7132 10045 11923 13074 
	}
	manpower=1089944
	buildings_max_level_factor=1.000
	state_category=town
}
