
state={
	id=464
	name="STATE_464"
	manpower = 737007
	
	state_category = town

	history={
		owner = CAN
		victory_points = { 7361 3 }
		buildings = {
			infrastructure = 5
			air_base = 3
			radar_station = 2
			7361 = {
				naval_base = 4

			}
		}
		add_core_of = CAN
	}

	provinces={
		1354 4430 4623 7304 7361 7644 10244 
	}
	
}
