
state={
	id=465
	name="STATE_465"
	manpower = 597936
	
	state_category = rural

	history={
		owner = CAN
		buildings = {
			infrastructure = 4
			4285 = {
				naval_base = 2
			}
		}
		add_core_of = CAN
		victory_points = { 4285 3 }
	}

	provinces={
		634 1424 4285 4342 4362 4432 7379 12289 
	}
}
