
state={
	id=485
	name="STATE_485"
	manpower = 1186716
	
	state_category = town

	resources={
		steel=3
	}

	history={
		owner = MEX
		victory_points = { 14484 5 }
		victory_points = { 10832 5 }
		buildings = {
			infrastructure = 3
			offices = 2
			# 8032 = {
			# 	naval_base = 3
			# }
		}
		add_core_of = MEX
	}

	provinces={
		5066 10730 10832 14484
	}
	
}
