###POP DONE 
state={
	id=49
	name="STATE_49" # Ankara
	manpower = 1524676
	resources={
		chromium=16
		steel=12
	}
	
	state_category = city

	history={
		owner = TUR
		
		victory_points = { 11747 10 }
		buildings = {
			infrastructure = 3
			thermoelectric_plant = 1
			air_base = 3
			radar_station = 1
		}
		add_core_of = TUR
	}

	provinces={
		804 909 3907 3951 6808 6908 6925 9806 9901 11747 11784 
	}
}
