
state={
	id=494
	name="STATE_494"
	manpower = 735826
	
	state_category = rural
	

	history={
		owner = PRU
		victory_points = { 5166 1 }
		buildings = {
			infrastructure = 2
			hospitals = 1
			barracks = 2
		}
		add_core_of = PRU
	}

	resources={
		uranium = 4
	}

	provinces={
		2212 2226 5166 8160 8191 10940 
	}
}
