
state={
	id=505
	name="STATE_505"

	state_category= town
	
	resources={
		aluminium=24.000
	}

	history={
		owner = BRA
		buildings = {
			infrastructure = 3
			radar_station = 1
			air_base = 2
			prisons = 2
			barracks = 1
		}
		add_core_of = BRA
		victory_points = { 12987 5 }

	}
	provinces={
		2168 5115 5151 5208 8140 12959 12987 14777 14778
	}
	manpower=2072760
	buildings_max_level_factor=1.000
}
