###POP DONE 
state = {
	id = 53
	name = "STATE_53"
	manpower = 2797241
	
	state_category = city

	history = {
		owner = GER
		add_core_of = GER
		victory_points = { 3541 5 }
		buildings = {
			barracks = 1
			infrastructure = 5
			thermoelectric_plant = 1
		}
	}

	provinces = {
		7857 532 9681 6725 9515 3541 3299 3571 586 571 11404 9416 3474 11497
	}
}
