state=
{
	id=530
	name="STATE_530" # Shikoku
	manpower = 5710000
	state_category = large_city
	history=
	{
		owner = JAP
		add_core_of = JAP
		buildings = {
			infrastructure = 4
			thermoelectric_plant = 1
			air_base = 3
			hospitals = 1
			schools = 2
			radar_station = 1
			prisons = 1
			7197 = { naval_base = 1 }
		}

		victory_points = { 7197 10 }
		victory_points = { 4179 8 }
	}
	provinces={
		4094 4179 7046 7197 9965 11997 12028
	}
}
