
state={
	id=553
	name="STATE_553"

	history={
		owner = IME
		victory_points = { 792 5 }
		buildings = {
			infrastructure = 3
			radar_station = 1
			#dockyard = 1
			air_base = 5
			11919 = {
			naval_base = 1
			}
			792 = {
				bunker = 4
			}
			11919 = {
				bunker = 4
			}

		}
		add_core_of = LEB
		add_core_of = IME

	}

	provinces={
		11919 792
	}
	manpower=1945809
	buildings_max_level_factor=1.000
	state_category= large_town
}
