
state={
	id=618
	name="STATE_618" # Dzungaria
	manpower = 1040000

	state_category = rural

	history={
		owner = XIN
		add_core_of = XIN
		add_claim_by = ETR
		buildings = {
			schools = 1
			offices = 1
			hospitals = 1
			barracks = 1
			infrastructure = 2
		}
		victory_points = { 4823 3 }
		victory_points = { 1708 1 }

	}

	provinces={
		1708 1783 1844 4714 4788 4823 4849 7693 7737 7866 10674 10691 12590 12737
	}
}
