state=
{
	id=631
	name="STATE_631"
	manpower=1346243
	state_category = metropolis
	resources={
		aluminium=4
	}
	history={
		owner = JAP
		add_core_of = JAP
		buildings = {
			infrastructure = 6
			barracks = 1
			hospitals = 2
			schools = 1
			offices = 1
			prisons = 1
			nuclear_reactor = 1
			1136 = {
				naval_base = 6
			}
		}
		victory_points = { 11960 25 }
	}
	
	provinces={
		1136 11960
	}
}
