###POP DONE 
state={
	id=64
	name="STATE_64"

	history={
		owner = GER
		victory_points = { 6521 80 }
		buildings = {
			schools = 1
			hospitals = 1
			barracks = 1
			prisons = 1
			infrastructure = 7
			anti_air_building = 4
			thermoelectric_plant = 1
			radar_station = 1
			air_base = 1

		}
		add_core_of = GER

	}

	provinces={
		6521 
	}
	manpower=4210029
	buildings_max_level_factor=1.000
	state_category=megalopolis
}
