
state={
	id=642
	name="STATE_642"
	manpower=5139000

	resources={
		steel=16
	}
	
	state_category = large_city

	history={
		owner = JAP
		add_core_of = JAP
		buildings = {
			infrastructure = 4
			thermoelectric_plant = 1
			offices = 1
			prisons = 2
			hospitals = 1
			
		}
		victory_points = { 7169 15 }
		victory_points = { 4118 7 }
		victory_points = { 4153 10 }
	}

	provinces={
		1024 4067 4118 4122 4153 7169 
	}
}
