
state={
	id=658
	name="STATE_658"
	resources={
		oil=5.000
	}

	history={
		owner = GUL
		add_core_of = UAE
		add_core_of = GUL
		victory_points = { 7960 1 }
		buildings = {
			infrastructure = 3
			air_base = 2
			7960 = {
				naval_base = 4

			}

		}
		add_extra_state_shared_building_slots = 1
	}

	provinces={
		2048 8108 10904 7960
	}
	manpower=301879
	buildings_max_level_factor=1.000
	state_category= town
}
