###POP DONE
###VPS DONE
state={
	id=673
	name="STATE_673"
	resources={
		rubber=26.000 #was 52
	}

	history={
		victory_points = { 7598 5 }
		owner = INS
		add_core_of = INS
		buildings = {
			infrastructure = 2
			air_base = 4

		}

	}

	provinces={
		4308 7598 
	}
	manpower=405435
	buildings_max_level_factor=1.000
	state_category=pastoral
}
