###POP DONE 
state={
	id=68
	name="STATE_68"
	manpower = 1685840
	resources={
		aluminium=24
	}

	state_category = large_town

	history={
		owner = GER
		buildings = {
			offices = 1
			prisons = 2
			infrastructure = 5
			thermoelectric_plant = 1
		}
		add_core_of = GER
		victory_points = { 3473 5 }
	}

	provinces={
		444 478 537 3473 3572 6236 9387 9496 11415 11478 
	}
}
