
state={
	id=719
	name="STATE_719"
	resources={
		chromium=106.000
	}

	history={
		owner = SAF
		buildings = {
			infrastructure = 4
			schools = 1
			prisons = 1
			offices = 1
			13522 = {
				naval_base = 2
			}
		}
		victory_points = { 13522 10 }
		victory_points = { 13540 5 }
		add_core_of = SAF
	}

	provinces={
		1494 8178 13508 13513 13516 13518 13521 13522 13526 13528 13531 13532 13535 13537 13540 13541 13547 
	}
	manpower=1914144
	buildings_max_level_factor=1.000
	state_category=large_town
}
