
state={
	id=735
	name="STATE_735"

	history={
		owner = ITA
		add_core_of = FRA
		add_core_of = ITA
		victory_points = { 11573 1 }
		victory_points = { 13583 5 }
		buildings = {
			prisons = 1
			infrastructure = 4
			radar_station = 1
			air_base = 1
			13583 = {
				naval_base = 2

			}

		}

	}

	provinces={
		778 3764 6609 6975 9603 9745 11573 13583 13584 
	}
	manpower=1089000
	buildings_max_level_factor=1.000
	state_category=town
}
