state={
	id=749
	name="STATE_749"

	history={
		owner = KLT
		buildings = {
			infrastructure = 3
			1179 = {
				naval_base = 4
			}
		}
		add_core_of = PAK
		add_claim_by = AZH
		add_claim_by = AFG
	}

	provinces={
		1179 7917 12774 
	}
	manpower=349614
	buildings_max_level_factor=1.000
	state_category=rural
}
