###POP DONE 
state = {
	id = 75
	name = "STATE_75"
	manpower = 2848500
	resources = {
		steel = 6
		oil = 2
	}

	state_category = city

	history = {
		owner = GER
		add_core_of = GER

		victory_points = { 3569 1 }
		victory_points = { 3553 1 }
		buildings = {
			schools = 1
			barracks = 1
			infrastructure = 6
			radar_station = 2
			air_base = 5
			thermoelectric_plant = 1
		}
	}

	provinces = {
		569 3553 3569 6562 6576 6590 11511 
	}
}
