#POP DONE
state={
	id=752
	name="STATE_752"
	provinces={
	 6162 6274 6288 9293 11124 12203 13322 7346 11352 1336 9283 189 123 6025
	}
	history={
		owner = VYT
		buildings = {
			infrastructure = 4
			barracks = 1
		}
		victory_points = { 9283 3 }
		victory_points = { 1336 5 }
		victory_points = { 189 1 }
		victory_points = { 9293 10 }
		add_core_of = VYT
	}
	state_category="rural"
	manpower=134000
	buildings_max_level_factor=1.000
}
