state={
	id=766
	name="STATE_766"
	provinces={
		4045 4410 5040 5096 7938 10332 
	}
	history={
		owner = IND
		add_core_of = AZH
		add_core_of = IND
		buildings = {
			infrastructure = 3
		}
	}
	state_category="rural"
	manpower=200445
	buildings_max_level_factor=1.000
}
