state={
	id=768
	name="STATE_768"
	provinces={
		13285
	}
	history=
	{
		owner = JAP #should be USA -morrina and uncountably
		buildings = {
			infrastructure = 7
			radar_station = 1

			13285 = {
				naval_base = 4
			}
		}
		victory_points = { 13285 15 }
		add_core_of = USA
	}
	manpower=2164 #why the fuck was this 320075 ever
	state_category = enclave #why the fuck was this metropolis ever
	buildings_max_level_factor=1.000
}
