
state = {
	id = 776
	name = "STATE_776"

	manpower = 4053361
	state_category = large_city

	history = {
		owner = GER
		add_core_of = GER

		victory_points = { 3522 5 }
		victory_points = { 375 5 }

		buildings = {
			barracks = 1
			schools = 1
			offices = 2
			prisons = 1
			infrastructure = 6
			radar_station = 2
			air_base = 6
			anti_air_building = 3
			thermoelectric_plant = 2
		}
	}

	provinces = {
		3522 6487 9456 9560 11359 11444 3367 375 11219
	}
}
