
state={
	id=78
	name="STATE_78"
	manpower = 1760767
	
	state_category = large_town
	
	history=
	{
		owner = ROM
		buildings = {
			infrastructure = 3
			air_base = 3
		}
		add_core_of = ROM
		victory_points = { 11686 20 }
	}
	provinces=
	{ 565 3707 3724 11686 11705 }
}
