
state={
	id=781
	name="STATE_781"

	resources={
		oil=4
	}

	history={
		owner = BKU
		buildings = {
			infrastructure = 2
			radar_station = 1

		}
		victory_points = { 10106 6 }
		add_core_of = KUR
		add_core_of = BKU
	}

	provinces={
		1938 10106 10804 
	}
	manpower=1544101
	buildings_max_level_factor=1.000
	state_category = town
}
