
state={
	id=784
	name="STATE_784"

	resources = {
		steel=4
	}

	history={
		owner = FRA
		victory_points = { 3959 10 }
		buildings = {
			infrastructure = 4
			air_base = 2
			3959 = {
				naval_base = 2

			}

		}
		add_core_of = ALG
		add_core_of = FRA

	}

	provinces={
		3959 
	}
	manpower=1185726
	buildings_max_level_factor=1.000
	state_category=city
}
