
state=
{
	id=79
	name="STATE_79"
	manpower = 1657714
	
	state_category = large_town
	
	history= {
		owner = ROM
		buildings = {
			infrastructure = 4
			air_base = 2
		}
		victory_points = { 6706 10 }
		victory_points = { 11655 3 }
		add_core_of = ROM
	}
	provinces=
	{ 723 6706 6729 6747 9701 11652 11655 }
}
