###POP DONE
###VPS DONE
state={
	id=795
	name="STATE_795"
	resources={
		oil=2
	}
	history={
		owner = INS
		add_core_of = INS
		victory_points = { 7381 40 }
		buildings = {
			thermoelectric_plant = 1
			7381 = {
				naval_base = 10
			}
			infrastructure = 5
			air_base = 1
			radar_station = 1
		}
	}
	provinces={
		7381 
	}
	manpower=3355866
	state_category=city
	buildings_max_level_factor=1.000
}
