state={
	id=806
	name="STATE_806"
	resources={
		rubber=57
		steel=21
		tungsten=45
	}
	history={
		owner = SHO
		add_core_of = SHO
		victory_points = { 14699 3 }
		add_core_of = MLY
		victory_points = { 14694 5 }
		buildings = {
			infrastructure = 4
			radar_station = 2
		}
	}
	provinces={
		10313 14693 14694 14699
	}
	manpower= 900000
	state_category = town
	buildings_max_level_factor=1.000
}
