###POP DONE
###VPS DONE
state={
	id=820
	name="STATE_820"
	resources={
		rubber=10
	}
	history={
		owner = INS
		add_core_of = INS
		victory_points = { 10263 30 }
		victory_points = { 12330 5 }
		victory_points = { 1589 5 }
		buildings = {
			infrastructure = 3
			air_base = 4
			10263 = {
				naval_base = 6
			}
		}
	}
	provinces={
		1589 4349 7336 10263 10464 12330 
	}
	manpower=2811379
	state_category = town
	buildings_max_level_factor=1.000
}
