###POP DONE
###VPS DONE
state={
	id=821
	name="STATE_821"
	resources={
		rubber=9
	}
	history={
		victory_points = { 12358 15 }
		owner = INS
		add_core_of = INS
		buildings = {
			offices = 1
			infrastructure = 2
			air_base = 4
		}
	}
	provinces={
		1098 1484 1505 1518 1561 4307 4493 4537 12358 
	}
	manpower=875363
	state_category = rural
	buildings_max_level_factor=1.000
}
