###POP DONE 
state={
	id=83
	name="STATE_83"
	manpower = 994332
	
	state_category = town

	history={
		owner = ROM
		buildings = {
			infrastructure = 4
		}
		victory_points = { 6682 1 }
		add_core_of = ROM
	}

	provinces={
		693 696 6682 6697 9640 11622
	}
}

