#POP DONE
state={
	id=854
	name="STATE_854"
	resources={
		steel = 7
	}

	provinces={
		282 325 3315 3361 6307 6372 6383 9270 9280 9305 9381 9390 9402 11149 11255 11263 11286 11354 11387 
	}
	history={
		owner = TAR
		buildings = {
			offices = 1
			hospitals = 1
			infrastructure = 2
		}
		victory_points = { 9402 10 }
		victory_points = { 3315 3 }
		add_core_of = TAR

	}
	manpower=391000
	state_category=rural
	buildings_max_level_factor=1.000
}
