#POP DONE
state={
	id=860
	name="STATE_860"
	resources={
		steel = 8
	}
	provinces={
		3064 3166 6088 6100 6193 6199 9101 9124 9213 11061 13343 
	}
	history={
		owner = PLS
		buildings = {
			infrastructure = 2
			prisons = 1
			barracks = 1
		}
		victory_points = { 9124 7 }
		add_core_of = PLS
		add_claim_by = MCW
	}
	manpower=71000
	state_category=rural
	buildings_max_level_factor=1.000
}
