#POP DONE
state={
	id=864
	name="STATE_864"
	resources = {
		oil = 5
	}
	provinces={
	7444 291 6285 7416 1380 206 7431 7403 6246
	}
	history={
		owner = PRM
		buildings = {
			infrastructure = 4
		}
		victory_points = { 7403 5 }
		victory_points = { 6285 8 }
		add_core_of = PRM
	}
	manpower=210000
	state_category=rural
	buildings_max_level_factor=1.000
}
