###POP DONE 
state = {
	id = 87
	name = "STATE_87"
	manpower = 2853000
	
	state_category = town
	history = {
		owner = GER
		add_core_of = GER

		victory_points = { 9508 5 }
		victory_points = { 9546 5 }

		buildings = {
			hospitals = 1
			barracks = 1
			radar_station = 1
			prisons = 1
			thermoelectric_plant = 1
			infrastructure = 5
		}
	}

	provinces = {
		493 584 9439 9508 9546 11428 11515 11558 
	}
}
