state={
	id=910
	name="STATE_910"
	provinces={
		1920 13429 13430 13432 
	}
	history={
		owner = YEM
		add_core_of = YEM
		buildings = {
			infrastructure = 2
		}
		victory_points = { 13429 1 }
		victory_points = { 13432 1 }
	}
	manpower=312684
	buildings_max_level_factor=1.000
	state_category=pastoral
}
