
state={
	id=916
	name="STATE_916"

	resources={
		oil=21
	}

	history={
		owner = IRQ
		add_core_of = IRQ
		buildings = {
			infrastructure = 4
			dockyard = 3
			air_base = 1
			2089 = {
				naval_base = 4
			}

		}
		victory_points = { 2089 2 }
	}

	provinces={
		2004 2089 12726 
	}
	manpower=1597439
	buildings_max_level_factor=1.000
	state_category= town
}
