state={
	id=920
	name="STATE_920"
	provinces={
		2090 5037 12883 13440 13442 13444 13448 13450 13452 13453 13477 13478 
	}
	history={
		owner = SAU
		add_core_of = SAU
		buildings = {
			infrastructure = 2
			air_base = 1
			dockyard = 2
			12883 = {
				naval_base = 4
			}
		}
		victory_points = { 13448 3 }
		victory_points = { 12883 1 }
	}
	manpower=1312852
	buildings_max_level_factor=1.000
	state_category=large_town
}
