###POP DONE
state={
	id=939
	name="STATE_939"
	resources = {
		chromium=25
		steel=2
	}
	provinces={
		10566 13549 13551 13556 13557 13560 13562 
	}
history={
		owner = SAF
		buildings = {
			infrastructure = 3
			radar_station = 1
			air_base = 1 
		}

			victory_points = { 13556 10 }

		add_core_of = SAF

	}
	manpower=1057083
	buildings_max_level_factor=1.000
	state_category=town
}
