state={
	id=943
	name="STATE_943"
	provinces={
		222 310 341 6459 13314 14589
	}
	history={
		owner = OST
		victory_points = { 310 5 }
		buildings = {
			infrastructure = 4
			air_base = 3
			310 = { bunker = 4 }
			schools = 1
			hospitals = 1
		}
		add_core_of = OST
	}
	manpower=197870
	buildings_max_level_factor=1.000
	state_category=town
}
