
state = {
	id = 95
	name = "STATE_95"

	manpower = 532086
	state_category = rural

	history = {
		owner = OST
		add_core_of = OST

		buildings = {
			infrastructure = 4
			air_base = 3
			prisons = 2
			barracks = 1
			offices = 1
		}
		add_extra_state_shared_building_slots = 2
	}

	provinces = {
		3759 6413 9236 9304 9359 11341 14561 14554 14553 14549
	}
}
