#POP DONE
state={
	id=950
	name="STATE_950"

	history={
		owner = USA
		add_core_of = USA
		buildings = {
			schools = 1
			hospitals = 3
			offices = 4
			infrastructure = 5
		}
		victory_points = { 4445 5 }
	}

	provinces={
		4445 7629 9675 13158 
	}
	manpower=393000
	buildings_max_level_factor=1.000
	state_category = town
}
