
state={
	id=956
	name="STATE_956"

	history={
		owner = SHX
		add_core_of = SHX
		victory_points = { 7301 20 }
		victory_points = { 7418 5 }
		victory_points = { 10257 5 }
		buildings = {
			offices = 2
			barracks = 3
			schools = 3
			prisons = 2
			hospitals = 3
			thermoelectric_plant = 2
			infrastructure = 2
			radar_station = 1
		}
	}

	provinces={
		1976 2006 4167 4256 4295 5092 7301 7406 7418 10257 12713
	}
	manpower=9384000
	buildings_max_level_factor=1.000
	state_category=city
}
