state={
	id=965
	name="STATE_965"
	history={
		owner = ITA
		
		buildings = {
			barracks = 1
			hospitals = 1
			infrastructure = 4
			air_base = 1
			12049 = {
				naval_base = 10
			}
		}
		
		victory_points = { 12049 1 }
		victory_points = { 4073 1 }
		
		add_core_of = EGY

	}
	provinces={
		4073 12049 
	}
	manpower=100000
	buildings_max_level_factor=1.000
	state_category=town
}
