state={
	id=968
	name="STATE_968"
	history={
		owner = SER
		buildings = {
			infrastructure = 5
		}
		add_core_of = SER
	}
	provinces={
		614 3614 11787 6643
	}
	manpower=291245
	buildings_max_level_factor=1.000
	state_category=rural
}
