
state = {
	id = 97
	name = "STATE_97"

	manpower = 1710000
	state_category = rural

	history = {
		owner = GER
		add_core_of = GER

		victory_points = { 11301 5 }
		# victory_points = { 318 1 }

		buildings = {
			infrastructure = 4
			air_base = 3
			missile_silo = 1
		}
	}

	resources={
		uranium = 2
	}

	provinces = {
		290 318 347 400 3281 3392 3393 11247 11274 11301 11357 3254 11386 11329
	}
}
