state={
	id=990
	name="STATE_990"
	provinces={
		823 4657 4727 7517 7986 11795 12303 12374 1562 9814 9855 10483 11757 11859 
	}
	resources={
		aluminium=8
		oil=72
	}
	history={
		owner = USA
		add_core_of = USA
		buildings = {
			schools = 1
			hospitals = 1
			prisons = 2
			barracks = 2
			offices = 2
			infrastructure = 6
			dockyard = 3
			air_base = 5
			radar_station = 3
			9814 = {
				naval_base = 5
			}
			1562 = {
				naval_base = 10
			}
		}
		victory_points = { #Palm Springs
			823 5 
		}
		victory_points = { #Santa Barbara
			11859 5 
		}
		victory_points = { #Calexico
			7986 2
		}
		victory_points = { 1562 15 }
		victory_points = { 9814 30 }
	}
	manpower=8232728
	buildings_max_level_factor=1.000
	state_category = megalopolis	
}
