state={
	id=999
	name="STATE_999"
	provinces={
		3928 6841 6993 9785 9933 11870 
	}
	history={
		owner = IBR
		victory_points = { 6993 10 }
		add_core_of = IBR
	
		buildings = {
			hospitals = 1
			infrastructure = 3
		}
	}
	manpower=167708
	buildings_max_level_factor=1.000
	state_category=town
}
