equipments = {
	transport_plane_equipment = {

		year = 1933

		is_archetype = yes
		is_convertable = yes
		picture = archetype_strat_bomber_equipment			
		type = air_transport
		group_by = archetype
		sprite = heavy_plane
		air_map_icon_frame = 12

		
		interface_category = interface_category_air
		
		# Transport
		interface_overview_category_index = 6
		
		air_superiority = 0
		reliability = 0.8

		# Air vs Navy - high damage / low hit chance / hard to hurt
		naval_strike_attack = 0.0
		naval_strike_targetting = 0.0
		
		build_cost_ic = 65
		resources = {
			aluminium = 3
			rubber = 2
		}
		
		manpower = 80
		fuel_consumption = 1
	}

	transport_plane_equipment_1 = {
		year = 1936

		archetype = transport_plane_equipment
		priority = 70
		
		air_range = 1000
		maximum_speed = 300
		air_agility = 10
		air_defence = 24
		fuel_consumption = 0.58
	}
	
	transport_plane_equipment_2 = {
		year = 1945

		archetype = transport_plane_equipment
		parent = transport_plane_equipment_1
		priority = 80
		
		air_range = 1300
		maximum_speed = 500
		air_agility = 12
		air_defence = 28
		fuel_consumption = 0.58
	}
	
	transport_plane_equipment_3 = {
		year = 1950

		archetype = transport_plane_equipment
		parent = transport_plane_equipment_2
		priority = 90
		
		air_range = 1600
		maximum_speed = 700
		air_agility = 14
		air_defence = 32
		fuel_consumption = 0.58
	}
	
	transport_plane_equipment_4 = {
		year = 1960

		archetype = transport_plane_equipment
		parent = transport_plane_equipment_3
		priority = 100
		
		air_range = 1900
		maximum_speed = 900
		air_agility = 16
		air_defence = 36
		fuel_consumption = 0.58
	}
	
	transport_plane_equipment_5 = {
		year = 1970

		archetype = transport_plane_equipment
		parent = transport_plane_equipment_4
		priority = 110
		
		air_range = 2200
		maximum_speed = 1100
		air_agility = 18
		air_defence = 40
		fuel_consumption = 0.58
	}
	
	transport_plane_equipment_6 = {
		year = 1980

		archetype = transport_plane_equipment
		parent = transport_plane_equipment_5
		priority = 120
		
		air_range = 2500
		maximum_speed = 1300
		air_agility = 20
		air_defence = 44
		fuel_consumption = 0.58
	}
	
	transport_plane_equipment_7 = {
		year = 1990

		archetype = transport_plane_equipment
		parent = transport_plane_equipment_6
		priority = 130
		
		air_range = 2800
		maximum_speed = 1500
		air_agility = 22
		air_defence = 48
		fuel_consumption = 0.58
	}
}