scripted_gui = {
	IRE_GUI_MOG = {
		context_type = decision_category
		window_name = "IRE_GUI_MOG"
		visible = {
			has_country_leader = {
				character = IRE_Sean_Lemass 
				ruling_only = yes
			}
			has_variable = mog_tds
		}

		triggers = {
			Bar1_visible = {
				check_variable = { ARR_mog_bil_status^mog_bill_index = 1 }
			}
		}

		effects = {
			LIB_Interactions_click = {
				if = {
					limit = { has_country_flag = LIB_Interactions_Open }
					clr_country_flag = LIB_Interactions_Open
				}
				else_if = { set_country_flag = LIB_Interactions_Open }
				if = {
					limit = { has_country_flag = LAB_Interactions_Open }
					clr_country_flag = LAB_Interactions_Open
				}
				if = {
					limit = { has_country_flag = DEV_Interactions_Open }
					clr_country_flag = DEV_Interactions_Open
				}
				if = {
					limit = { has_country_flag = HAR_Interactions_Open }
					clr_country_flag = HAR_Interactions_Open
				}
			}
			LAB_Interactions_click = {
				if = {
					limit = { has_country_flag = LAB_Interactions_Open }
					clr_country_flag = LAB_Interactions_Open
				}
				else_if = { set_country_flag = LAB_Interactions_Open }
				if = {
					limit = { has_country_flag = LIB_Interactions_Open }
					clr_country_flag = LIB_Interactions_Open
				}
				if = {
					limit = { has_country_flag = DEV_Interactions_Open }
					clr_country_flag = DEV_Interactions_Open
				}
				if = {
					limit = { has_country_flag = HAR_Interactions_Open }
					clr_country_flag = HAR_Interactions_Open
				}
			}
			DEV_Interactions_click = {
				if = {
					limit = { has_country_flag = DEV_Interactions_Open }
					clr_country_flag = DEV_Interactions_Open
				}
				else_if = { set_country_flag = DEV_Interactions_Open }
				if = {
					limit = { has_country_flag = LAB_Interactions_Open }
					clr_country_flag = LAB_Interactions_Open
				}
				if = {
					limit = { has_country_flag = LIB_Interactions_Open }
					clr_country_flag = LIB_Interactions_Open
				}
				if = {
					limit = { has_country_flag = HAR_Interactions_Open }
					clr_country_flag = HAR_Interactions_Open
				}
			}
			HAR_Interactions_click = {
				if = {
					limit = { has_country_flag = HAR_Interactions_Open }
					clr_country_flag = HAR_Interactions_Open
				}
				else_if = { set_country_flag = HAR_Interactions_Open }
				if = {
					limit = { has_country_flag = LAB_Interactions_Open }
					clr_country_flag = LAB_Interactions_Open
				}
				if = {
					limit = { has_country_flag = DEV_Interactions_Open }
					clr_country_flag = DEV_Interactions_Open
				}
				if = {
					limit = { has_country_flag = LIB_Interactions_Open }
					clr_country_flag = LIB_Interactions_Open
				}
			}
		}

		properties = {
			Coo_Bar = {
				frame = mog_coo_perc
			}
			App_Bar = {
				frame = mog_app
			}
			Pow_Bar = {
				frame = mog_pow_left
			}
			DEV_Coo = {
				image = "[GetIRE_MOG_DEV_Coo]"
			}
			HAR_Coo = {
				image = "[GetIRE_MOG_HAR_Coo]"
			}
			LIB_Coo = {
				image = "[GetIRE_MOG_LIB_Coo]"
			}
			LAB_Coo = {
				image = "[GetIRE_MOG_LAB_Coo]"
			}
			BillBar_2 = {
				frame = mog_bil_perc^0
			}
			BillBar_3 = {
				frame = mog_bil_perc^1
			}
			BillBar_4 = {
				frame = mog_bil_perc^2
			}
			BillBar_5 = {
				frame = mog_bil_perc^3
			}
		}
	}

	IRE_GUI_MOG_party_LIB = {
		context_type = player_context
		window_name = "LIB_Interactions_Menu"
		visible = {
			has_country_flag = LIB_Interactions_Open
		}
		triggers = {
			LIB_button1_visible = {
				NOT = { has_country_flag = LIB_button1_pressed }
				has_country_flag = IRE_bill_in_progress
				has_political_power > 29.99
			}
			LIB_button1pressed_visible = {
				OR = {
					has_country_flag = LIB_button1_pressed
					NOT = { has_country_flag = IRE_bill_in_progress }
					has_political_power < 30
				}
			}
			LIB_button1pressedtext_visible = {
				OR = {
					has_country_flag = LIB_button1_pressed
					NOT = { has_country_flag = IRE_bill_in_progress }
					has_political_power < 30
				}
			}

			LIB_button2_visible = {
				NOT = { has_country_flag = LIB_button2_pressed }
				has_political_power > 14.99
				has_country_flag = IRE_bill_in_progress
			}
			LIB_button2pressed_visible = {
				OR = {
					has_country_flag = LIB_button2_pressed
					NOT = { has_country_flag = IRE_bill_in_progress }
					has_political_power < 15
				}
			}
			LIB_button2pressedtext_visible = {
				OR = {
					has_country_flag = LIB_button2_pressed
					NOT = { has_country_flag = IRE_bill_in_progress }
					has_political_power < 15
				}
			}

			LIB_button3_visible = {
				NOT = { has_country_flag = LIB_button3_pressed }
				has_political_power > 9.99
				has_country_flag = IRE_bill_in_progress
			}
			LIB_button3pressed_visible = {
				OR = {
					has_country_flag = LIB_button3_pressed
					has_political_power < 10
					NOT = { has_country_flag = IRE_bill_in_progress }
				}
			}
			LIB_button3pressedtext_visible = {
				OR = {
					has_country_flag = LIB_button3_pressed
					has_political_power < 10
					NOT = { has_country_flag = IRE_bill_in_progress }
				}
			}
			LIB_button4_visible = {
				NOT = { has_country_flag = LIB_button4_pressed }
				has_political_power > 19.99
				has_country_flag = IRE_bill_in_progress
			}
			LIB_button4pressed_visible = {
				OR = {
					has_country_flag = LIB_button4_pressed
					has_political_power < 20
					NOT = { has_country_flag = IRE_bill_in_progress }
				}
			}
			LIB_button4pressedtext_visible = {
				OR = {
					has_country_flag = LIB_button4_pressed
					has_political_power < 20
					NOT = { has_country_flag = IRE_bill_in_progress }
				}
			}
		}
		effects = {
			close_button_click = {
				if = {
					limit = { has_country_flag = LIB_Interactions_Open }
					clr_country_flag = LIB_Interactions_Open
				}
				else = { set_country_flag = LIB_Interactions_Open }
			}
			LIB_button1_click = {
				set_country_flag = { flag = LIB_button1_pressed value = 1 days = 14 }
				add_to_variable = { ARR_mog_tds_fry^0 = 3 }
				add_political_power = -30
				IRE_SE_MOG_tds_fry_calc = yes
			}
			LIB_button2_click = {
				set_country_flag = { flag = LIB_button2_pressed value = 1 days = 28 }
				add_to_variable = { ARR_mog_coo^0 = 0.4 }
				add_political_power = -15
				IRE_SE_MOG_coo_calc = yes
			}
			LIB_button3_click = {
				set_country_flag = { flag = LIB_button3_pressed value = 1 days = 28 }
				add_to_variable = { mog_pow_left = 3 }
				add_to_variable = { mog_pow_right = -3 }
				add_political_power = -10
				IRE_SE_MOG_pow_calc = yes
			}
			LIB_button4_click = {
				set_country_flag = { flag = LIB_button4_pressed value = 1 days = 28 }
				add_to_variable = { ARR_mog_tds_fry^0 = 4 }
				add_political_power = -20
				IRE_SE_MOG_tds_fry_calc = yes
				IRE_Decrease_NIC_Opinion = yes
				IRE_Increase_NIC_Corruption = yes
			}
		}
		properties = {

		}
	}

	IRE_GUI_MOG_party_LAB = {
		context_type = player_context
		window_name = "LAB_Interactions_Menu"
		visible = {
			has_country_flag = LAB_Interactions_Open
		}
		triggers = {
			LAB_button1_visible = {
				NOT = { has_country_flag = LAB_button1_pressed }
				has_political_power > 29.99
				has_country_flag = IRE_bill_in_progress
			}
			LAB_button1pressed_visible = {
				OR = {
					has_country_flag = LAB_button1_pressed
					NOT = { has_country_flag = IRE_bill_in_progress }
					has_political_power < 30
				}
			}
			LAB_button1pressedtext_visible = {
				OR = {
					has_country_flag = LAB_button1_pressed
					NOT = { has_country_flag = IRE_bill_in_progress }
					has_political_power < 30
				}
			}

			LAB_button2_visible = {
				NOT = { has_country_flag = LAB_button2_pressed }
				has_political_power > 14.99
				has_country_flag = IRE_bill_in_progress
			}
			LAB_button2pressed_visible = {
				OR = {
					has_country_flag = LAB_button2_pressed
					NOT = { has_country_flag = IRE_bill_in_progress }
					has_political_power < 15
				}
			}
			LAB_button2pressedtext_visible = {
				OR = {
					has_country_flag = LAB_button2_pressed
					NOT = { has_country_flag = IRE_bill_in_progress }
					has_political_power < 15
				}
			}

			LAB_button3_visible = {
				NOT = { has_country_flag = LAB_button3_pressed }
				has_political_power > 9.99
				has_country_flag = IRE_bill_in_progress
			}
			LAB_button3pressed_visible = {
				OR = {
					has_country_flag = LAB_button3_pressed
					has_political_power < 10
					NOT = { has_country_flag = IRE_bill_in_progress }
				}
			}
			LAB_button3pressedtext_visible = {
				OR = {
					has_country_flag = LAB_button3_pressed
					has_political_power < 10
					NOT = { has_country_flag = IRE_bill_in_progress }
				}
			}
			LAB_button4_visible = {
				NOT = { has_country_flag = LAB_button4_pressed }
				has_political_power > 19.99
				has_country_flag = IRE_bill_in_progress
			}
			LAB_button4pressed_visible = {
				OR = {
					has_country_flag = LAB_button4_pressed
					has_political_power < 20
					NOT = { has_country_flag = IRE_bill_in_progress }
				}
			}
			LAB_button4pressedtext_visible = {
				OR = {
					has_country_flag = LAB_button4_pressed
					has_political_power < 20
					NOT = { has_country_flag = IRE_bill_in_progress }
				}
			}
		}
		effects = {
			close_button_click = {
				if = {
					limit = { has_country_flag = LAB_Interactions_Open }
					clr_country_flag = LAB_Interactions_Open
				}
				else = { set_country_flag = LAB_Interactions_Open }
			}
			LAB_button1_click = {
				set_country_flag = { flag = LAB_button1_pressed value = 1 days = 14 }
				add_to_variable = { ARR_mog_tds_fry^1 = 3 }
				add_political_power = -30
				IRE_SE_MOG_tds_fry_calc = yes
			}
			LAB_button2_click = {
				set_country_flag = { flag = LAB_button2_pressed value = 1 days = 28 }
				add_to_variable = { ARR_mog_coo^1 = 0.4 }
				add_political_power = -15
				IRE_SE_MOG_coo_calc = yes
			}
			LAB_button3_click = {
				set_country_flag = { flag = LAB_button3_pressed value = 1 days = 28 }
				add_to_variable = { mog_pow_left = 3 }
				add_to_variable = { mog_pow_right = -3 }
				add_political_power = -10
				IRE_SE_MOG_pow_calc = yes
			}
			LAB_button4_click = {
				set_country_flag = { flag = LAB_button4_pressed value = 1 days = 28 }
				add_to_variable = { ARR_mog_tds_fry^1 = 4 }
				add_political_power = -20
				IRE_SE_MOG_tds_fry_calc = yes
				add_to_variable = { ARR_mog_coo^3 = -0.5 }
				IRE_SE_MOG_coo_calc = yes
				add_war_support = -0.075
			}
		}
		properties = {

		}
	}

	IRE_GUI_MOG_party_DEV = {
		context_type = player_context
		window_name = "DEV_Interactions_Menu"
		visible = {
			has_country_flag = DEV_Interactions_Open
		}
		triggers = {
			DEV_button1_visible = {
				NOT = { has_country_flag = DEV_button1_pressed }
				has_political_power > 29.99
				has_country_flag = IRE_bill_in_progress
			}
			DEV_button1pressed_visible = {
				OR = {
					has_country_flag = DEV_button1_pressed
					NOT = { has_country_flag = IRE_bill_in_progress }
					has_political_power < 30
				}
			}
			DEV_button1pressedtext_visible = {
				OR = {
					has_country_flag = DEV_button1_pressed
					NOT = { has_country_flag = IRE_bill_in_progress }
					has_political_power < 30
				}
			}

			DEV_button2_visible = {
				NOT = { has_country_flag = DEV_button2_pressed }
				has_political_power > 14.99
				has_country_flag = IRE_bill_in_progress
			}
			DEV_button2pressed_visible = {
				OR = {
					has_country_flag = DEV_button2_pressed
					NOT = { has_country_flag = IRE_bill_in_progress }
					has_political_power < 15
				}
			}
			DEV_button2pressedtext_visible = {
				OR = {
					has_country_flag = DEV_button2_pressed
					NOT = { has_country_flag = IRE_bill_in_progress }
					has_political_power < 15
				}
			}

			DEV_button3_visible = {
				NOT = { has_country_flag = DEV_button3_pressed }
				has_political_power > 9.99
				has_country_flag = IRE_bill_in_progress
			}
			DEV_button3pressed_visible = {
				OR = {
					has_country_flag = DEV_button3_pressed
					has_political_power < 10
					NOT = { has_country_flag = IRE_bill_in_progress }
				}
			}
			DEV_button3pressedtext_visible = {
				OR = {
					has_country_flag = DEV_button3_pressed
					has_political_power < 10
					NOT = { has_country_flag = IRE_bill_in_progress }
				}
			}
			DEV_button4_visible = {
				NOT = { has_country_flag = DEV_button4_pressed }
				has_political_power > 19.99
				has_country_flag = IRE_bill_in_progress
			}
			DEV_button4pressed_visible = {
				OR = {
					has_country_flag = DEV_button4_pressed
					has_political_power < 20
					NOT = { has_country_flag = IRE_bill_in_progress }
				}
			}
			DEV_button4pressedtext_visible = {
				OR = {
					has_country_flag = DEV_button4_pressed
					has_political_power < 20
					NOT = { has_country_flag = IRE_bill_in_progress }
				}
			}
		}
		effects = {
			close_button_click = {
				if = {
					limit = { has_country_flag = DEV_Interactions_Open }
					clr_country_flag = DEV_Interactions_Open
				}
				else = { set_country_flag = DEV_Interactions_Open }
			}
			DEV_button1_click = {
				set_country_flag = { flag = DEV_button1_pressed value = 1 days = 14 }
				add_to_variable = { ARR_mog_tds_fry^2 = 3 }
				add_political_power = -30
				IRE_SE_MOG_tds_fry_calc = yes
			}
			DEV_button2_click = {
				set_country_flag = { flag = DEV_button2_pressed value = 1 days = 28 }
				add_to_variable = { ARR_mog_coo^2 = 0.4 }
				add_political_power = -15
				IRE_SE_MOG_coo_calc = yes
			}
			DEV_button3_click = {
				set_country_flag = { flag = DEV_button3_pressed value = 1 days = 28 }
				add_to_variable = { mog_pow_right = 3 }
				add_to_variable = { mog_pow_left = -3 }
				add_political_power = -10
				IRE_SE_MOG_pow_calc = yes
			}
			DEV_button4_click = {
				set_country_flag = { flag = DEV_button4_pressed value = 1 days = 28 }
				add_to_variable = { ARR_mog_tds_fry^2 = 4 }
				add_political_power = -20
				IRE_SE_MOG_tds_fry_calc = yes
				add_to_variable = { ARR_mog_coo^0 = -0.2 }
				add_to_variable = { ARR_mog_coo^1 = -0.2 }
				add_to_variable = { ARR_mog_coo^3 = -0.2 }
				IRE_SE_MOG_coo_calc = yes
			}
		}
		properties = {

		}
	}

	IRE_GUI_MOG_party_HAR = {
		context_type = player_context
		window_name = "HAR_Interactions_Menu"
		visible = {
			has_country_flag = HAR_Interactions_Open
		}
		triggers = {
			HAR_button1_visible = {
				NOT = { has_country_flag = HAR_button1_pressed }
				has_political_power > 29.99
				has_country_flag = IRE_bill_in_progress
			}
			HAR_button1pressed_visible = {
				OR = {
					has_country_flag = HAR_button1_pressed
					NOT = { has_country_flag = IRE_bill_in_progress }
					has_political_power < 30
				}
			}
			HAR_button1pressedtext_visible = {
				OR = {
					has_country_flag = HAR_button1_pressed
					NOT = { has_country_flag = IRE_bill_in_progress }
					has_political_power < 30
				}
			}

			HAR_button2_visible = {
				NOT = { has_country_flag = HAR_button2_pressed }
				has_political_power > 14.99
				has_country_flag = IRE_bill_in_progress
			}
			HAR_button2pressed_visible = {
				OR = {
					has_country_flag = HAR_button2_pressed
					NOT = { has_country_flag = IRE_bill_in_progress }
					has_political_power < 15
				}
			}
			HAR_button2pressedtext_visible = {
				OR = {
					has_country_flag = HAR_button2_pressed
					NOT = { has_country_flag = IRE_bill_in_progress }
					has_political_power < 15
				}
			}

			HAR_button3_visible = {
				NOT = { has_country_flag = HAR_button3_pressed }
				has_political_power > 9.99
				has_country_flag = IRE_bill_in_progress
			}
			HAR_button3pressed_visible = {
				OR = {
					has_country_flag = HAR_button3_pressed
					has_political_power < 10
					NOT = { has_country_flag = IRE_bill_in_progress }
				}
			}
			HAR_button3pressedtext_visible = {
				OR = {
					has_country_flag = HAR_button3_pressed
					has_political_power < 10
					NOT = { has_country_flag = IRE_bill_in_progress }
				}
			}

			HAR_button4_visible = {
				NOT = { has_country_flag = HAR_button4_pressed }
				has_political_power > 19.99
				has_country_flag = IRE_bill_in_progress
			}
			HAR_button4pressed_visible = {
				OR = {
					has_country_flag = HAR_button4_pressed
					has_political_power < 20
					NOT = { has_country_flag = IRE_bill_in_progress }
				}
			}
			HAR_button4pressedtext_visible = {
				OR = {
					has_country_flag = HAR_button4_pressed
					has_political_power < 20
					NOT = { has_country_flag = IRE_bill_in_progress }
				}
			}

		}
		effects = {
			close_button_click = {
				if = {
					limit = { has_country_flag = HAR_Interactions_Open }
					clr_country_flag = HAR_Interactions_Open
				}
				else = { set_country_flag = HAR_Interactions_Open }
			}
			HAR_button1_click = {
				set_country_flag = { flag = HAR_button1_pressed value = 1 days = 14 }
				add_to_variable = { ARR_mog_tds_fry^3 = 3 }
				add_political_power = -30
				IRE_SE_MOG_tds_fry_calc = yes
			}
			HAR_button2_click = {
				set_country_flag = { flag = HAR_button2_pressed value = 1 days = 28 }
				add_to_variable = { ARR_mog_coo^3 = 0.4 }
				add_political_power = -15
				IRE_SE_MOG_coo_calc = yes
			}
			HAR_button3_click = {
				set_country_flag = { flag = HAR_button3_pressed value = 1 days = 28 }
				add_to_variable = { mog_pow_right = 3 }
				add_to_variable = { mog_pow_left = -3 }
				add_political_power = -10
				IRE_SE_MOG_pow_calc = yes
			}
			HAR_button4_click = {
				set_country_flag = { flag = HAR_button4_pressed value = 1 days = 28 }
				add_to_variable = { ARR_mog_tds_fry^3 = 4 }
				add_political_power = -20
				IRE_SE_MOG_tds_fry_calc = yes
				random_list = {
					1 = {
						IRE_Increase_UVF_Power = yes
						IRE_Increase_UVF_Anger = yes
					}
					1 = {
						IRE_Increase_IRA_Power = yes
						IRE_Increase_IRA_Anger = yes
					}
					1 = {
						IRE_Increase_ICG_Power = yes
						IRE_Increase_ICG_Anger = yes
					}
				}
			}
		}
		properties = {

		}
	}

	IRE_GUI_AdWil = {
		context_type = decision_category
		window_name = "IRE_GUI_AdWil"
		visible = {
			has_country_leader = {
				character = IRE_Sean_Lemass 
				ruling_only = yes
			}
		}
		effects = {
			Region1_click = {
				if = {
					limit = {
						check_variable = { IRE.project_stage = 0}
					}
					set_variable = { IRE.IRE_GUI_AdWilstate = 1 } #ulster
				}

			}
			Region2_click = {
				if = {
					limit = {
						check_variable = { IRE.project_stage = 0}
					}
					set_variable = { IRE.IRE_GUI_AdWilstate = 2 } #dublin
				}
			}
			Region3_click = {
				if = {
					limit = {
						check_variable = { IRE.project_stage = 0}
					}
					set_variable = { IRE.IRE_GUI_AdWilstate = 3 } #derry
				}
			}
			Region4_click = {
				if = {
					limit = {
						check_variable = { IRE.project_stage = 0}
					}
					set_variable = { IRE.IRE_GUI_AdWilstate = 4 } #gallaway
				}
			}
			Region5_click = {
				if = {
					limit = {
						check_variable = { IRE.project_stage = 0}
					}
					set_variable = { IRE.IRE_GUI_AdWilstate = 5 } #cork
				}
			}
			Button1_click = { #extend
				IRE_SE_AdWil_GerTrust_minus_1 = yes
				IRE_SE_AdWil_AvFund_minus_1 = yes
				add_days_mission_timeout = {
					mission = IRE_adwil_infrastructure_missions
					days = 70
				}
				add_days_mission_timeout = {
					mission = IRE_adwil_schools_missions
					days = 100
				}
				add_days_mission_timeout = {
					mission = IRE_adwil_hospitals_mission
					days = 100
				}
				add_days_mission_timeout = {
					mission = IRE_adwil_offices_missions
					days = 100
				}
			}
			Button2_click = { #abandon
				set_variable = { IRE.abandoned_project = 1 }
				set_variable = { IRE.project_stage = 0}
				set_variable = { IRE.IRE_GUI_AdWilstate = 0} #no state chosen
				IRE_SE_AdWil_GerTrust_minus_10 = yes
				add_to_variable = { national_debt = 0.005} #already converted to billion
				custom_effect_tooltip = national_debt_add_tt
			}
			Button3_click = { #efficiency
				IRE_SE_AdWil_AvFund_minus_5 = yes
				add_timed_idea = {
					idea = IRE_AdWil_efficiency_hidden
					days = 50
				}
			}
			Button4_click = { #efficiency ++
				add_timed_idea = {
					idea = IRE_AdWil_efficiency_2_hidden
					days = 100
				}
				IRE_SE_AdWil_AvFund_minus_10 = yes
			}

		}
		triggers = {
			Button1_click_enabled = {
				NOT = {
					check_variable = { IRE.project_stage = 0 }
				}
				check_variable = { IRE.AdWilAvFund > 0.9 }
			}
			Button2_click_enabled = { 
				NOT = {
					check_variable = { IRE.project_stage = 0 }
				}
			}
			Button3_click_enabled = {
				check_variable = { IRE.AdWilAvFund > 4.99	}
				NOT = {
					has_idea = IRE_AdWil_efficiency_hidden
				}
            }
			Button4_click_enabled = {
				NOT = {
					has_idea = IRE_AdWil_efficiency_2_hidden
				}
				check_variable = { IRE.AdWilAvFund > 9.99	}
            }
		}
	}
	IRE_northern_ireland_gui = {
		window_name = "IRE_northern_ireland_container"
		context_type = decision_category

        effects = {
            IRE_NIC_btn_click = {
                set_variable = { IRE_northern_ireland_selected_tab = 1 }
            }
            IRE_paramilitaries_btn_click = {
                set_variable = { IRE_northern_ireland_selected_tab = 2 }
            }
        }			

        triggers = {
            IRE_paramilitaries_btn_click_enabled = {
				NOT = {
					has_country_flag = paramilitary_disabled
				}
                check_variable = { IRE_northern_ireland_selected_tab = 1 }
            }
			IRE_NIC_btn_click_enabled = {
				NOT = {
					has_country_flag = NIC_disabled
				}
                check_variable = { IRE_northern_ireland_selected_tab = 2 }
            }
        }

        
        properties = {
            IRE_sidebar = {
                image = "[Get_IRE_NI_sidebar]"
            }
        }
	}
}
