CHI_is_not_in_crisis = {
	custom_trigger_tooltip = {
		tooltip = CHI_not_in_crisis_tooltip
		NOT = {
			OR = {
				has_country_flag = CHI_Western_Insurrection_Warmup
				has_global_flag = CHI_Western_Insurrection_Crisis
				has_global_flag = CHI_Yunnan_War
				has_country_flag = CHI_Nanjing_Crisis
				has_country_flag = CHI_Oil_Crisis
				has_country_flag = ECON_ONGOING_FISCAL_CRISIS
			}
		}
	}
}

YUN_WI_map_state_controller_hostile = {
	check_variable = { WI_map_section = 1 }
	var:WI_state_id = {
		OR = {
			AND = {
				check_variable = { greater_china_states_group = 1 }
				check_variable = { greater_china_states_i = 1 }
			}
			AND = {
				OR = {
					check_variable = { greater_china_states_group = 2 }
					check_variable = { greater_china_states_group = 3 }
				}
				check_variable = { greater_china_states_i = 4 }
			}
			AND = {
				OR = {
					check_variable = { greater_china_states_group = 4 }
					check_variable = { greater_china_states_group = 6 }
				}
				check_variable = { greater_china_states_i = 2 }
			}
		}
	}
}

YUN_WI_big_map_state_controller_hostile = {
	THIS = {
		OR = {
			AND = {
				check_variable = { greater_china_states_group = 1 }
				check_variable = { greater_china_states_i = 1 }
			}
			AND = {
				OR = {
					check_variable = { greater_china_states_group = 2 }
					check_variable = { greater_china_states_group = 3 }
				}
				check_variable = { greater_china_states_i = 4 }
			}
			AND = {
				OR = {
					check_variable = { greater_china_states_group = 4 }
					check_variable = { greater_china_states_group = 6 }
				}
				check_variable = { greater_china_states_i = 2 }
			}
		}
	}
}

YUN_WI_map_state_info_hostile = {
	has_variable = china_acted_region
	var:china_acted_state = {
		OR = {
			AND = {
				check_variable = { greater_china_states_group = 1 }
				check_variable = { greater_china_states_i = 1 }
			}
			AND = {
				OR = {
					check_variable = { greater_china_states_group = 2 }
					check_variable = { greater_china_states_group = 3 }
				}
				check_variable = { greater_china_states_i = 4 }
			}
			AND = {
				OR = {
					check_variable = { greater_china_states_group = 4 }
					check_variable = { greater_china_states_group = 6 }
				}
				check_variable = { greater_china_states_i = 2 }
			}
		}
	}
}

YUN_WI_big_map_state_info_hostile = {
	THIS = {
		OR = {
			AND = {
				check_variable = { greater_china_states_group = 1 }
				check_variable = { greater_china_states_i = 1 }
			}
			AND = {
				OR = {
					check_variable = { greater_china_states_group = 2 }
					check_variable = { greater_china_states_group = 3 }
				}
				check_variable = { greater_china_states_i = 4 }
			}
			AND = {
				OR = {
					check_variable = { greater_china_states_group = 4 }
					check_variable = { greater_china_states_group = 6 }
				}
				check_variable = { greater_china_states_i = 2 }
			}
		}
	}
}

YUN_WI_map_state_controller_neutral = {
	check_variable = { WI_map_section = 1 }
	var:WI_state_id = {
		OR = {
			AND = {
				OR = {
					check_variable = { greater_china_states_group = 2 }
					check_variable = { greater_china_states_group = 3 }
				}
				check_variable = { greater_china_states_i = 3 }
			}
			AND = {
				check_variable = { greater_china_states_group = 5 }
				check_variable = { greater_china_states_i = 2 }
			}
		}
	}
}

YUN_WI_big_map_state_controller_neutral = {
	THIS = {
		OR = {
			AND = {
				OR = {
					check_variable = { greater_china_states_group = 2 }
					check_variable = { greater_china_states_group = 3 }
				}
				check_variable = { greater_china_states_i = 3 }
			}
			AND = {
				check_variable = { greater_china_states_group = 5 }
				check_variable = { greater_china_states_i = 2 }
			}
		}
	}
}

YUN_WI_map_state_info_neutral = {
	has_variable = china_acted_region
	var:china_acted_state = {
		OR = {
			AND = {
				OR = {
					check_variable = { greater_china_states_group = 2 }
					check_variable = { greater_china_states_group = 3 }
				}
				check_variable = { greater_china_states_i = 3 }
			}
			AND = {
				check_variable = { greater_china_states_group = 5 }
				check_variable = { greater_china_states_i = 2 }
			}
		}
	}
}

YUN_WI_big_map_state_info_neutral = {
	THIS = {
		OR = {
			AND = {
				OR = {
					check_variable = { greater_china_states_group = 2 }
					check_variable = { greater_china_states_group = 3 }
				}
				check_variable = { greater_china_states_i = 3 }
			}
			AND = {
				check_variable = { greater_china_states_group = 5 }
				check_variable = { greater_china_states_i = 2 }
			}
		}
	}
}

YUN_WI_map_state_controller_friendly = {
	check_variable = { WI_map_section = 1 }
	var:WI_state_id = {
		AND = {
			OR = {
				check_variable = { greater_china_states_group = 1 }
				check_variable = { greater_china_states_group = 2 }
				check_variable = { greater_china_states_group = 3 }
			}
			check_variable = { greater_china_states_i = 2 }
		}
	}
}

YUN_WI_big_map_state_controller_friendly = {
	THIS = {
		AND = {
			OR = {
				check_variable = { greater_china_states_group = 1 }
				check_variable = { greater_china_states_group = 2 }
				check_variable = { greater_china_states_group = 3 }
			}
			check_variable = { greater_china_states_i = 2 }
		}
	}
}

YUN_WI_map_state_info_friendly = {
	has_variable = china_acted_region
	var:china_acted_state = {
		AND = {
			OR = {
				check_variable = { greater_china_states_group = 1 }
				check_variable = { greater_china_states_group = 2 }
				check_variable = { greater_china_states_group = 3 }
			}
			check_variable = { greater_china_states_i = 2 }
		}
	}
}

YUN_WI_big_map_state_info_friendly = {
	THIS = {
		AND = {
			OR = {
				check_variable = { greater_china_states_group = 1 }
				check_variable = { greater_china_states_group = 2 }
				check_variable = { greater_china_states_group = 3 }
			}
			check_variable = { greater_china_states_i = 2 }
		}
	}
}

YUN_WI_map_state_controller_integrated = {
	check_variable = { WI_map_section = 1 }
	var:WI_state_id = {
		OR = {
			AND = {
				check_variable = { greater_china_states_group = 1 }
				check_variable = { greater_china_states_i = 3 }
			}
			AND = {
				OR = {
					check_variable = { greater_china_states_group = 2 }
					check_variable = { greater_china_states_group = 3 }
				}
				check_variable = { greater_china_states_i = 1 }
			}
			AND = {
				OR = {
					check_variable = { greater_china_states_group = 4 }
					check_variable = { greater_china_states_group = 5 }
					check_variable = { greater_china_states_group = 6 }
				}
				check_variable = { greater_china_states_i = 1 }
			}
		}
	}
}

YUN_WI_big_map_state_controller_integrated = {
	THIS = {
		OR = {
			AND = {
				check_variable = { greater_china_states_group = 1 }
				check_variable = { greater_china_states_i = 3 }
			}
			AND = {
				OR = {
					check_variable = { greater_china_states_group = 2 }
					check_variable = { greater_china_states_group = 3 }
				}
				check_variable = { greater_china_states_i = 1 }
			}
			AND = {
				OR = {
					check_variable = { greater_china_states_group = 4 }
					check_variable = { greater_china_states_group = 5 }
					check_variable = { greater_china_states_group = 6 }
				}
				check_variable = { greater_china_states_i = 1 }
			}
		}
	}
}

YUN_WI_map_state_info_integrated = {
	has_variable = china_acted_region
	var:china_acted_state = {
		OR = {
			AND = {
				check_variable = { greater_china_states_group = 1 }
				check_variable = { greater_china_states_i = 3 }
			}
			AND = {
				OR = {
					check_variable = { greater_china_states_group = 2 }
					check_variable = { greater_china_states_group = 3 }
				}
				check_variable = { greater_china_states_i = 1 }
			}
			AND = {
				OR = {
					check_variable = { greater_china_states_group = 4 }
					check_variable = { greater_china_states_group = 5 }
					check_variable = { greater_china_states_group = 6 }
				}
				check_variable = { greater_china_states_i = 1 }
			}
		}
	}
}

YUN_WI_big_map_state_info_integrated = {
	THIS = {
		OR = {
			AND = {
				check_variable = { greater_china_states_group = 1 }
				check_variable = { greater_china_states_i = 3 }
			}
			AND = {
				OR = {
					check_variable = { greater_china_states_group = 2 }
					check_variable = { greater_china_states_group = 3 }
				}
				check_variable = { greater_china_states_i = 1 }
			}
			AND = {
				OR = {
					check_variable = { greater_china_states_group = 4 }
					check_variable = { greater_china_states_group = 5 }
					check_variable = { greater_china_states_group = 6 }
				}
				check_variable = { greater_china_states_i = 1 }
			}
		}
	}
}

YUN_WI_map_state_supply_terrible = {
	check_variable = { WI_map_section = 2 }
	var:WI_state_id = {
		AND = {
			controller = { original_tag = YUN }
			check_variable = { YUN_state_officer_percentage < 50 }
		}
	}
}

YUN_WI_map_state_supply_info_terrible = {
	has_variable = china_acted_region
	var:china_acted_state = {
		AND = {
			controller = { original_tag = YUN }
			check_variable = { YUN_state_officer_percentage < 50 }
		}
	}
}

YUN_WI_map_state_supply_mediocre = {
	check_variable = { WI_map_section = 2 }
	var:WI_state_id = {
		AND = {
			controller = { original_tag = YUN }
			check_variable = {
				var = YUN_state_officer_percentage
				value = 50
				compare = greater_than_or_equals
			}
			check_variable = { YUN_state_officer_percentage < 70 }
		}
	}
}

YUN_WI_map_state_supply_info_mediocre = {
	has_variable = china_acted_region
	var:china_acted_state = {
		AND = {
			controller = { original_tag = YUN }
			check_variable = {
				var = YUN_state_officer_percentage
				value = 50
				compare = greater_than_or_equals
			}
			check_variable = { YUN_state_officer_percentage < 70 }
		}
	}
}

YUN_WI_map_state_supply_good = {
	check_variable = { WI_map_section = 2 }
	var:WI_state_id = {
		AND = {
			controller = { original_tag = YUN }
			check_variable = {
				var = YUN_state_officer_percentage
				value = 70
				compare = greater_than_or_equals
			}
			check_variable = { YUN_state_officer_percentage < 90 }
		}
	}
}

YUN_WI_map_state_supply_info_good = {
	has_variable = china_acted_region
	var:china_acted_state = {
		AND = {
			controller = { original_tag = YUN }
			check_variable = {
				var = YUN_state_officer_percentage
				value = 50
				compare = greater_than_or_equals
			}
			check_variable = { YUN_state_officer_percentage < 90 }
		}
	}
}

YUN_WI_map_state_supply_excellent = {
	check_variable = { WI_map_section = 2 }
	var:WI_state_id = {
		AND = {
			controller = { original_tag = YUN }
			check_variable = {
				var = YUN_state_officer_percentage
				value = 90
				compare = greater_than_or_equals
			}
		}
	}
}

YUN_WI_map_state_supply_info_excellent = {
	has_variable = china_acted_region
	var:china_acted_state = {
		AND = {
			controller = { original_tag = YUN }
			check_variable = {
				var = YUN_state_officer_percentage
				value = 90
				compare = greater_than_or_equals
			}
		}
	}
}

YUN_WI_map_state_supply_unknown = {
	check_variable = { WI_map_section = 2 }
	var:WI_state_id = {
		NOT = { controller = { original_tag = YUN } }
	}
}

YUN_WI_map_state_supply_info_unknown = {
	has_variable = china_acted_region
	var:china_acted_state = {
		NOT = { controller = { original_tag = YUN } }
	}
}

YUN_WI_map_enable_action = {
	if = {
		limit = { check_variable = { china_states_action_id = 0 } }
		AND = {
			custom_trigger_tooltip = {
				tooltip = YUN_WI_action_1_tooltip
				THIS = {
					NOT = { has_state_flag = WI_recruit_cooldown }
				}
			}
			YUN = { has_equipment = { infantry_equipment > PREV.WI_state_mil_level_infeq_cost } }
			YUN = { has_political_power > PREV.WI_state_mil_level_pp }
			YUN = { NOT = { has_country_flag = ECON_ONGOING_FISCAL_CRISIS } }
		}
	}
	else_if = {
		limit = { check_variable = { china_states_action_id = 1 } }
		AND = {
			custom_trigger_tooltip = {
				tooltip = YUN_WI_action_2_tooltip
				THIS = {
					NOT = { has_state_flag = WI_confiscate_cooldown }
				}
			}
			YUN = { command_power > PREV.WI_state_mil_level_cp }
			YUN = { NOT = { has_country_flag = ECON_ONGOING_FISCAL_CRISIS } }
		}
	}

	else_if = {
		limit = { check_variable = { china_states_action_id = 2 } }
		AND = {
			custom_trigger_tooltip = {
				tooltip = YUN_WI_action_3_tooltip
				THIS = {
					NOT = { has_state_flag = WI_mil_build_cooldown }
				}
			}
			YUN = { NOT = { has_country_flag = ECON_ONGOING_FISCAL_CRISIS } }
		}
	}

	else_if = {
		limit = { check_variable = { china_states_action_id = 3 } }
		AND = {
			custom_trigger_tooltip = {
				tooltip = YUN_WI_action_4_tooltip
				THIS = {
					NOT = { has_state_flag = WI_power_build_cooldown }
				}
			}
			YUN = { NOT = { has_country_flag = ECON_ONGOING_FISCAL_CRISIS } }
		}
	}	
	
	else_if = {
		limit = { check_variable = { china_states_action_id = 4 } }
		AND = {
			custom_trigger_tooltip = {
				tooltip = YUN_WI_action_5_tooltip
				THIS = {
					NOT = { has_state_flag = WI_propaganda_cooldown }
				}
			}
			YUN = { NOT = { has_country_flag = ECON_ONGOING_FISCAL_CRISIS } }
		}
	}
}

YUN_WI_map_enable_action_GUI = {
	if = {
		limit = { check_variable = { china_states_action_id = 0 } }
		AND = {
			custom_trigger_tooltip = {
				tooltip = YUN_WI_action_1_tooltip
				var:china_acted_state = {
					NOT = { has_state_flag = WI_recruit_cooldown }
				}
			}
			YUN = { has_equipment = { infantry_equipment > china_acted_state:WI_state_mil_level_infeq_cost } }
			YUN = { has_political_power > china_acted_state:WI_state_mil_level_pp }
		}
	}
	else_if = {
		limit = { check_variable = { china_states_action_id = 1 } }
		AND = {
			custom_trigger_tooltip = {
				tooltip = YUN_WI_action_2_tooltip
				var:china_acted_state = {
					NOT = { has_state_flag = WI_confiscate_cooldown }
				}
			}
			YUN = { command_power > china_acted_state:WI_state_mil_level_cp }
		}
	}

	else_if = {
		limit = { check_variable = { china_states_action_id = 2 } }
		AND = {
			custom_trigger_tooltip = {
				tooltip = YUN_WI_action_3_tooltip
				var:china_acted_state = {
					NOT = { has_state_flag = WI_mil_build_cooldown }
				}
			}
		}
	}

	else_if = {
		limit = { check_variable = { china_states_action_id = 3 } }
		AND = {
			custom_trigger_tooltip = {
				tooltip = YUN_WI_action_4_tooltip
				var:china_acted_state = {
					NOT = { has_state_flag = WI_power_build_cooldown }
				}
			}
		}
	}	
	
	else_if = {
		limit = { check_variable = { china_states_action_id = 4 } }
		AND = {
			custom_trigger_tooltip = {
				tooltip = YUN_WI_action_5_tooltip
				var:china_acted_state = {
					NOT = { has_state_flag = WI_propaganda_cooldown }
				}
			}
		}
	}
}

Sichuan_help_ai = {
	has_equipment = { infantry_equipment > var:WI_Sichuan_invest_weapon }
}

#CHI_can_increase_infiltration_in_state = {
#	custom_trigger_tooltip = {
#		tooltip = CHI_can_be_infiltrated
#		OR = {
#			NOT = { has_state_flag = CHI_infiltration_@ROOT }
#			has_state_flag = {
#				flag = CHI_infiltration_@ROOT
#				value < 4
#			}
#		}
#	}
#}
#
#CHI_uprising_is_available = {
#	custom_trigger_tooltip = {
#		tooltip = CHI_uprising_is_available
#		any_state = {
#			CONTROLLER = {
#				OR = {
#					tag = JAP
#					is_in_faction_with = JAP
#				}
#			}
#			CHI_is_infiltrated_by_PREV = yes
#		}
#	}
#}
#
#CHI_is_infiltrated_by_PREV = {
#	has_state_flag = {
#		flag = CHI_infiltration_@PREV
#		value > 0
#	}
#}
#
#CHI_is_not_infiltrating_a_state = {
#	custom_trigger_tooltip = {
#		tooltip = CHI_is_not_infiltrating_a_state
#		NOT = {
#			#Anti Japan
#			has_decision = CHI_infiltrate_shanghai
#			#add more
#		}
#	}
#}

#Trigger checks for a flag on the state, dynamically appending the country tag of one of china countries
#has_any_CHI_infiltration_flag = {
#	any_country = {
#		PREV = {
#			has_state_flag = CHI_infiltration_@PREV
#		}
#	}
#}
#
#ROOT_any_anti_JAP_state_infiltration_detected = {
#	any_state = {
#		OR = {
#			is_controlled_by = ROOT
#			any_of = {
#				array = subjects
#				is_controlled_by = var:v
#			}
#		}
#		has_state_flag = {
#			flag = discovered_infiltration
#			value > 0
#		}
#	}
#}
#
##State scope
#CHI_infiltration_uprising_PREV_will_spawn_troops_in_state = {
#	has_state_flag = {
#		flag = CHI_infiltration_@PREV
#		value > 2
#	}
#}
#
##State scope
#CHI_infiltration_uprising_PREV_will_sabotage_state = {
#	OR = {
#		has_state_flag = {
#			flag = CHI_infiltration_@PREV
#			value = 1
#		}
#		has_state_flag = {
#			flag = CHI_infiltration_@PREV
#			value = 2
#		}
#	}
#}
#
##Country scope
#CHI_ROOT_war_with_controller_of_anti_japan_infiltrated_state = {
#	OR = {
#		813 = { CHI_is_infiltrated_by_PREV = yes CONTROLLER = { has_war_with = ROOT } }
#	}
#	OR = {
#		728 = { CHI_is_infiltrated_by_PREV = yes CONTROLLER = { has_war_with = ROOT } }
#	}
#	OR = {
#		591 = { CHI_is_infiltrated_by_PREV = yes CONTROLLER = { has_war_with = ROOT } }
#	}
#	OR = {
#		524 = { CHI_is_infiltrated_by_PREV = yes CONTROLLER = { has_war_with = ROOT } }
#	}
#	OR = {
#		813 = { CHI_is_infiltrated_by_PREV = yes CONTROLLER = { has_war_with = ROOT } }
#	}
#	OR = {
#		812 = { CHI_is_infiltrated_by_PREV = yes CONTROLLER = { has_war_with = ROOT } }
#	}
#	OR = {
#		1094 = { CHI_is_infiltrated_by_PREV = yes CONTROLLER = { has_war_with = ROOT } }
#	}
#	OR = {
#		811 = { CHI_is_infiltrated_by_PREV = yes CONTROLLER = { has_war_with = ROOT } }
#	}
#	OR = {
#		810 = { CHI_is_infiltrated_by_PREV = yes CONTROLLER = { has_war_with = ROOT } }
#	}
#}
#
##Country scope
#CHI_all_anti_japan_infiltration_discovered = {
#	813 = {
#		has_state_flag = discovered_infiltration
#		CHI_is_infiltrated_by_PREV = yes
#	}
#	728 = {
#		has_state_flag = discovered_infiltration
#		CHI_is_infiltrated_by_PREV = yes
#	}
#	591 = {
#		has_state_flag = discovered_infiltration
#		CHI_is_infiltrated_by_PREV = yes
#	}
#	524 = {
#		has_state_flag = discovered_infiltration
#		CHI_is_infiltrated_by_PREV = yes
#	}
#	812 = {
#		has_state_flag = discovered_infiltration
#		CHI_is_infiltrated_by_PREV = yes
#	}
#	1094 = {
#		has_state_flag = discovered_infiltration
#		CHI_is_infiltrated_by_PREV = yes
#	}
#	811 = {
#		has_state_flag = discovered_infiltration
#		CHI_is_infiltrated_by_PREV = yes
#	}
#	810 = {
#		has_state_flag = discovered_infiltration
#		CHI_is_infiltrated_by_PREV = yes
#	}
#
#}


target_trigger_warlord_decisions = {
	FROM = {
		OR = {
			original_tag = SHX
			original_tag = GAN
			original_tag = XIN
			original_tag = ETR
			original_tag = QIN
			original_tag = SIC
			original_tag = XIK
			original_tag = GUZ
			original_tag = GUX
			original_tag = GNG
			original_tag = MEN
			original_tag = YUN
		}
	}
}


## Secret Army

CHI_has_set_recruitment_level = {
	custom_trigger_tooltip = {
		tooltip = CHI_has_set_recruitment_level_tt
		check_variable = {
			var = CHI_sa_recruitment
			value = tempReqRecruitment
			compare = greater_than_or_equals
		}
	}
}

CHI_has_set_training_level = {
	custom_trigger_tooltip = {
		tooltip = CHI_has_set_training_level_tt
		check_variable = {
			var = CHI_sa_training
			value = tempReqTraining
			compare = greater_than_or_equals
		}
	}
}

CHI_has_set_weaponry_level = {
	custom_trigger_tooltip = {
		tooltip = CHI_has_set_weaponry_level_tt
		check_variable = {
			var = CHI_sa_weaponry
			value = tempReqWeaponry
			compare = greater_than_or_equals
		}
	}
}