every_possible_country = {
	#generate_character = {
	#	token_base = Generic_Vacant # token will be TAG_token_base
    #    advisor = {
    #        slot = head_of_government
    #        traits = { head_of_government }
    #        idea_token = hog
    #        ledger = civilian
    #        cost = -1
    #        removal_cost = -1
    #        allowed = { always = yes }
    #        ai_will_do = { factor = 0 }
    #    }
    #    advisor = {
    #        slot = economy_minister
    #        traits = { economy_minister }
    #        idea_token = eco
    #        ledger = civilian
    #        cost = -1
    #        removal_cost = -1
    #        allowed = { always = yes }
    #        ai_will_do = { factor = 0 }
    #    }
    #    advisor = {
    #        slot = foreign_minister
    #        traits = { foreign_minister }
    #        idea_token = for
    #        ledger = civilian
    #        cost = -1
    #        removal_cost = -1
    #        allowed = { always = yes }
    #        ai_will_do = { factor = 0 }
    #    }
    #    advisor = {
    #        slot = security_minister
    #        traits = { security_minister }
    #        idea_token = sec
    #        ledger = civilian
    #        cost = -1
    #        removal_cost = -1
    #        allowed = { always = yes }
    #        ai_will_do = { factor = 0 }
    #    }
	#	portraits = { 
	#		civilian = { small = "GFX_idea_Generic_Position_Vacant" }
	#	}
	#}
}

every_possible_country = {
    limit = {
        OR = {
            tag = TMA
            tag = TMB
            tag = TMC
            tag = TMD
            tag = TME
            tag = TMF
            tag = TMG
            tag = TMH
            tag = TMI
            tag = TMJ
            tag = TMK
            tag = TML
            tag = TMM
            tag = TMN
            tag = TMO
            tag = TMP
            tag = TMQ
            tag = TMR
            tag = TMS
            tag = TMT
            tag = TMU
            tag = TMV
            tag = TMW
            tag = TMX
            tag = TMY
            tag = VIL
            tag = KOM
        }
    }	
    generate_character = {
		token_base = AM_Empty # token will be TAG_token_base
        advisor = {
            slot = head_of_government
            traits = { head_of_government }
            idea_token = hog
            ledger = civilian
            cost = -1
            removal_cost = -1
            allowed = { always = yes }
            ai_will_do = { factor = 0 }
        }
        advisor = {
            slot = economy_minister
            traits = { economy_minister }
            idea_token = eco
            ledger = civilian
            cost = -1
            removal_cost = -1
            allowed = { always = yes }
            ai_will_do = { factor = 0 }
        }
        advisor = {
            slot = foreign_minister
            traits = { foreign_minister }
            idea_token = for
            ledger = civilian
            cost = -1
            removal_cost = -1
            allowed = { always = yes }
            ai_will_do = { factor = 0 }
        }
        advisor = {
            slot = security_minister
            traits = { security_minister }
            idea_token = sec
            ledger = civilian
            cost = -1
            removal_cost = -1
            allowed = { always = yes }
            ai_will_do = { factor = 0 }
        }
		portraits = { 
			civilian = { small = "GFX_idea_Generic_Position_Vacant" }
		}
	}
}