﻿############################
## Cameroon Events
############################

add_namespace = CAO
add_namespace = CAOnews
#Dunno what this is
country_event = { #annexing land yeet
	id = CAO.20
	immediate = {log = "[GetDateText]: [Root.GetName]: event CAO.20"}
	title = CAO.20.t
	desc = CAO.20.desc
	picture = GFX_report_event_ostsonne

	is_triggered_only = yes
	fire_only_once = yes

	option = {
		name = CAO.20.a
		CAO = {
			1203 = {
				set_demilitarized_zone = no
				add_building_construction = {
					type = infrastructure
					level = 1
					instant_build = yes
				}
			}
			1202 = {
				set_demilitarized_zone = no
				add_building_construction = {
					type = infrastructure
					level = 1
					instant_build = yes
				}
			}
			1201 = {
				set_demilitarized_zone = no
				add_building_construction = {
					type = infrastructure
					level = 1
					instant_build = yes
				}
			}
			1196 = {
				set_demilitarized_zone = no
				add_building_construction = {
					type = infrastructure
					level = 1
					instant_build = yes
				}
			}
			826 = {
				set_demilitarized_zone = no
				add_building_construction = {
					type = infrastructure
					level = 1
					instant_build = yes
				}
			}
			1197 = {
				set_demilitarized_zone = no
				add_building_construction = {
					type = infrastructure
					level = 1
					instant_build = yes
				}
			}
			1198 = {
				set_demilitarized_zone = no
				add_building_construction = {
					type = infrastructure
					level = 1
					instant_build = yes
				}
			}
			1200 = {
				set_demilitarized_zone = no
				add_building_construction = {
					type = infrastructure
					level = 1
					instant_build = yes
				}
			}
			1207 = {
				set_demilitarized_zone = no
				add_building_construction = {
					type = infrastructure
					level = 1
					instant_build = yes
				}
			}
			1205 = {
				set_demilitarized_zone = no
				add_building_construction = {
					type = infrastructure
					level = 1
					instant_build = yes
				}
			}
			1206 = {
				set_demilitarized_zone = no
				add_building_construction = {
					type = infrastructure
					level = 1
					instant_build = yes
				}
			}
			1199 = {
				set_demilitarized_zone = no
				add_building_construction = {
					type = infrastructure
					level = 1
					instant_build = yes
				}
			}
			1204 = {
				set_demilitarized_zone = no
				add_building_construction = {
					type = infrastructure
					level = 1
					instant_build = yes
				}
			}
			1189 = {
				set_demilitarized_zone = no
				add_building_construction = {
					type = infrastructure
					level = 1
					instant_build = yes
				}
			}
			558 = {
				set_demilitarized_zone = no
				add_building_construction = {
					type = infrastructure
					level = 1
					instant_build = yes
				}
			}
		}
	}
}

### Intro event

country_event = { #intro lore
	id = CAO.1
	immediate = {log = "[GetDateText]: [Root.GetName]: event CAO.1"}
	title = CAO.1.t
	desc = CAO.1.desc
	picture = GFX_report_event_african_rebels

	is_triggered_only = yes
	fire_only_once = yes

	option = {
		name = CAO.1.a

		country_event = {
			id = CAO.2
			hours = 1
		}
	}
}

country_event = { #intro lore part 2
	id = CAO.2
	immediate = {log = "[GetDateText]: [Root.GetName]: event CAO.2"}
	title = CAO.2.t
	desc = CAO.2.desc
	picture = GFX_report_event_african_rebels
	is_triggered_only = yes
	option = {
		name = CAO.2.a
		set_country_flag = CAO_ECON
		# load_focus_tree = Cameroon_econ
	}

}

country_event = { #Oil event
	id = CAO.3
	immediate = {log = "[GetDateText]: [Root.GetName]: event CAO.3"}
	title = CAO.3.t
	desc = CAO.3.desc
	picture = GFX_report_event_african_rebels
	is_triggered_only = yes
	option = {
		name = CAO.3.a
		random_list = {
			90 = {
				country_event = CAO.4
			}
			10 = {
				country_event = CAO.5
			}
		}
	}

}

country_event = { #No oil :(
	id = CAO.4
	immediate = {log = "[GetDateText]: [Root.GetName]: event CAO.4"}
	title = CAO.4.t
	desc = CAO.4.desc
	picture = GFX_report_event_african_rebels
	is_triggered_only = yes
	option = {
		name = CAO.4.a
	}
}
country_event = { #THICC OIL
	id = CAO.5
	immediate = {log = "[GetDateText]: [Root.GetName]: event CAO.5"}
	title = CAO.5.t
	desc = CAO.5.desc
	picture = GFX_report_event_african_rebels
	is_triggered_only = yes
	option = {
		name = CAO.5.a
		add_resource = {
			type = oil
			amount = 33
			state = 793
		}
	}
}

### TEST LOAD MIL TREE
country_event = { #THICC OIL
	id = CAO.6
	immediate = {log = "[GetDateText]: [Root.GetName]: event CAO.6"}
	title = CAO.6.t
	desc = CAO.6.desc
	picture = GFX_report_event_african_rebels
	is_triggered_only = yes
	option = {
		name = CAO.6.a
		set_country_flag = milreform
		# load_focus_tree = Cameroon_milreform
	}
}



########################################
##### CAO 100 Civil War Collapse  ######
########################################



country_event = { #CAO Collapse
	id = CAO.100
	immediate = {log = "[GetDateText]: [Root.GetName]: event CAO.100"}
	title = CAO.100.t
	desc = CAO.100.desc
	picture = GFX_report_event_african_rebels
	is_triggered_only = yes
	#fire_only_once = yes

	option = {
		name = CAO.100.a

		set_global_flag = global_cameroon_has_collapsed
		remove_ideas = {
			CAO_idea_tense_borders
		}
		add_popularity = {
			ideology = socialist
			popularity = -0.2
		}
		add_popularity = {
			ideology = fascism
			popularity = 0.15
		}
		set_politics = { ruling_party = fascism }
		promote_character = CAO_ahmadou_ahidjo
		set_temp_variable = { TNO_economy_type_temp = 2 }
		econ_type_change = yes

		BFR = {
			add_state_core = 1187
			transfer_state = 1187
			load_oob = "BFR_collapse"
			TNO_startup_nation = yes
		}

		CHD = {
			add_state_core = 660
			add_state_core = 1202
			add_state_core = 1203
			add_state_core = 1204
			add_state_core = 1205
			add_state_core = 1206
			add_state_core = 1207
			add_state_claim = 1200
			add_state_claim = 1201
			transfer_state = 660
			transfer_state = 1202
			transfer_state = 1203
			transfer_state = 1204
			transfer_state = 1205
			transfer_state = 1206
			transfer_state = 1207
			load_oob = "CHD_collapse"

			TNO_startup_nation = yes
			country_event = {
				id = A_SPRING.11
				days = 2
			}
		}

		NNG = {
			add_state_core = 1189
			add_state_core = 558
			transfer_state = 1189
			transfer_state = 558
			load_oob = "NNG_collapse"

			TNO_startup_nation = yes
		}

		NGA = {
			add_state_core = 826
			add_state_core = 1197
			add_state_claim = 1198
			add_state_claim = 1199
			transfer_state = 826
			transfer_state = 1197
			load_oob = "NGA_collapse"

			TNO_startup_nation = yes
		}

		if = { # Scenario 3
			limit = { country_exists = HAU }
			HAU = {
				declare_war_on = {
					target = ZAR
					type = annex_everything
				}
				set_country_flag = HAU_invaded
				country_event = {
					id = CAO.104
					days = 134
				}
			}			
		}
		else = {
			NNG = {
				country_event = {
					id = CAO.103
					days = 2
				}
			}
		}

		load_oob = "CAO_collapse"
		declare_war_on = { target = BFR type = annex_everything }
		declare_war_on = { target = CHD type = annex_everything }
		declare_war_on = { target = NNG type = annex_everything }
		declare_war_on = { target = NGA type = annex_everything }
		declare_war_on = { target = YOR type = annex_everything }
		NNG = { declare_war_on = { target = BFR type = annex_everything } }
		NGA = {
			declare_war_on = { target = BFR type = annex_everything }
			declare_war_on = { target = NNG type = annex_everything }
		}
		if = {
			limit = { country_exists = YOR }
			YOR = {
				declare_war_on = { target = NGA type = annex_everything }
				declare_war_on = { target = BFR type = annex_everything }
				declare_war_on = { target = NNG type = annex_everything }
			}
		}

		hidden_effect = {
			every_country = {
				limit = { is_ai = no }
				news_event = {
					id = CAOnews.1
				}
			}
		}
	}
}

country_event = { # CAO victory (collapse)
	id = CAO.101
	immediate = {log = "[GetDateText]: [Root.GetName]: event CAO.101"}
	title = CAO.101.t
	desc = CAO.101.desc
	picture = GFX_report_event_african_rebels
	is_triggered_only = yes
	#fire_only_once = yes

	option = {
		name = CAO.101.a
		set_global_flag = global_cameroon_survived_collapse
		add_popularity = {
			ideology = socialist
			popularity = -0.2
		}
		add_popularity = {
			ideology = fascism
			popularity = 0.15
		}
		if = {
			limit = {
				country_exists = HAU
				OR = {
					HAU = { has_country_flag = HAU_revolted }
					HAU = { owns_state = 1189 }
				}
			}
			CAO = {
				declare_war_on = { target = HAU type = annex_everything }
				country_event = {
					id = CAO.104
					days = 90
				}
			}
		}
	}
}

country_event = { # CAO defeat (collapse)
	id = CAO.102
	immediate = {log = "[GetDateText]: [Root.GetName]: event CAO.102"}
	title = CAO.102.t
	desc = CAO.102.desc
	picture = GFX_report_event_african_rebels
	is_triggered_only = yes
	#fire_only_once = yes

	option = {
		name = CAO.102.a
		if = {
			limit = { country_exists = NGA }
			NGA = {
				add_state_core = 1198
				add_state_core = 1199
				transfer_state = 1198
				transfer_state = 1199
				if = {
					limit = {
						NOT = {
							OR = {
								BFR = { owns_state = 1187 }
								NNG = { owns_state = 1187 }
								YOR = { owns_state = 1187 }
							}
						}
					}
					add_state_core = 1187
					transfer_state = 1187
				}
				if = {
					limit = {
						NOT = {
							country_exists = NNG
							HAU = {
								owns_state = 1189
								owns_state = 558
							}
						}
					}
					add_state_core = 1189
					add_state_core = 558
					transfer_state = 1189
					transfer_state = 558
				}
				if = {
					limit = {
						NOT = {
							country_exists = YOR
							NNG = {
								owns_state = 1188
								owns_state = 825
							}
						}
					}
					add_state_core = 1188
					add_state_core = 825
					transfer_state = 1188
					transfer_state = 825
				}
			}
		}
		else_if = {
			limit = { country_exists = NNG }
			NNG = {
				add_state_core = 1198
				add_state_core = 1199
				transfer_state = 1198
				transfer_state = 1199
				if = {
					limit = {
						NOT = {
							BFR = { owns_state = 1187 }
							YOR = { owns_state = 1187 }
							NGA = { owns_state = 1187 }
						}
					}
					add_state_core = 1187
					transfer_state = 1187
				}
				if = {
					limit = {
						NOT = {
							HAU = {
								owns_state = 1189
								owns_state = 558
							}
						}
					}
					add_state_core = 1189
					add_state_core = 558
					transfer_state = 1189
					transfer_state = 558
				}
				if = {
					limit = {
						NOT = {
							country_exists = YOR
							NGA = {
								owns_state = 1188
								owns_state = 825
							}
						}
					}
					add_state_core = 1188
					add_state_core = 825
					transfer_state = 1188
					transfer_state = 825
				}
				if = {
					limit = {
						NOT = {
							country_exists = NGA
							YOR = {
								owns_state = 1197
								owns_state = 826
							}
						}
					}
					add_state_core = 1197
					add_state_core = 826
					transfer_state = 1197
					transfer_state = 826
				}
				if = {
					limit = {
						NOT = {
							OR = {
								country_exists = NGA
								country_exists = YOR
							}
						}
					}
					set_cosmetic_tag = NNG_unified
				}
			}
		}
		else_if = {
			limit = { country_exists = YOR }
			YOR = {
				add_state_core = 1198
				add_state_core = 1199
				transfer_state = 1198
				transfer_state = 1199
				if = {
					limit = {
						NOT = {
							BFR = { owns_state = 1187 }
							NNG = { owns_state = 1187 }
							NGA = { owns_state = 1187 }
						}
					}
					add_state_core = 1187
					transfer_state = 1187
				}
				if = {
					limit = {
						NOT = {
							country_exists = NNG
							HAU = {
								owns_state = 1189
								owns_state = 558
							}
						}
					}
					add_state_core = 1189
					add_state_core = 558
					transfer_state = 1189
					transfer_state = 558
				}
				if = {
					limit = {
						NOT = {
							country_exists = NGA
							NNG = {
								owns_state = 1197
								owns_state = 826
							}
						}
					}
					add_state_core = 1197
					add_state_core = 826
					transfer_state = 1197
					transfer_state = 826
				}
				if = {
					limit = {
						NOT = {
							OR = {
								country_exists = NGA
								country_exists = NNG
							}
						}
					}
					set_cosmetic_tag = YOR_unified
				}
			}
		}
		else = {
			NGA = {
				add_state_core = 1197
				add_state_core = 1188
				add_state_core = 825
				add_state_core = 558
				add_state_core = 1198
				add_state_core = 1199
				add_state_core = 826
				transfer_state = 1197
				transfer_state = 826
				transfer_state = 1198
				transfer_state = 1199
				transfer_state = 558
				transfer_state = 1188
				transfer_state = 825
				if = {
					limit = { NOT = { country_exists = BFR } }
					add_state_core = 1187
					transfer_state = 1187
				}
				if = {
					limit = { NOT = { HAU = { owns_state = 1189 } } }
					add_state_core = 1189
					transfer_state = 1189
				}
				TNO_startup_nation = yes
			}
		}

		if = {
			limit = { country_exists = BFR }
			BFR = {
				country_event = {
					id = CAO.105
					days = 220
				}
			}
		}

		if = {
			limit = { country_exists = CHD }
			CHD = {
				add_state_core = 1544
				add_state_core = 1194
				add_state_core = 1195

				add_state_core = 1200
				add_state_core = 1201
				transfer_state = 1200
				transfer_state = 1201
			}
		}
		else_if = {
			limit = { country_exists = CHF }
			CHF = {
				add_state_core = 1206
				add_state_core = 1207
				add_state_core = 1204
				add_state_core = 1203
				add_state_core = 1202

				add_state_core = 1200
				add_state_core = 1201
				transfer_state = 1200
				transfer_state = 1201

				set_cosmetic_tag = CHF_unified
			}			
		}
		else_if = {
			limit = {
				country_exists = KNM 
				NOT = { CAO = { has_country_flag = CAO_collapse_KNM_capitulated } }
			}
			KNM = {
				add_state_core = 1206
				add_state_core = 1205
				add_state_core = 1207
				add_state_core = 1204
				add_state_core = 1203
				add_state_core = 1202

				add_state_core = 1200
				add_state_core = 1201
				transfer_state = 1200
				transfer_state = 1201
			}			
		}
		else = {
			CHD = {
				add_state_core = 660
				add_state_core = 1202
				add_state_core = 1203
				add_state_core = 1204
				add_state_core = 1205
				add_state_core = 1206
				add_state_core = 1207
				add_state_core = 1200
				add_state_core = 1201
				transfer_state = 660
				transfer_state = 1202
				transfer_state = 1203
				transfer_state = 1204
				transfer_state = 1205
				transfer_state = 1206
				transfer_state = 1207
				transfer_state = 1200
				transfer_state = 1201
				# should invade KNM later
			}		
		}

		CAO = {
			remove_state_core = 1187
			remove_state_core = 825
			remove_state_core = 1188
			remove_state_core = 826
			remove_state_core = 1197
			remove_state_core = 1189
			remove_state_core = 558
			remove_state_core = 1198
			remove_state_core = 1199
			remove_state_core = 1200
			remove_state_core = 1201
			remove_state_core = 1202
			remove_state_core = 1203
			remove_state_core = 1204
			remove_state_core = 1205
			remove_state_core = 1206
			remove_state_core = 1207
			remove_state_core = 660
			remove_state_core = 1544
			remove_state_core = 1194
			remove_state_core = 1195

			add_popularity = {
				ideology = authoritarian_democracy
				popularity = 0.4
			}
			add_popularity = {
				ideology = socialist
				popularity = -0.2
			}
			remove_ideas = {
				CAO_idea_pan_african_vanguard
				CAO_ACA
				CAO_ACA_2
				CAO_ACA_3
			}
			retire_ideology_leader = authoritarian_democracy
			promote_character = CAO_charles_okala
			set_politics = { ruling_party = authoritarian_democracy }
			set_temp_variable = { TNO_economy_type_temp = 2 }
			set_temp_variable = { TNO_economy_subtype_temp = 10 }
			econ_type_change = yes
			econ_subtype_change = yes
		}
	}
}

country_event = { # Sokoto revolts
	id = CAO.103
	immediate = {log = "[GetDateText]: [Root.GetName]: event CAO.103"}
	title = CAO.103.t
	desc = CAO.103.desc
	picture = GFX_report_event_african_rebels
	is_triggered_only = yes
	#fire_only_once = yes

	option = {
		name = CAO.103.a
		HAU = {
			add_state_core = 1189
			transfer_state = 1189
			load_oob = "HAU_collapse"
			TNO_startup_nation = yes
			set_country_flag = HAU_revolted
			declare_war_on = { target = NNG type = annex_everything }
			declare_war_on = { target = NGA type = annex_everything }
			declare_war_on = { target = YOR type = annex_everything }
		}
	}
}

country_event = { # Sokoto Nigeria war check
	id = CAO.104
	immediate = {log = "[GetDateText]: [Root.GetName]: event CAO.104"}
	title = CAO.104.t
	desc = CAO.104.desc
	picture = GFX_report_event_african_rebels
	is_triggered_only = yes
	#fire_only_once = yes
	#trigger = { country_exists = NNG }

	option = {
		name = CAO.104.a
		if = { # cameroon
			limit = {
				tag = CAO
				has_global_flag = global_cameroon_survived_collapse
				country_exists = HAU
			}
			every_country = {
				limit = { has_war_with = HAU }
				white_peace = HAU
			}
			CAO = {
				add_popularity = {
					ideology = fascism
					popularity = -0.05
				}
			}			
		}
		else_if = {
			limit = {
				tag = HAU
				has_country_flag = HAU_invaded
				country_exists = ZAR				
			}
			every_country = {
				limit = { has_war_with = HAU }
				white_peace = HAU
			}
			NGR = {
				add_state_core = 832
				add_state_core = 1542
				transfer_state = 832
				transfer_state = 1542
				transfer_state = 835
				transfer_state = 1221
				transfer_state = 1220
				TNO_startup_nation = yes

				set_politics = { ruling_party = authoritarian_democracy }

				set_temp_variable = { TNO_economy_type_temp = 2 }
				set_temp_variable = { TNO_economy_subtype_temp = 10 }
				econ_type_change = yes
				econ_subtype_change = yes
			}
		}
	}
}

country_event = { # Biafra Wins???
	id = CAO.105
	immediate = {log = "[GetDateText]: [Root.GetName]: event CAO.105"}
	title = CAO.105.t
	desc = CAO.105.desc
	picture = GFX_report_event_african_rebels
	is_triggered_only = yes
	#fire_only_once = yes
	trigger = { country_exists = BFR }

	option = {
		name = CAO.105.a
		every_country = {
			limit = { has_war_with = BFR }
			white_peace = BFR
		}
		hidden_effect = {
			every_country = {
				limit = { is_ai = no }
				news_event = {
					id = CAOnews.2
				}
			}
		}
	}
}

news_event = { # Collapse of Cameroon
	id = CAOnews.1
	immediate = {log = "[GetDateText]: [Root.GetName]: event CAOnews.1"}
	title = CAOnews.1.t
	desc = CAOnews.1.desc
	picture = GFX_news_event_cameroon_collapse

	is_triggered_only = yes
	#fire_only_once = yes

	option = {
		name = CAOnews.1.a
	}
}

news_event = { # Biafran Independence
	id = CAOnews.2
	immediate = {log = "[GetDateText]: [Root.GetName]: event CAOnews.2"}
	title = CAOnews.2.t
	desc = CAOnews.2.desc
	picture = GFX_news_event_biafra_independence

	is_triggered_only = yes
	#fire_only_once = yes

	option = {
		name = CAOnews.2.a
	}
}