﻿add_namespace = kostin

country_event = { #General Strike
	id = kostin.1
	immediate = {log = "[GetDateText]: [Root.GetName]: event kostin.1"}
	title = kostin.1.t
	desc = kostin.1.d
	picture = GFX_report_event_map

	is_triggered_only = yes

	option = {
		name = kostin.1.a
		if = {
			limit = {
				check_variable = { SIB_worker_tension < 33 }
			}
			add_ideas = KAL_general_strike_1
		}
		else_if = {
			limit = {
				OR = {
					check_variable = { SIB_worker_tension < 67 }
					check_variable = { SIB_worker_tension > 34 }
				}
			}
			add_ideas = KAL_general_strike_2
		}
		else_if = {
			limit = {
				OR = {
					check_variable = { SIB_worker_tension > 66 }
				}
			}
			add_ideas = KAL_general_strike_3
		}
		country_event = { id = kostin.3 days = 7 }
	}
}

country_event = { #Kostin Collapse Debug
	id = kostin.2
	immediate = {log = "[GetDateText]: [Root.GetName]: event kostin.2"}
	title = kostin.2.t
	desc = kostin.2.d
	picture = GFX_report_event_map

	is_triggered_only = yes

	option = {
		name = kostin.2.a
		KRS_reformed_siberian_socialist_workers_republic = yes
		ALT_siberian_workers_and_peasants_union = yes
		SBA_free_workers_republic_of_siberia = yes
	}
}

country_event = { #Workers arm themselves
	id = kostin.3
	immediate = {log = "[GetDateText]: [Root.GetName]: event kostin.3"}
	title = kostin.3.t
	desc = kostin.3.d
	picture = GFX_report_event_map

	is_triggered_only = yes

	option = {
		name = kostin.3.a
		SIB_demilitarize_revolution_states = yes
		country_event = { id = kostin.4 days = 7 }
	}
}

country_event = { #Leaders calls for uprising
	id = kostin.4
	immediate = {log = "[GetDateText]: [Root.GetName]: event kostin.4"}
	title = kostin.4.t
	desc = kostin.4.d
	picture = GFX_report_event_map

	is_triggered_only = yes

	option = {
		name = kostin.4.a
		SIB_launch_revolution = yes
		add_war_support = 0.2
		add_stability = -0.2
	}
}

country_event = { #Uprising 1 weak
	id = kostin.5
	immediate = {log = "[GetDateText]: [Root.GetName]: event kostin.5"}
	title = kostin.5.t
	desc = kostin.5.d
	picture = GFX_report_event_map

	is_triggered_only = yes

	option = {
		name = kostin.5.a
		KAL = {
			inherit_technology = CSB
			transfer_state = 570
			declare_war_on = {
				target = CSB
				type = annex_everything
			}
			hidden_effect = {
				load_oob = KAL_uprising_weak_1
			}
			
		}
	}
}

country_event = { #Uprising 2 weak
	id = kostin.6
	immediate = {log = "[GetDateText]: [Root.GetName]: event kostin.6"}
	title = kostin.6.t
	desc = kostin.6.d
	picture = GFX_report_event_map

	is_triggered_only = yes

	option = {
		name = kostin.6.a
		KAL = {
			inherit_technology = CSB
			transfer_state = 757
			add_state_core = 757
			declare_war_on = {
				target = CSB
				type = annex_everything
			}
			hidden_effect = {
				load_oob = KAL_uprising_weak_2
			}
		}
	}
}

country_event = { #uprising 3 weak
	id = kostin.7
	immediate = {log = "[GetDateText]: [Root.GetName]: event kostin.7"}
	title = kostin.7.t
	desc = kostin.7.d
	picture = GFX_report_event_map

	is_triggered_only = yes

	option = {
		name = kostin.7.a
		KAL = {
			inherit_technology = CSB
			transfer_state = 578
			add_state_core = 578
			declare_war_on = {
				target = CSB
				type = annex_everything
			}
			hidden_effect = {
				load_oob = KAL_uprising_weak_3
			}
		}
	}
}

country_event = { #uprising 1 med
	id = kostin.8
	immediate = {log = "[GetDateText]: [Root.GetName]: event kostin.8"}
	title = kostin.8.t
	desc = kostin.8.d
	picture = GFX_report_event_map

	is_triggered_only = yes

	option = {
		name = kostin.8.a
		KAL = {
			inherit_technology = CSB
			transfer_state = 570
			transfer_state = 40
			add_state_core = 570
			add_state_core = 40
			declare_war_on = {
				target = CSB
				type = annex_everything
			}
			hidden_effect = {
				load_oob = KAL_uprising_med_1
			}
		}
	}
}

country_event = { #uprising 2 med
	id = kostin.9
	immediate = {log = "[GetDateText]: [Root.GetName]: event kostin.9"}
	title = kostin.9.t
	desc = kostin.9.d
	picture = GFX_report_event_map

	is_triggered_only = yes

	option = {
		name = kostin.9.a
		KAL = {
			inherit_technology = CSB
			transfer_state = 757
			transfer_state = 568
			add_state_core = 757
			add_state_core = 568
			declare_war_on = {
				target = CSB
				type = annex_everything
			}
			hidden_effect = {
				load_oob = KAL_uprising_med_2
			}
		}
	}
}

country_event = { #uprising 3 med
	id = kostin.10
	immediate = {log = "[GetDateText]: [Root.GetName]: event kostin.10"}
	title = kostin.10.t
	desc = kostin.10.d
	picture = GFX_report_event_map

	is_triggered_only = yes

	option = {
		name = kostin.10.a
		KAL = {
			inherit_technology = CSB
			transfer_state = 578
			transfer_state = 577
			add_state_core = 578
			add_state_core = 577
			declare_war_on = {
				target = CSB
				type = annex_everything
			}
			hidden_effect = {
				load_oob = KAL_uprising_med_3
			}
		}
	}
}

country_event = { #uprising 1 strong
	id = kostin.11
	immediate = {log = "[GetDateText]: [Root.GetName]: event kostin.11"}
	title = kostin.11.t
	desc = kostin.11.d
	picture = GFX_report_event_map

	is_triggered_only = yes

	option = {
		name = kostin.11.a
		KAL = {
			inherit_technology = CSB
			transfer_state = 40
			transfer_state = 570
			transfer_state = 569
			add_state_core = 40
			add_state_core = 570
			add_state_core = 569
			declare_war_on = {
				target = CSB
				type = annex_everything
			}
			hidden_effect = {
				load_oob = KAL_uprising_strong_1
			}
		}
	}
}

country_event = { #uprising 2 strong
	id = kostin.12
	immediate = {log = "[GetDateText]: [Root.GetName]: event kostin.12"}
	title = kostin.12.t
	desc = kostin.12.d
	picture = GFX_report_event_map

	is_triggered_only = yes

	option = {
		name = kostin.12.a
		KAL = {
			inherit_technology = CSB
			transfer_state = 757
			transfer_state = 568
			transfer_state = 567
			add_state_core = 757
			add_state_core = 568
			add_state_core = 567
			declare_war_on = {
				target = CSB
				type = annex_everything
			}
			hidden_effect = {
				load_oob = KAL_uprising_strong_2
			}
		}
	}
}

country_event = { #uprising 3 strong
	id = kostin.13
	immediate = {log = "[GetDateText]: [Root.GetName]: event kostin.13"}
	title = kostin.13.t
	desc = kostin.13.d
	picture = GFX_report_event_map

	is_triggered_only = yes

	option = {
		name = kostin.13.a
		KAL = {
			inherit_technology = CSB
			transfer_state = 578
			transfer_state = 577
			transfer_state = 887
			add_state_core = 578
			add_state_core = 577
			add_state_core = 887
			declare_war_on = {
				target = CSB
				type = annex_everything
			}
			hidden_effect = {
				load_oob = KAL_uprising_strong_3
			}
		}
	}
}

country_event = { #kostin consolidates control
	id = kostin.14
	immediate = {log = "[GetDateText]: [Root.GetName]: event kostin.14"}
	title = kostin.14.t
	desc = kostin.14.d
	picture = GFX_report_event_map

	is_triggered_only = yes

	option = {
		name = kostin.14.a
		every_state = {
			limit = {
				NOT  = {
					is_core_of = KAL
				}
				is_owned_by = KAL
			}
			KAL = {
				add_state_core = PREV
			}
		}
		country_event = { id = kostin.15 days = 7 }
		hidden_effect = {
			every_country  = {
				news_event = { id = RUS_news.41 }
			}
		}
	}
}

country_event = { #kostin gets denounced
	id = kostin.15
	immediate = {log = "[GetDateText]: [Root.GetName]: event kostin.15"}
	title = kostin.15.t
	desc = kostin.15.d
	picture = GFX_report_event_map

	is_triggered_only = yes

	option = {
		name = kostin.15.a
		add_stability = -0.35
		country_event = { id = kostin.16 days = 12 }
	}
}

country_event = { #SPLITTERS
	id = kostin.16
	immediate = {log = "[GetDateText]: [Root.GetName]: event kostin.16"}
	title = kostin.16.t
	desc = kostin.16.d
	picture = GFX_report_event_map

	is_triggered_only = yes

	option = {
		name = kostin.16.a
		KRS_reformed_siberian_socialist_workers_republic = yes
		hidden_effect = {
			country_event = { id = kostin.17 days = 21 }
		}
	}
}

country_event = {
	id = kostin.17
	immediate = {log = "[GetDateText]: [Root.GetName]: event kostin.17"}
	title = kostin.17.t
	desc = kostin.17.d
	picture = GFX_report_event_map

	is_triggered_only = yes

	option = {
		name = kostin.17.a
		ALT_siberian_workers_and_peasants_union = yes
		hidden_effect = {
			country_event = { id = kostin.18 days = 11 }
		}
	}
}

country_event = {
	id = kostin.18
	immediate = {log = "[GetDateText]: [Root.GetName]: event kostin.18"}
	title = kostin.18.t
	desc = kostin.18.d
	picture = GFX_report_event_map

	is_triggered_only = yes

	option = {
		name = kostin.18.a
		SBA_free_workers_republic_of_siberia = yes
		hidden_effect = {
			country_event = { id = kostin.19 days = 3 }
		}
	}
}

country_event = { #:(
	id = kostin.19
	immediate = {log = "[GetDateText]: [Root.GetName]: event kostin.19"}
	title = kostin.19.t
	desc = kostin.19.d
	picture = GFX_report_event_map

	is_triggered_only = yes

	option = {
		name = kostin.19.a
		remove_state_core = 888
		remove_state_core = 576
		remove_state_core = 758
		remove_state_core = 567
		remove_state_core = 654
		remove_state_core = 40
		remove_state_core = 569
		remove_state_core = 814
		remove_state_core = 329
		remove_state_core = 757
		remove_state_core = 568
		hidden_effect = {
			load_focus_tree = shattered_ambitions
		}
	}
}

country_event = { #Unite The Human Race
	id = kostin.20
	immediate = {log = "[GetDateText]: [Root.GetName]: event kostin.20"}
	title = kostin.20.t
	desc = kostin.20.d
	picture = GFX_report_event_map

	is_triggered_only = yes

	option = {
		name = kostin.20.a
		add_stability = -0.025
	}
}

country_event = {
	id = kostin.21
	immediate = {log = "[GetDateText]: [Root.GetName]: event kostin.21"}
	title = kostin.21.t
	desc = kostin.21.d
	picture = GFX_report_event_map

	is_triggered_only = yes

	option = {
		name = kostin.21.a
		add_stability = -0.05
		add_popularity = {
			ideology = socialist
			popularity = 0.05
		}
		add_popularity = {
			ideology = communist
			popularity = 0.05
		}
	}
}
