###################
### Play EaW!!! ###
###################
add_namespace = OMO_aprilfools # Serves as a misc event namespace

country_event = {
	id = OMO_aprilfools.1
	immediate = {
		log = "[GetDateText]: [Root.GetName]: event OMO_aprilfools.1"
		hidden_effect = {
			OMO = {
				retire_character = OMO_No_Authority
				retire_character = OMO_Pavel_Sudoplatov
				retire_character = OMO_Ivan_Nikishov
				retire_character = OMO_Nikolay_Eshliman
				retire_character = OMO_Yuriy_Rytkheu
				retire_character = OMO_Vasily_Nalimov
				retire_character = OMO_Timofey_Yelkov
				retire_character = OMO_Vladimir_Gladilin	
				OMO_2022_Vasily_Blyukher = {
					add_field_marshal_role = {
						traits = { inflexible_strategist defensive_doctrine infantry_officer }
						skill = 3
						attack_skill = 1
						defense_skill = 2
						planning_skill = 3
						logistics_skill = 4
					}
				}
				OMO_2022_Sharmy = {
					add_corps_commander_role = {
						traits = { trait_reckless media_personality }
						skill = 3
						attack_skill = 3
						defense_skill = 2
						planning_skill = 2
						logistics_skill = 3
						desc = "OMO_2022_Sharmy_desc"
					}
				}
				OMO_2022_Lili_iz_Doliny = {
					add_corps_commander_role = {
						traits = { career_officer politically_connected }
						skill = 3
						attack_skill = 2
						defense_skill = 3
						planning_skill = 3
						logistics_skill = 2
						desc = "OMO_2022_Lili_iz_Doliny_desc"
					}
				}
				OMO_Gleb_Yakunin = {
					add_corps_commander_role = {
						traits = { trait_cautious trickster }
						skill = 2
						attack_skill = 1
						defense_skill = 3
						planning_skill = 1
						logistics_skill = 2
						legacy_id = 3787
					}
				}
				OMO_Mikhail_Vukvol = {
					add_corps_commander_role = {
						traits = { winter_specialist war_hero }
						skill = 2
						attack_skill = 2
						defense_skill = 1
						planning_skill = 3
						logistics_skill = 1
						legacy_id = 3788
					}
				}
				OMO_Pavel_Adelgeim = {
					add_corps_commander_role = {
						traits = { trait_reckless infantry_leader }
						skill = 2
						attack_skill = 3
						defense_skill = 1
						planning_skill = 2
						logistics_skill = 1
						legacy_id = 3789
					}
				}
				add_ideas = {
					### Standard ###
					RUS_warlord_manpower

					### Political Laws ###
					tno_political_parties_one_party_state
					tno_religious_rights_pluralism
					tno_trade_unions_all_allowed
					tno_immigration_open_immigration
					tno_slavery_outlawed
					tno_public_meetings_allowed
					tno_press_rights_free_press
					tno_vote_franchise_no_voting
					tno_refugees_open

					### Military Laws ###
					tno_conscription_two_year_draft
					tno_women_total_equality
					tno_military_supervision_military_policing
					tno_training_minimal_training
					tno_racial_integration_integrated_military
					tno_draft_exemptions_none

					### Social Laws ###
					tno_safety_minimal_regulations
					tno_health_care_low_income_protections
					tno_pollution_no_controls
					tno_education_public_education
					tno_penal_system_penal_labor
					tno_lgbt_rights_lgbt_allowed
					tno_gender_rights_women_in_the_workplace
					tno_minorities_equal_rights
					tno_security_police

					### Economic Laws ###
					tno_trade_laws_limited_exports
					tno_income_taxation_flat_taxes
					tno_minimum_wage_low_minimum_wage
					tno_max_workhours_12_hour_work_day
					tno_child_labor_illegal
					tno_pensions_low_pensions
					tno_unemployment_trinket_subsidies

					### Societal Development ###
					tno_army_professionalism_political_interference
					tno_industrial_expertise_nascent
					tno_industrial_equipment_power_tools
					tno_agriculture_basic_mechanized
					tno_research_facilities_basic
					tno_academic_base_basic_literacy
					tno_admin_efficiency_illegitimate_administration
				}
				set_variable = { tno_minorities_effectiveness = 25 }
				set_variable = { tno_trade_laws_effectiveness = 15 }
				set_temp_variable = { TNO_economy_subtype_temp = 2 }
				econ_subtype_change = yes
				set_technology = {
					popup = no
					##INFANTRY##
					infantry_weapons_1 = 1
					infantry_weapons_2 = 1
					infantry_weapons_improvements_1 = 1
					infantry_weapons_improvements_2 = 1
					infantry_weapons_improvements_3 = 1
					infantry_weapons_improvements_4 = 1
					basic_infantry_equipment = 1
					support_weapons = 1
					infantry_at = 1
					infantry_at2 = 1
					motorized_infantry = 1
					#infantry_aa = 1
					#infantry_aa2 = 1
					##SUPPORT##
					tech_support = 1
					tech_engineers = 1
					tech_engineers_flamethrowers_1 = 1
					tech_recon = 1
					tech_recon2 = 1
					##ARTY##
					artillery4 = 1
					antiair5 = 1
					##ARMOR##
					advanced_light_tank = 1
					advanced_medium_tank = 1
					mechanised_infantry3 = 1

					APC_1950 = 1
					APC_1950_basic_turret = 1
					#APC_1950_basic_engine = 1

					IFV_1950 = 1

					MBT_1950 = 1

					##AIRCRAFT##
					early_fighter = 1
					fighter_1945 = 1
					interceptor_1945 = 1
					CAS_1945 = 1
					##HEAVY AIRCRAFT##
					strategic_bomber1 = 1
					heavy_air_1945 = 1
					tac_bomber1 = 1
					tac_air_1945 = 1
					transport_air1 = 1
					transport_air_1945 = 1
					##HELICOPTERS##
					helicopter_engines = 1
					very_early_helicopter = 1
					early_helicopter = 1
					##ENGINEERING##
					electronic_mechanical_engineering = 1
					radio = 1
					mechanical_computing = 1
					computing_machine = 1
					basic_encryption = 1
					basic_decryption = 1
					##INDUSTRY##
					ww2_line_production = 1
					batch_production_1 = 1
					resource_extraction_methods = 1
					excavation0 = 1
					energy_technology_1 = 1
					building_construction_1 = 1
					social_construction_1 = 1
					military_construction_1 = 1
				}
				remove_ideas = RUS_isolated_vilages
				clr_country_flag = can_not_use_econ_system
				clr_country_flag = TNO_has_started_up
				644 = {
					add_extra_state_shared_building_slots = 1
					add_building_construction = {
						type = thermoelectric_plant
						level = 1
						instant_build = yes
					}
				}
				TNO_startup_nation = yes
				set_party_name = {
					ideology = despotism
					name = OMO_2022_despotism_party
					long_name = OMO_2022_despotism_party_long
				}
				set_party_name = {
					ideology = communist
					name = OMO_2022_communist_party
					long_name = OMO_2022_communist_party_long
				}
				set_party_name = {
					ideology = socialist
					name = OMO_2022_socialist_party
					long_name = OMO_2022_socialist_party_long
				}
				set_party_name = {
					ideology = social_democracy
					name = OMO_2022_social_democracy_party
					long_name = OMO_2022_social_democracy_party_long
				}
				set_popularities = {
					despotism = 100
				}
				set_politics = {
					ruling_party = despotism
				}
				OMO_Alexander_Men = {
					remove_country_leader_role = {
						ideology = socialist_christian_socialism_subtype
					}
					set_portraits = {
						civilian = {
							large = "gfx/leaders/OMO_2022_Aprilfools/Portrait_Alexander_Men_Aprilfools.dds"
						}
					}
				}
				OMO_2022_Nikolai_Buckharin = {
					add_country_leader_role = {
						promote_leader = yes
						country_leader = {
							ideology = despotism_subtype
							expire = "1999.1.1"
							id = -1
							desc = "POLITICS_NEIZVESTNO_DESC"
						}
					}
					add_country_leader_role = {
						promote_leader = yes
						country_leader = {
							ideology = communist_harmonism_subtype
							expire = "1999.1.1"
							id = -1
						}
					}
					add_country_leader_role = {
						promote_leader = yes
						country_leader = {
							ideology = social_democracy_subtype
							expire = "1999.1.1"
							id = -1
						}
					}
					add_country_leader_role = {
						promote_leader = yes
						country_leader = {
							ideology = socialist_subtype
							expire = "1999.1.1"
							id = -1
						}
					}
				}
				load_focus_tree = OMO_april_fools_opening
			}
		}
	}
	title = OMO_aprilfools.1.t
	desc = OMO_aprilfools.1.desc
	picture = GFX_OMO_2022_event_picture_6

	is_triggered_only = yes
	fire_only_once = yes

	option = {
		name = OMO_aprilfools.1.a
		custom_effect_tooltip = OMO_aprilfools.1.a.tt
		hidden_effect = {
			OMO = {
				change_tag_from = ROOT
			}
			if = {
				limit = {
					OR = {
						original_tag = BRY
						original_tag = IRK
					}
				}
				BRY = {
					add_ideas = OMO_aprilfools_BRY_IRK_stalemate_idea
				}
				IRK = {
					add_ideas = OMO_aprilfools_BRY_IRK_stalemate_idea
				}
			}
		}
	}
	option = { # No
		name = OMO_aprilfools.1.b
	}
}

country_event = {
	id = OMO_aprilfools.2
	immediate = { log = "[GetDateText]: [Root.GetName]: event OMO_aprilfools.2" }
	title = OMO_aprilfools.2.t
	desc = OMO_aprilfools.2.desc
	picture = GFX_OMO_2022_event_picture_2
	
	is_triggered_only = yes
	fire_only_once = yes
	
	option = {
		name = OMO_aprilfools.2.a
		ai_chance = { factor = 0 }
		add_war_support = 0.05
		declare_war_on = {
			target = BRY
			type = annex_everything
		}
		declare_war_on = {
			target = IRK
			type = annex_everything
		}
		hidden_effect = {
			BRY = {
				remove_ideas = OMO_aprilfools_BRY_IRK_stalemate_idea
			}
			IRK = {
				remove_ideas = OMO_aprilfools_BRY_IRK_stalemate_idea
			}
		}
	}
	option = {
		name = OMO_aprilfools.2.b
		ai_chance = { factor = 100 }
		add_political_power = -25
		add_war_support = -0.025
		hidden_effect = {
			country_event = { id = OMO_aprilfools.3 days = 7 }
		}
	}
}

country_event = {
	id = OMO_aprilfools.3
	immediate = { log = "[GetDateText]: [Root.GetName]: event OMO_aprilfools.3" }
	title = OMO_aprilfools.3.t
	desc = OMO_aprilfools.3.desc
	picture = GFX_OMO_2022_event_picture_2
	
	is_triggered_only = yes
	fire_only_once = yes
	
	option = {
		name = OMO_aprilfools.3.a
		ai_chance = { factor = 0 }
		add_war_support = 0.1
		add_stability = -0.05
		declare_war_on = {
			target = BRY
			type = annex_everything
		}
		declare_war_on = {
			target = IRK
			type = annex_everything
		}
		hidden_effect = {
			BRY = {
				remove_ideas = OMO_aprilfools_BRY_IRK_stalemate_idea
			}
			IRK = {
				remove_ideas = OMO_aprilfools_BRY_IRK_stalemate_idea
			}
		}
	}
	option = {
		name = OMO_aprilfools.3.b
		ai_chance = { factor = 100 }
		add_political_power = -50
		add_war_support = -0.075
		hidden_effect = {
			country_event = { id = OMO_aprilfools.4 days = 14 }
		}
	}
}

country_event = {
	id = OMO_aprilfools.4
	immediate = { log = "[GetDateText]: [Root.GetName]: event OMO_aprilfools.4" }
	title = OMO_aprilfools.4.t
	desc = OMO_aprilfools.4.desc
	picture = GFX_OMO_2022_event_picture_2
	
	is_triggered_only = yes
	fire_only_once = yes
	
	option = {
		name = OMO_aprilfools.4.a
		ai_chance = { factor = 0 }
		add_war_support = 0.15
		add_stability = -0.1
		declare_war_on = {
			target = BRY
			type = annex_everything
		}
		declare_war_on = {
			target = IRK
			type = annex_everything
		}
		hidden_effect = {
			BRY = {
				remove_ideas = OMO_aprilfools_BRY_IRK_stalemate_idea
			}
			IRK = {
				remove_ideas = OMO_aprilfools_BRY_IRK_stalemate_idea
			}
		}
	}
	option = {
		name = OMO_aprilfools.4.b
		ai_chance = { factor = 100 }
		add_political_power = -25
		add_war_support = -0.05
		hidden_effect = {
			country_event = { id = OMO_aprilfools.5 days = 5 }
		}
	}
}

country_event = {
	id = OMO_aprilfools.5
	immediate = { log = "[GetDateText]: [Root.GetName]: event OMO_aprilfools.5" }
	title = OMO_aprilfools.5.t
	desc = OMO_aprilfools.5.desc
	picture = GFX_OMO_2022_event_picture_2
	
	is_triggered_only = yes
	fire_only_once = yes
	
	option = {
		name = OMO_aprilfools.5.a
		ai_chance = { factor = 1 }
		custom_effect_tooltip = OMO_aprilfools.5.a.tt
		hidden_effect = {
			set_autonomy = {
				target = BRY
				autonomy_state = autonomy_integrated_puppet
				end_wars = yes
			}
			OMO_2022_BRY_IRK_Harmonic_Presidium = {
				set_nationality = BRY
			}
			BRY = {
				load_focus_tree = shattered_ambitions
				annex_country = {
					target = IRK
					transfer_troops = yes
				}
				set_party_name = {
					ideology = communist
					name = OMO_2022_communist_party
					long_name = OMO_2022_communist_party_long
				}
				set_popularities = {
					communist = 100
				}
				set_politics = {
					ruling_party = communist
				}
				set_cosmetic_tag = BRY_IRK_Harmonious
				BRY_Valery_Sablin = {
					remove_country_leader_role = {
						ideology = communist_subtype
					}
					remove_country_leader_role = {
						ideology = communist_bukharinism_subtype
					}
				}
				add_country_leader_role = {
					character = OMO_2022_BRY_IRK_Harmonic_Presidium
					promote_leader = yes
					country_leader = {
						ideology = communist_harmonism_subtype
						expire = "1999.1.1"
						id = -1
					}
				}
				remove_ideas = {
					OMO_aprilfools_BRY_IRK_stalemate_idea
					BRY_uncertain_revolutionaries
					BRY_ghost_of_bukharinism
				}
				remove_all_ministers = yes
				fill_empty_minister_nochecks = yes
			}
			
			# Triggers peace popup window #
			
			set_global_flag = show_peace_popup_alert
			OMO = { save_global_event_target_as = winning_country }
			BRY = { save_global_event_target_as = losing_country }
			set_global_flag = war_won
			add_to_variable = { global.peace_popup_dirty = 1 }
			
		}
	}
}

country_event = {
	id = OMO_aprilfools.6
	immediate = { log = "[GetDateText]: [Root.GetName]: event OMO_aprilfools.6" }
	title = OMO_aprilfools.6.t
	desc = OMO_aprilfools.6.desc
	picture = GFX_OMO_2022_event_picture_3
	
	is_triggered_only = yes
	fire_only_once = yes
	
	option = {
		name = OMO_aprilfools.6.a
	}
}

country_event = {
	id = OMO_aprilfools.7
	immediate = { log = "[GetDateText]: [Root.GetName]: event OMO_aprilfools.7" }
	title = OMO_aprilfools.7.t
	desc = OMO_aprilfools.7.desc
	picture = GFX_report_event_russian_fascists_harbin
	
	is_triggered_only = yes
	fire_only_once = yes
	
	option = {
		name = OMO_aprilfools.7.a
		add_political_power = 100
	}
}

country_event = { # Grand opening of Buckharin's Academy of Friendship
	id = OMO_aprilfools.8
	immediate = { log = "[GetDateText]: [Root.GetName]: event OMO_aprilfools.8" }
	title = OMO_aprilfools.8.t
	desc = OMO_aprilfools.8.desc
	picture = GFX_OMO_2022_event_picture_4
	
	is_triggered_only = yes
	fire_only_once = yes
	
	option = {
		name = OMO_aprilfools.8.a
		swap_ideas = {
			remove_idea = OMO_2022_construction_of_buckharins_academy
			add_idea = OMO_2022_buckharins_academy_of_friendship
		}
	}
}

country_event = { # Gay pony event
	id = OMO_aprilfools.9
	immediate = { log = "[GetDateText]: [Root.GetName]: event OMO_aprilfools.9" }
	title = OMO_aprilfools.9.t
	desc = OMO_aprilfools.9.desc
	picture = GFX_OMO_2022_event_picture_11
	
	is_triggered_only = yes
	fire_only_once = yes
	
	option = {
		name = OMO_aprilfools.9.a
		tno_lgbt_rights_improve = yes
	}
}

country_event = { # Alexander Men Coup: Part 1
	id = OMO_aprilfools.10
	immediate = { log = "[GetDateText]: [Root.GetName]: event OMO_aprilfools.10" }
	title = OMO_aprilfools.10.t
	desc = OMO_aprilfools.10.desc
	picture = GFX_OMO_2022_event_picture_5
	
	is_triggered_only = yes
	fire_only_once = yes
	
	option = {
		name = OMO_aprilfools.10.a
		country_event = { id = OMO_aprilfools.11 days = 2 }
	}
}

country_event = { # Alexander Men Coup: Part 2
	id = OMO_aprilfools.11
	immediate = { log = "[GetDateText]: [Root.GetName]: event OMO_aprilfools.11" }
	title = OMO_aprilfools.11.t
	desc = OMO_aprilfools.11.desc
	picture = GFX_OMO_2022_event_picture_5
	
	is_triggered_only = yes
	fire_only_once = yes
	
	option = {
		name = OMO_aprilfools.11.a
		country_event = { id = OMO_aprilfools.12 days = 2 }
	}
}

country_event = { # Alexander Men Coup: Part 3
	id = OMO_aprilfools.12
	immediate = { log = "[GetDateText]: [Root.GetName]: event OMO_aprilfools.12" }
	title = OMO_aprilfools.12.t
	desc = OMO_aprilfools.12.desc
	picture = GFX_OMO_2022_event_picture_5
	
	is_triggered_only = yes
	fire_only_once = yes
	
	option = {
		name = OMO_aprilfools.12.a
		retire_character = OMO_2022_Nikolai_Buckharin
		set_politics = {
			ruling_party = socialist
		}
		effect_tooltip = {
			swap_ideas = {
				remove_idea = tno_minorities_equal_rights_dummy
			    add_idea = tno_minorities_segregation_dummy
			}
		}
		add_ideas = OMO_2022_end_of_harmony
		custom_effect_tooltip = OMO_aprilfools.12.a.tt
		hidden_effect = {
			add_country_leader_role = {
				character = OMO_2022_Various_Leaders
				promote_leader = yes
				country_leader = {
					ideology = communist_harmonism_subtype
					expire = 1999.1.1
					traits = { shattered_leadership }
					desc = "OMO_2022_Various_Leaders"
				}
			}
			add_popularity = {
				ideology = socialist
				popularity = 0.5
			}
			load_focus_tree = shattered_ambitions
			remove_all_ministers = yes
			fill_empty_minister = yes
			remove_dynamic_modifier = { modifier = OMO_2022_crystal_buffs }
			remove_ideas = {
				OMO_2022_an_interspecies_army
				OMO_2022_an_infant_ideology
				OMO_2022_an_infant_ideology_2
				OMO_2022_an_infant_ideology_3
				OMO_2022_first_pony_congress_of_harmonious_union
				OMO_2022_first_pony_congress_of_harmonious_union_2
				OMO_2022_first_pony_congress_of_harmonious_union_3
				OMO_2022_a_harmonious_society
				OMO_2022_a_harmonious_society_2
			}
			add_ideas = tno_minorities_segregation
			every_country = {
				news_event = { id = OMO_aprilfools_news.5 days = 2 }
			}
		}
	}
}

country_event = { # Radical Pony Faction Coup: Part 1
	id = OMO_aprilfools.13
	immediate = { log = "[GetDateText]: [Root.GetName]: event OMO_aprilfools.13" }
	title = OMO_aprilfools.13.t
	desc = OMO_aprilfools.13.desc
	picture = GFX_OMO_2022_event_picture_2
	
	is_triggered_only = yes
	fire_only_once = yes
	
	option = {
		name = OMO_aprilfools.13.a
		country_event = { id = OMO_aprilfools.14 days = 2 }
	}
}

country_event = { # Radical Pony Faction Coup: Part 2
	id = OMO_aprilfools.14
	immediate = { log = "[GetDateText]: [Root.GetName]: event OMO_aprilfools.14" }
	title = OMO_aprilfools.14.t
	desc = OMO_aprilfools.14.desc
	picture = GFX_OMO_2022_event_picture_2
	
	is_triggered_only = yes
	fire_only_once = yes
	
	option = {
		name = OMO_aprilfools.14.a
		country_event = { id = OMO_aprilfools.15 days = 2 }
	}
}

country_event = { # Radical Pony Faction Coup: Part 3
	id = OMO_aprilfools.15
	immediate = { log = "[GetDateText]: [Root.GetName]: event OMO_aprilfools.15" }
	title = OMO_aprilfools.15.t
	desc = OMO_aprilfools.15.desc
	picture = GFX_OMO_2022_event_picture_2
	
	is_triggered_only = yes
	fire_only_once = yes
	
	option = {
		name = OMO_aprilfools.15.a
		retire_character = OMO_2022_Nikolai_Buckharin
		set_politics = {
			ruling_party = social_democracy
		}
		add_ideas = OMO_2022_end_of_harmony
		custom_effect_tooltip = OMO_aprilfools.15.a.tt
		hidden_effect = {
			add_country_leader_role = {
				character = OMO_2022_Various_Leaders
				promote_leader = yes
				country_leader = {
					ideology = communist_harmonism_subtype
					expire = 1999.1.1
					traits = { shattered_leadership }
					desc = "OMO_2022_Various_Leaders"
				}
			}
			add_popularity = {
				ideology = social_democracy
				popularity = 0.5
			}
			load_focus_tree = shattered_ambitions
			remove_dynamic_modifier = { modifier = OMO_2022_crystal_buffs }
			remove_all_ministers = yes
			fill_empty_minister = yes
			remove_ideas = {
				OMO_2022_an_interspecies_army
				OMO_2022_an_infant_ideology
				OMO_2022_an_infant_ideology_2
				OMO_2022_an_infant_ideology_3
				OMO_2022_first_pony_congress_of_harmonious_union
				OMO_2022_first_pony_congress_of_harmonious_union_2
				OMO_2022_first_pony_congress_of_harmonious_union_3
				OMO_2022_a_harmonious_society
				OMO_2022_a_harmonious_society_2
			}
			every_country = {
				news_event = { id = OMO_aprilfools_news.4 days = 2 }
			}
		}
	}
}

# Helper to prevent nukes from replaying everytime a save is loaded.
country_event = {
	id = OMO_aprilfools.16
	immediate = {
		log = "[GetDateText]: [Root.GetName]: event OMO_aprilfools.16"
		set_entity_animation = { 
		   id = 0401446
		   animation = "idle"
		}
	}
	is_triggered_only = yes
	hidden = yes
}	

## Warlord Tree ##
add_namespace = OMO_aprilfools_warlord

country_event = { # OMO_in_the_endless_tundra
	id = OMO_aprilfools_warlord.1
	immediate = { log = "[GetDateText]: [Root.GetName]: event OMO_aprilfools_warlord.1" }
	title = OMO_aprilfools_warlord.1.t
	desc = OMO_aprilfools_warlord.1.desc
	picture = GFX_OMO_2022_event_picture_6
	
	is_triggered_only = yes
	fire_only_once = yes
	
	option = { #
		name = OMO_aprilfools_warlord.1.a
		ai_chance = { factor = 1 }
		custom_effect_tooltip = OMO_aprilfools_warlord.1.a.tt
		hidden_effect = {
			644 = {
				set_state_name = "STATE_644_pony"
				set_province_name = {
					id = 4455
					name = VICTORY_POINTS_4455_pony
				}
			}
			set_cosmetic_tag = OMO_Harmonious_State
			OMO_2022_Nikolai_Buckharin = {
				set_portraits = {
					civilian = { large = "gfx/leaders/OMO_2022_Aprilfools/Portrait_Pony_Nikolai_Buckharin.dds" }
				}
			}
			set_popularities = {
				communist = 62
				socialist = 19
				social_democracy = 19
			}
			set_politics = {
				ruling_party = communist
			}
			set_country_leader_name = { name = OMO_2022_Nikolai_Buckharin_Revealed }
			set_country_leader_description = { desc = "POLITICS_PONY_BUCKHARIN_DESC" }
			
			TNO_improve_admin_efficiency = yes
			TNO_improve_admin_efficiency = yes
			set_temp_variable = { TNO_economy_subtype_temp = 2 }
			econ_subtype_change = yes
			set_temp_variable = { econ_centralization_temp = 50 }
			econ_centralization_change = yes
			every_country = {
				news_event = {
					id = OMO_aprilfools_news.1
				}
			}
		}
	}
}

country_event = { # OMO_a_pink_wind_in_the_far_north
	id = OMO_aprilfools_warlord.2
	immediate = { log = "[GetDateText]: [Root.GetName]: event OMO_aprilfools_warlord.2" }
	title = OMO_aprilfools_warlord.2.t
	desc = OMO_aprilfools_warlord.2.desc
	picture = GFX_OMO_2022_event_picture_6
	
	is_triggered_only = yes
	fire_only_once = yes
	
	option = { #
		name = OMO_aprilfools_warlord.2.a
		ai_chance = { factor = 1 }
		
	}
}

country_event = { # OMO_rally_the_old_guard
	id = OMO_aprilfools_warlord.3
	immediate = { log = "[GetDateText]: [Root.GetName]: event OMO_aprilfools_warlord.3" }
	title = OMO_aprilfools_warlord.3.t
	desc = OMO_aprilfools_warlord.3.desc
	picture = GFX_OMO_2022_event_picture_2
	
	is_triggered_only = yes
	fire_only_once = yes
	
	option = { #
		name = OMO_aprilfools_warlord.3.a
		ai_chance = { factor = 1 }
		
	}
}

country_event = { # OMO_convince_the_new
	id = OMO_aprilfools_warlord.4
	immediate = { log = "[GetDateText]: [Root.GetName]: event OMO_aprilfools_warlord.4" }
	title = OMO_aprilfools_warlord.4.t
	desc = OMO_aprilfools_warlord.4.desc
	picture = GFX_OMO_2022_event_picture_2
	
	is_triggered_only = yes
	fire_only_once = yes
	
	option = { #
		name = OMO_aprilfools_warlord.4.a
		ai_chance = { factor = 1 }
		
	}
}

country_event = { # OMO_the_first_all_ponies_council_of_the_harmonic_union
	id = OMO_aprilfools_warlord.5
	immediate = { log = "[GetDateText]: [Root.GetName]: event OMO_aprilfools_warlord.5" }
	title = OMO_aprilfools_warlord.5.t
	desc = OMO_aprilfools_warlord.5.desc
	picture = GFX_OMO_2022_event_picture_2
	
	is_triggered_only = yes
	fire_only_once = yes
	
	option = { #
		name = OMO_aprilfools_warlord.5.a
		ai_chance = { factor = 1 }
		
	}
}

country_event = { # OMO_expanding_the_crystal_mines
	id = OMO_aprilfools_warlord.6
	immediate = { log = "[GetDateText]: [Root.GetName]: event OMO_aprilfools_warlord.6" }
	title = OMO_aprilfools_warlord.6.t
	desc = OMO_aprilfools_warlord.6.desc
	picture = GFX_report_event_Generic_Miner
	
	is_triggered_only = yes
	fire_only_once = yes
	
	option = { #
		name = OMO_aprilfools_warlord.6.a
		ai_chance = { factor = 1 }
		
	}
}

country_event = { # OMO_search_for_new_sources
	id = OMO_aprilfools_warlord.7
	immediate = { log = "[GetDateText]: [Root.GetName]: event OMO_aprilfools_warlord.7" }
	title = OMO_aprilfools_warlord.7.t
	desc = OMO_aprilfools_warlord.7.desc
	picture = GFX_report_event_russia_kazakh_uranium_mine
	
	is_triggered_only = yes
	fire_only_once = yes
	
	option = { #
		name = OMO_aprilfools_warlord.7.a
		ai_chance = { factor = 1 }
		
	}
}

country_event = { # OMO_send_workers_to_the_mines
	id = OMO_aprilfools_warlord.8
	immediate = { log = "[GetDateText]: [Root.GetName]: event OMO_aprilfools_warlord.8" }
	title = OMO_aprilfools_warlord.8.t
	desc = OMO_aprilfools_warlord.8.desc
	picture = GFX_report_event_cog_mines_3
	
	is_triggered_only = yes
	fire_only_once = yes
	
	option = { #
		name = OMO_aprilfools_warlord.8.a
		ai_chance = { factor = 1 }
		
	}
}

country_event = { # OMO_the_crystals_miners_trade_union
	id = OMO_aprilfools_warlord.9
	immediate = { log = "[GetDateText]: [Root.GetName]: event OMO_aprilfools_warlord.9" }
	title = OMO_aprilfools_warlord.9.t
	desc = OMO_aprilfools_warlord.9.desc
	picture = GFX_OMO_2022_event_picture_7
	
	is_triggered_only = yes
	fire_only_once = yes
	
	option = { #
		name = OMO_aprilfools_warlord.9.a
		ai_chance = { factor = 1 }
		
	}
}

country_event = { # OMO_delay_labor_organization
	id = OMO_aprilfools_warlord.10
	immediate = { log = "[GetDateText]: [Root.GetName]: event OMO_aprilfools_warlord.10" }
	title = OMO_aprilfools_warlord.10.t
	desc = OMO_aprilfools_warlord.10.desc
	picture = GFX_OMO_2022_event_picture_7
	
	is_triggered_only = yes
	fire_only_once = yes
	
	option = { #
		name = OMO_aprilfools_warlord.10.a
		ai_chance = { factor = 1 }
		
	}
}

country_event = { # OMO_alernative_uses
	id = OMO_aprilfools_warlord.11
	immediate = { log = "[GetDateText]: [Root.GetName]: event OMO_aprilfools_warlord.11" }
	title = OMO_aprilfools_warlord.11.t
	desc = OMO_aprilfools_warlord.11.desc
	picture = GFX_OMO_2022_event_picture_8
	
	is_triggered_only = yes
	fire_only_once = yes
	
	option = { #
		name = OMO_aprilfools_warlord.11.a
		ai_chance = { factor = 1 }
		
	}
}

country_event = { # OMO_the_councils_inaugural_session
	id = OMO_aprilfools_warlord.12
	immediate = { log = "[GetDateText]: [Root.GetName]: event OMO_aprilfools_warlord.12" }
	title = OMO_aprilfools_warlord.12.t
	desc = OMO_aprilfools_warlord.12.desc
	picture = GFX_OMO_2022_event_picture_2
	
	is_triggered_only = yes
	fire_only_once = yes
	
	option = { #
		name = OMO_aprilfools_warlord.12.a
		ai_chance = { factor = 1 }
		
	}
}

country_event = { # OMO_offer_ponification
	id = OMO_aprilfools_warlord.13
	immediate = { log = "[GetDateText]: [Root.GetName]: event OMO_aprilfools_warlord.13" }
	title = OMO_aprilfools_warlord.13.t
	desc = OMO_aprilfools_warlord.13.desc
	picture = GFX_OMO_2022_event_picture_9
	
	is_triggered_only = yes
	fire_only_once = yes
	
	option = { #
		name = OMO_aprilfools_warlord.13.a
		ai_chance = { factor = 1 }
		
	}
}

country_event = { # OMO_only_ponies_in_charge
	id = OMO_aprilfools_warlord.14
	immediate = { log = "[GetDateText]: [Root.GetName]: event OMO_aprilfools_warlord.14" }
	title = OMO_aprilfools_warlord.14.t
	desc = OMO_aprilfools_warlord.14.desc
	picture = GFX_OMO_2022_event_picture_2
	
	is_triggered_only = yes
	fire_only_once = yes
	
	option = { #
		name = OMO_aprilfools_warlord.14.a
		ai_chance = { factor = 1 }
		
	}
}

country_event = { # OMO_admit_the_holdouts
	id = OMO_aprilfools_warlord.15
	immediate = { log = "[GetDateText]: [Root.GetName]: event OMO_aprilfools_warlord.15" }
	title = OMO_aprilfools_warlord.15.t
	desc = OMO_aprilfools_warlord.15.desc
	picture = GFX_OMO_2022_event_picture_2
	
	is_triggered_only = yes
	fire_only_once = yes
	
	option = { #
		name = OMO_aprilfools_warlord.15.a
		ai_chance = { factor = 1 }
		
	}
}

country_event = { # OMO_defining_harmony
	id = OMO_aprilfools_warlord.16
	immediate = { log = "[GetDateText]: [Root.GetName]: event OMO_aprilfools_warlord.16" }
	title = OMO_aprilfools_warlord.16.t
	desc = OMO_aprilfools_warlord.16.desc
	picture = GFX_OMO_2022_event_picture_2
	
	is_triggered_only = yes
	fire_only_once = yes
	
	option = { #
		name = OMO_aprilfools_warlord.16.a
		ai_chance = { factor = 1 }
		
	}
}

country_event = { # OMO_spreading_the_word
	id = OMO_aprilfools_warlord.17
	immediate = { log = "[GetDateText]: [Root.GetName]: event OMO_aprilfools_warlord.17" }
	title = OMO_aprilfools_warlord.17.t
	desc = OMO_aprilfools_warlord.17.desc
	picture = GFX_OMO_2022_event_picture_12
	
	is_triggered_only = yes
	fire_only_once = yes
	
	option = { #
		name = OMO_aprilfools_warlord.17.a
		ai_chance = { factor = 1 }
		
	}
}

country_event = { # OMO_a_utopian_ideal
	id = OMO_aprilfools_warlord.18
	immediate = { log = "[GetDateText]: [Root.GetName]: event OMO_aprilfools_warlord.18" }
	title = OMO_aprilfools_warlord.18.t
	desc = OMO_aprilfools_warlord.18.desc
	picture = GFX_report_event_siberia
	
	is_triggered_only = yes
	fire_only_once = yes
	
	option = { #
		name = OMO_aprilfools_warlord.18.a
		ai_chance = { factor = 1 }
		
	}
}

country_event = { # OMO_the_new_pink_army
	id = OMO_aprilfools_warlord.19
	immediate = { log = "[GetDateText]: [Root.GetName]: event OMO_aprilfools_warlord.19" }
	title = OMO_aprilfools_warlord.19.t
	desc = OMO_aprilfools_warlord.19.desc
	picture = GFX_OMO_2022_event_picture_13
	
	is_triggered_only = yes
	fire_only_once = yes
	
	option = { #
		name = OMO_aprilfools_warlord.19.a
		ai_chance = { factor = 1 }
		
	}
}

country_event = { # OMO_create_the_pony_brigades
	id = OMO_aprilfools_warlord.20
	immediate = { log = "[GetDateText]: [Root.GetName]: event OMO_aprilfools_warlord.20" }
	title = OMO_aprilfools_warlord.20.t
	desc = OMO_aprilfools_warlord.20.desc
	picture = GFX_OMO_2022_event_picture_13
	
	is_triggered_only = yes
	fire_only_once = yes
	
	option = { #
		name = OMO_aprilfools_warlord.20.a
		ai_chance = { factor = 1 }
		
	}
}

country_event = { # OMO_the_human_volunteers
	id = OMO_aprilfools_warlord.21
	immediate = { log = "[GetDateText]: [Root.GetName]: event OMO_aprilfools_warlord.21" }
	title = OMO_aprilfools_warlord.21.t
	desc = OMO_aprilfools_warlord.21.desc
	picture = GFX_report_event_russian_volunteers
	
	is_triggered_only = yes
	fire_only_once = yes
	
	option = { #
		name = OMO_aprilfools_warlord.21.a
		ai_chance = { factor = 1 }
		
	}
}

country_event = { # OMO_rifles_for_hooves
	id = OMO_aprilfools_warlord.22
	immediate = { log = "[GetDateText]: [Root.GetName]: event OMO_aprilfools_warlord.22" }
	title = OMO_aprilfools_warlord.22.t
	desc = OMO_aprilfools_warlord.22.desc
	picture = GFX_OMO_2022_event_picture_1
	
	is_triggered_only = yes
	fire_only_once = yes
	
	option = { #
		name = OMO_aprilfools_warlord.22.a
		ai_chance = { factor = 1 }
		
	}
}

country_event = { # OMO_rifles_for_hands
	id = OMO_aprilfools_warlord.23
	immediate = { log = "[GetDateText]: [Root.GetName]: event OMO_aprilfools_warlord.23" }
	title = OMO_aprilfools_warlord.23.t
	desc = OMO_aprilfools_warlord.23.desc
	picture = GFX_report_event_crate_of_guns_bolt_action
	
	is_triggered_only = yes
	fire_only_once = yes
	
	option = { #
		name = OMO_aprilfools_warlord.23.a
		ai_chance = { factor = 1 }
		
	}
}

country_event = { # OMO_interspecies_cooperation
	id = OMO_aprilfools_warlord.24
	immediate = { log = "[GetDateText]: [Root.GetName]: event OMO_aprilfools_warlord.24" }
	title = OMO_aprilfools_warlord.24.t
	desc = OMO_aprilfools_warlord.24.desc
	picture = GFX_OMO_2022_event_picture_13
	
	is_triggered_only = yes
	fire_only_once = yes
	
	option = { #
		name = OMO_aprilfools_warlord.24.a
		ai_chance = { factor = 1 }
		
	}
}

country_event = { # OMO_the_first_trial
	id = OMO_aprilfools_warlord.25
	immediate = { log = "[GetDateText]: [Root.GetName]: event OMO_aprilfools_warlord.25" }
	title = OMO_aprilfools_warlord.25.t
	desc = OMO_aprilfools_warlord.25.desc
	picture = GFX_OMO_2022_event_picture_13
	
	is_triggered_only = yes
	fire_only_once = yes
	
	option = { #
		name = OMO_aprilfools_warlord.25.a
		ai_chance = { factor = 1 }
		
	}
}

country_event = { # OMO_a_beacon_in_the_north
	id = OMO_aprilfools_warlord.26
	immediate = { log = "[GetDateText]: [Root.GetName]: event OMO_aprilfools_warlord.26" }
	title = OMO_aprilfools_warlord.26.t
	desc = OMO_aprilfools_warlord.26.desc
	picture = GFX_OMO_2022_event_picture_2
	
	is_triggered_only = yes
	fire_only_once = yes
	
	option = { #
		name = OMO_aprilfools_warlord.26.a
		ai_chance = { factor = 1 }
		hidden_effect = {
			load_focus_tree = OMO_april_fools_opening_2
		}
	}
}

country_event = { # OMO_looking_outwards 1/2
	id = OMO_aprilfools_warlord.27
	immediate = { log = "[GetDateText]: [Root.GetName]: event OMO_aprilfools_warlord.27" }
	title = OMO_aprilfools_warlord.27.t
	desc = OMO_aprilfools_warlord.27.desc
	picture = GFX_report_event_italy_naval_ship
	
	is_triggered_only = yes
	fire_only_once = yes
	
	option = { #
		name = OMO_aprilfools_warlord.27.a
		ai_chance = { factor = 1 }
	}
}

country_event = { # OMO_looking_outwards 2/2
	id = OMO_aprilfools_warlord.28
	immediate = { log = "[GetDateText]: [Root.GetName]: event OMO_aprilfools_warlord.28" }
	title = OMO_aprilfools_warlord.28.t
	desc = OMO_aprilfools_warlord.28.desc
	picture = GFX_OMO_2022_event_picture_14
	
	is_triggered_only = yes
	fire_only_once = yes
	
	option = { #
		name = OMO_aprilfools_warlord.28.a
		ai_chance = { factor = 1 }
		annex_country = {
			target = KMC
			transfer_troops = no
		}
		add_naval_commander_role = {
			character = OMO_2022_Ivan_Yumashev
			traits = { fleet_protector }
			skill = 3
			attack_skill = 3
			defense_skill = 2
			maneuvering_skill = 1
			coordination_skill = 1
		}
	}
}

country_event = { # OMO_painting_the_red_fleet_pink
	id = OMO_aprilfools_warlord.29
	immediate = { log = "[GetDateText]: [Root.GetName]: event OMO_aprilfools_warlord.29" }
	title = OMO_aprilfools_warlord.29.t
	desc = OMO_aprilfools_warlord.29.desc
	picture = GFX_report_event_italy_naval_ship
	
	is_triggered_only = yes
	fire_only_once = yes
	
	option = { # Make a fleet
		name = OMO_aprilfools_warlord.29.a
		ai_chance = { factor = 1 }
		custom_effect_tooltip = OMO_aprilfools_warlord.29.a.tt
		hidden_effect = {
			if = {
				limit = {
					has_dlc = "Man the Guns"
				}
				load_oob = "KMC_1962_naval_mtg"
			}
			else = {
				load_oob = "KMC_1962_naval"
			}
		}
	}
	option = { # Sell for money
		name = OMO_aprilfools_warlord.29.b
		ai_chance = { factor = 1 }
		set_temp_variable = { temp_gdp_gained = 0.1 }
		econ_money_reserves_change_percent_gdp = yes
	}
}

country_event = { # OMO_speak_to_the_masses
	id = OMO_aprilfools_warlord.30
	immediate = { log = "[GetDateText]: [Root.GetName]: event OMO_aprilfools_warlord.30" }
	title = OMO_aprilfools_warlord.30.t
	desc = OMO_aprilfools_warlord.30.desc
	picture = GFX_OMO_2022_event_picture_15
	
	is_triggered_only = yes
	fire_only_once = yes
	
	option = { #
		name = OMO_aprilfools_warlord.30.a
		ai_chance = { factor = 1 }
		add_stability = 0.05
	}
}

country_event = { # OMO_ponies_at_the_ready
	id = OMO_aprilfools_warlord.31
	immediate = { log = "[GetDateText]: [Root.GetName]: event OMO_aprilfools_warlord.31" }
	title = OMO_aprilfools_warlord.31.t
	desc = OMO_aprilfools_warlord.31.desc
	picture = GFX_OMO_2022_event_picture_8
	
	is_triggered_only = yes
	fire_only_once = yes
	
	option = { #
		name = OMO_aprilfools_warlord.31.a
		ai_chance = { factor = 1 }
		set_country_flag = OMO_2022_warlord_tree_2_phase_2
		mark_focus_tree_layout_dirty = yes
		complete_national_focus = OMO_the_issue_of_parasprites
	}
}

country_event = { # OMO_damage_report
	id = OMO_aprilfools_warlord.32
	immediate = { log = "[GetDateText]: [Root.GetName]: event OMO_aprilfools_warlord.32" }
	title = OMO_aprilfools_warlord.32.t
	desc = OMO_aprilfools_warlord.32.desc
	picture = GFX_OMO_2022_event_picture_8
	
	is_triggered_only = yes
	fire_only_once = yes
	
	option = { #
		name = OMO_aprilfools_warlord.32.a
		ai_chance = { factor = 1 }
	}
}

country_event = { # OMO_building_the_gateway
	id = OMO_aprilfools_warlord.33
	immediate = { log = "[GetDateText]: [Root.GetName]: event OMO_aprilfools_warlord.33" }
	title = OMO_aprilfools_warlord.33.t
	desc = OMO_aprilfools_warlord.33.desc
	picture = GFX_OMO_2022_event_picture_16
	
	is_triggered_only = yes
	fire_only_once = yes
	
	option = { #
		name = OMO_aprilfools_warlord.33.a
		custom_effect_tooltip = OMO_aprilfools_warlord.33.a.tt
		ai_chance = { factor = 1 }
	}
}

country_event = { # OMO_observing_the_other_world
	id = OMO_aprilfools_warlord.34
	immediate = { log = "[GetDateText]: [Root.GetName]: event OMO_aprilfools_warlord.34" }
	title = OMO_aprilfools_warlord.34.t
	desc = OMO_aprilfools_warlord.34.desc
	picture = GFX_OMO_2022_event_picture_11
	
	is_triggered_only = yes
	fire_only_once = yes
	
	option = { #
		name = OMO_aprilfools_warlord.34.a
		ai_chance = { factor = 1 }
	}
}

country_event = { # OMO_first_contact_protocols
	id = OMO_aprilfools_warlord.35
	immediate = { log = "[GetDateText]: [Root.GetName]: event OMO_aprilfools_warlord.35" }
	title = OMO_aprilfools_warlord.35.t
	desc = OMO_aprilfools_warlord.35.desc
	picture = GFX_OMO_2022_event_picture_11
	
	is_triggered_only = yes
	fire_only_once = yes
	
	option = { #
		name = OMO_aprilfools_warlord.35.a
		ai_chance = { factor = 1 }
	}
}

country_event = { # OMO_introducing_ourselves 1/3
	id = OMO_aprilfools_warlord.36
	immediate = { log = "[GetDateText]: [Root.GetName]: event OMO_aprilfools_warlord.36" }
	title = OMO_aprilfools_warlord.36.t
	desc = OMO_aprilfools_warlord.36.desc
	#picture = 
	
	is_triggered_only = yes
	fire_only_once = yes
	
	option = { #
		name = OMO_aprilfools_warlord.36.a
		ai_chance = { factor = 1 }
		country_event = { id = OMO_aprilfools_warlord.37 days = 3 }
	}
}

country_event = { # OMO_introducing_ourselves 2/3
	id = OMO_aprilfools_warlord.37
	immediate = { log = "[GetDateText]: [Root.GetName]: event OMO_aprilfools_warlord.37" }
	title = OMO_aprilfools_warlord.37.t
	desc = OMO_aprilfools_warlord.37.desc
	#picture = 
	
	is_triggered_only = yes
	fire_only_once = yes
	
	option = { #
		name = OMO_aprilfools_warlord.37.a
		ai_chance = { factor = 1 }
		country_event = { id = OMO_aprilfools_warlord.38 days = 3 }
	}
}

country_event = { # OMO_introducing_ourselves 3/3
	id = OMO_aprilfools_warlord.38
	immediate = { log = "[GetDateText]: [Root.GetName]: event OMO_aprilfools_warlord.38" }
	title = OMO_aprilfools_warlord.38.t
	desc = OMO_aprilfools_warlord.38.desc
	#picture = 
	
	is_triggered_only = yes
	fire_only_once = yes
	
	option = { #
		name = OMO_aprilfools_warlord.38.a
		ai_chance = { factor = 1 }
	}
}

country_event = { # OMO_the_treaty_of_stalliongrad
	id = OMO_aprilfools_warlord.39
	immediate = { log = "[GetDateText]: [Root.GetName]: event OMO_aprilfools_warlord.39" }
	title = OMO_aprilfools_warlord.39.t
	desc = OMO_aprilfools_warlord.39.desc
	#picture = 
	
	is_triggered_only = yes
	fire_only_once = yes
	
	option = { #
		name = OMO_aprilfools_warlord.39.a
		add_political_power = 15
		add_field_marshal_role = {
			character = OMO_2022_Nestor_Lunin
			traits = { brilliant_strategist cavalry_leader }
			skill = 4
			attack_skill = 3
			defense_skill = 4
			planning_skill = 4
			logistics_skill = 3
		}
		add_corps_commander_role = {
			character = OMO_2022_Its_a_fucking_BT7
			traits = { trait_reckless panzer_leader }
			skill = 3
			attack_skill = 3
			defense_skill = 2
			planning_skill = 4
			logistics_skill = 1
			desc = "OMO_2022_Its_a_fucking_BT7_desc"
		}
		ai_chance = { factor = 1 }
	}
}


## Regional Tree ##
add_namespace = OMO_aprilfools_regional

country_event = { # Crisis intro pt. 1
	id = OMO_aprilfools_regional.1
	immediate = { log = "[GetDateText]: [Root.GetName]: event OMO_aprilfools_regional.1" }
	title = OMO_aprilfools_regional.1.t
	desc = OMO_aprilfools_regional.1.desc
	picture = GFX_OMO_2022_event_picture_15
	
	is_triggered_only = yes
	fire_only_once = yes
	
	option = { #
		name = OMO_aprilfools_regional.1.a
		ai_chance = { factor = 1 }
		country_event = { id = OMO_aprilfools_regional.2 days = 2 }
	}
}

country_event = { # Crisis intro pt. 2
	id = OMO_aprilfools_regional.2
	immediate = { log = "[GetDateText]: [Root.GetName]: event OMO_aprilfools_regional.2" }
	title = OMO_aprilfools_regional.2.t
	desc = OMO_aprilfools_regional.2.desc
	#picture = 
	
	is_triggered_only = yes
	fire_only_once = yes
	
	option = { #
		name = OMO_aprilfools_regional.2.a
		ai_chance = { factor = 1 }
		remove_ideas = OMO_2022_Alexei_Rykov_hog
		country_event = { id = OMO_aprilfools_regional.3 days = 2 }
		hidden_effect = {
			add_ideas = OMO_Generic_Vacant_hog
		}
	}
}

country_event = { # Crisis intro pt. 3
	id = OMO_aprilfools_regional.3
	immediate = { log = "[GetDateText]: [Root.GetName]: event OMO_aprilfools_regional.3" }
	title = OMO_aprilfools_regional.3.t
	desc = OMO_aprilfools_regional.3.desc
	picture = GFX_OMO_2022_event_picture_1
	
	is_triggered_only = yes
	fire_only_once = yes
	
	option = { #
		name = OMO_aprilfools_regional.3.a
		ai_chance = { factor = 1 }
		
		custom_effect_tooltip = OMO_aprilfools_regional.3.a.tt
		
		hidden_effect = {
			set_variable = { OMO_2022_crisis_human_influence = 60 }
			OMO_2022_crisis_calculate_influences = yes
			set_country_flag = OMO_2022_crisis_mech_active
			activate_mission = OMO_2022_crisis_random_variance
			
			clr_country_flag = OMO_2022_warlord_tree_2_phase_2
			load_focus_tree = OMO_april_fools_regional
		}
	}
}

country_event = { # OMO_the_ponies_of_russia: Buckharin loses sway over the radical ponies of the party
	id = OMO_aprilfools_regional.4
	immediate = { log = "[GetDateText]: [Root.GetName]: event OMO_aprilfools_regional.4" }
	title = OMO_aprilfools_regional.4.t
	desc = OMO_aprilfools_regional.4.desc
	picture = GFX_OMO_2022_event_picture_2
	
	is_triggered_only = yes
	fire_only_once = yes
	
	option = { #
		name = OMO_aprilfools_regional.4.a
		ai_chance = { factor = 1 }
		
		custom_effect_tooltip = OMO_aprilfools_regional.4.a.tt
		
		hidden_effect = {
			OMO_2022_Nikolai_Buckharin = {
				remove_country_leader_role = {
					ideology = social_democracy_subtype
				}
			}
			OMO_2022_Various_Leaders = {
				add_country_leader_role = {
					promote_leader = yes
					country_leader = {
						ideology = social_democracy_subtype
						expire = 1999.1.1
						traits = { utterly_abandoned }
						desc = "POLITICS_VARIOUS_LEADERS_OMO_2022_DESC"
					}
				}
			}
		}
	}
}

country_event = { # OMO_the_humans_that_remain: Alexander Men introduction
	id = OMO_aprilfools_regional.5
	immediate = { log = "[GetDateText]: [Root.GetName]: event OMO_aprilfools_regional.5" }
	title = OMO_aprilfools_regional.5.t
	desc = OMO_aprilfools_regional.5.desc
	picture = GFX_OMO_2022_event_picture_5
	
	is_triggered_only = yes
	fire_only_once = yes
	
	option = { #
		name = OMO_aprilfools_regional.5.a
		ai_chance = { factor = 1 }
		hidden_effect = {
			OMO_2022_Nikolai_Buckharin = {
				remove_country_leader_role = {
					ideology = socialist_subtype
				}
			}
		}
		add_country_leader_role = {
			character = OMO_Alexander_Men
			promote_leader = yes
			country_leader = {
				ideology = socialist_christian_socialism_subtype
				expire = 1999.1.1
				desc = "POLITICS_ALEXANDER_MEN_OMO_2022_DESC"
			}
		}
	}
}

country_event = { # OMO_chaos_in_the_supreme_soviet
	id = OMO_aprilfools_regional.6
	immediate = { log = "[GetDateText]: [Root.GetName]: event OMO_aprilfools_regional.6" }
	title = OMO_aprilfools_regional.6.t
	desc = OMO_aprilfools_regional.6.desc
	picture = GFX_OMO_2022_event_picture_2
	
	is_triggered_only = yes
	fire_only_once = yes
	
	option = { #
		name = OMO_aprilfools_regional.6.a
		ai_chance = { factor = 1 }
		
	}
}

country_event = { # OMO_calls_for_action
	id = OMO_aprilfools_regional.7
	immediate = { log = "[GetDateText]: [Root.GetName]: event OMO_aprilfools_regional.7" }
	title = OMO_aprilfools_regional.7.t
	desc = OMO_aprilfools_regional.7.desc
	#picture = 
	
	is_triggered_only = yes
	fire_only_once = yes
	
	option = { # Pro Pony
		name = OMO_aprilfools_regional.7.a
		ai_chance = { factor = 1 }
		set_temp_variable = { temp_influence = -7.5 }
		OMO_2022_crisis_manipulate_influence = yes
	}
	option = { # Pro Human
		name = OMO_aprilfools_regional.7.b
		ai_chance = { factor = 1 }
		set_temp_variable = { temp_influence = 2.5 }
		OMO_2022_crisis_manipulate_influence = yes
	}
}

country_event = { # OMO_speak_to_the_ponies
	id = OMO_aprilfools_regional.8
	immediate = { log = "[GetDateText]: [Root.GetName]: event OMO_aprilfools_regional.8" }
	title = OMO_aprilfools_regional.8.t
	desc = OMO_aprilfools_regional.8.desc
	picture = GFX_OMO_2022_event_picture_15
	
	is_triggered_only = yes
	fire_only_once = yes
	
	option = { # Pro Pony
		name = OMO_aprilfools_regional.8.a
		ai_chance = { factor = 1 }
		set_temp_variable = { temp_influence = -5 }
		OMO_2022_crisis_manipulate_influence = yes
	}
	option = { # Pro Human
		name = OMO_aprilfools_regional.8.b
		ai_chance = { factor = 1 }
		set_temp_variable = { temp_influence = 5 }
		OMO_2022_crisis_manipulate_influence = yes
	}
}

country_event = { # OMO_the_human_delegation
	id = OMO_aprilfools_regional.9
	immediate = { log = "[GetDateText]: [Root.GetName]: event OMO_aprilfools_regional.9" }
	title = OMO_aprilfools_regional.9.t
	desc = OMO_aprilfools_regional.9.desc
	picture = GFX_OMO_2022_event_picture_5
	
	is_triggered_only = yes
	fire_only_once = yes
	
	option = { # Pro Pony
		name = OMO_aprilfools_regional.9.a
		ai_chance = { factor = 1 }
		set_temp_variable = { temp_influence = -5 }
		OMO_2022_crisis_manipulate_influence = yes
	}
	option = { # Pro Human
		name = OMO_aprilfools_regional.9.b
		ai_chance = { factor = 1 }
		set_temp_variable = { temp_influence = 5 }
		OMO_2022_crisis_manipulate_influence = yes
	}
}

country_event = { # OMO_the_general_strike
	id = OMO_aprilfools_regional.10
	immediate = { log = "[GetDateText]: [Root.GetName]: event OMO_aprilfools_regional.10" }
	title = OMO_aprilfools_regional.10.t
	desc = OMO_aprilfools_regional.10.desc
	picture = GFX_report_event_iberia_algeria_protest
	
	is_triggered_only = yes
	fire_only_once = yes
	
	option = { # Pro Pony
		name = OMO_aprilfools_regional.10.a
		ai_chance = { factor = 1 }
		set_temp_variable = { temp_influence = -2.5 }
		OMO_2022_crisis_manipulate_influence = yes
	}
	option = { # Pro Human
		name = OMO_aprilfools_regional.10.b
		ai_chance = { factor = 1 }
		set_temp_variable = { temp_influence = 7.5 }
		OMO_2022_crisis_manipulate_influence = yes
	}
}

country_event = { # OMO_we_havent_gone_far_enough
	id = OMO_aprilfools_regional.11
	immediate = { log = "[GetDateText]: [Root.GetName]: event OMO_aprilfools_regional.11" }
	title = OMO_aprilfools_regional.11.t
	desc = OMO_aprilfools_regional.11.desc
	picture = GFX_OMO_2022_event_picture_15
	
	is_triggered_only = yes
	fire_only_once = yes
	
	option = { #
		name = OMO_aprilfools_regional.11.a
		ai_chance = { factor = 1 }
		
	}
}

country_event = { # OMO_talking_things_out
	id = OMO_aprilfools_regional.12
	immediate = { log = "[GetDateText]: [Root.GetName]: event OMO_aprilfools_regional.12" }
	title = OMO_aprilfools_regional.12.t
	desc = OMO_aprilfools_regional.12.desc
	#picture = 
	
	is_triggered_only = yes
	fire_only_once = yes
	
	option = { #
		name = OMO_aprilfools_regional.12.a
		ai_chance = { factor = 1 }
		
	}
}

country_event = { # OMO_weve_gone_too_far
	id = OMO_aprilfools_regional.13
	immediate = { log = "[GetDateText]: [Root.GetName]: event OMO_aprilfools_regional.13" }
	title = OMO_aprilfools_regional.13.t
	desc = OMO_aprilfools_regional.13.desc
	#picture = 
	
	is_triggered_only = yes
	fire_only_once = yes
	
	option = { #
		name = OMO_aprilfools_regional.13.a
		ai_chance = { factor = 1 }
		
	}
}

country_event = { # OMO_conflict_resolution_is_magic: Part 1
	id = OMO_aprilfools_regional.14
	immediate = { log = "[GetDateText]: [Root.GetName]: event OMO_aprilfools_regional.14" }
	title = OMO_aprilfools_regional.14.t
	desc = OMO_aprilfools_regional.14.desc
	picture = GFX_OMO_2022_event_picture_15
	
	is_triggered_only = yes
	fire_only_once = yes
	
	option = { #
		name = OMO_aprilfools_regional.14.a
		ai_chance = { factor = 1 }
		
		custom_effect_tooltip = OMO_aprilfools_regional.14.a.tt
		
		clr_country_flag = OMO_2022_crisis_mech_active
		hidden_effect = {
			country_event = { id = OMO_aprilfools_regional.15 days = 2 }
			remove_mission = OMO_2022_crisis_random_variance
		}
	}
}

country_event = { # OMO_conflict_resolution_is_magic: Part 2
	id = OMO_aprilfools_regional.15
	immediate = { log = "[GetDateText]: [Root.GetName]: event OMO_aprilfools_regional.15" }
	title = OMO_aprilfools_regional.15.t
	desc = OMO_aprilfools_regional.15.desc
	picture = GFX_OMO_2022_event_picture_9
	
	is_triggered_only = yes
	fire_only_once = yes
	
	option = { #
		name = OMO_aprilfools_regional.15.a
		ai_chance = { factor = 1 }
		custom_effect_tooltip = OMO_aprilfools_regional.15.a.tt
		add_country_leader_trait = symbol_of_harmony
		custom_effect_tooltip = OMO_aprilfools_regional.15.2.a.tt
		set_country_flag = OMO_2022_regional_phase_2
		mark_focus_tree_layout_dirty = yes
		hidden_effect = {
			set_country_leader_description = { desc = "POLITICS_ALICORN_BUCKHARIN_DESC" }
			OMO_2022_Nikolai_Buckharin = {
				set_portraits = {
					civilian = {
						large = "gfx/leaders/OMO_2022_Aprilfools/Portrait_Pony_Nikolai_Buckharin_Alicorn.dds"
					}
				}
			}
			if = {
				limit = {
					OR = {
						has_idea = OMO_2022_crisis_human_unstable_1
						has_idea = OMO_2022_crisis_human_unstable_2
						has_idea = OMO_2022_crisis_human_unstable_3
					}
				}
				country_event = { id = OMO_aprilfools_regional.16 days = 14 }
			}
			if = {
				limit = {
					OR = {
						has_idea = OMO_2022_crisis_pony_unstable_1
						has_idea = OMO_2022_crisis_pony_unstable_2
						has_idea = OMO_2022_crisis_pony_unstable_3
					}
				}
				country_event = { id = OMO_aprilfools_regional.17 days = 30 }
			}
			country_event = {
				id = OMO_aprilfools.9 # Gay pony event
				days = 120
			}
		}
	}
}

country_event = {
	id = OMO_aprilfools_regional.16
	immediate = {log = "[GetDateText]: [Root.GetName]: event OMO_aprilfools_regional.16"}
	title = OMO_aprilfools_regional.16.t
	desc = OMO_aprilfools_regional.16.desc
	picture = GFX_report_event_iberia_algeria_protest
	is_triggered_only = yes

	option = {
		name = OMO_aprilfools_regional.16.a
		OMO_2022_crisis_decrease_human_breakdown = yes
		hidden_effect = {
			if = {
				limit = {
					OR = {
						has_idea = OMO_2022_crisis_human_unstable_1
						has_idea = OMO_2022_crisis_human_unstable_2
						has_idea = OMO_2022_crisis_human_unstable_3
					}
				}
				country_event = { id = OMO_aprilfools_regional.16 days = 30 }
			}
		}
	}
}

country_event = {
	id = OMO_aprilfools_regional.17
	immediate = {log = "[GetDateText]: [Root.GetName]: event OMO_aprilfools_regional.17"}
	title = OMO_aprilfools_regional.17.t
	desc = OMO_aprilfools_regional.17.desc
	picture = GFX_OMO_2022_event_picture_12
	is_triggered_only = yes

	option = {
		name = OMO_aprilfools_regional.17.a
		OMO_2022_crisis_decrease_pony_breakdown = yes
		hidden_effect = {
			if = {
				limit = {
					OR = {
						has_idea = OMO_2022_crisis_pony_unstable_1
						has_idea = OMO_2022_crisis_pony_unstable_2
						has_idea = OMO_2022_crisis_pony_unstable_3
					}
				}
				country_event = { id = OMO_aprilfools_regional.17 days = 30 }
			}
		}
	}
}

country_event = { # OMO_a_far_eastern_siberian_plan
	id = OMO_aprilfools_regional.18
	immediate = { log = "[GetDateText]: [Root.GetName]: event OMO_aprilfools_regional.18" }
	title = OMO_aprilfools_regional.18.t
	desc = OMO_aprilfools_regional.18.desc
	#picture = 
	
	is_triggered_only = yes
	fire_only_once = yes
	
	option = { #
		name = OMO_aprilfools_regional.18.a
		ai_chance = { factor = 1 }
		
	}
}

country_event = { # OMO_a_lesson_to_remember
	id = OMO_aprilfools_regional.19
	immediate = { log = "[GetDateText]: [Root.GetName]: event OMO_aprilfools_regional.19" }
	title = OMO_aprilfools_regional.19.t
	desc = OMO_aprilfools_regional.19.desc
	#picture = 
	
	is_triggered_only = yes
	fire_only_once = yes
	
	option = { #
		name = OMO_aprilfools_regional.19.a
		ai_chance = { factor = 1 }
		
	}
}

country_event = { # OMO_the_flight_of_the_pegasi
	id = OMO_aprilfools_regional.20
	immediate = { log = "[GetDateText]: [Root.GetName]: event OMO_aprilfools_regional.20" }
	title = OMO_aprilfools_regional.20.t
	desc = OMO_aprilfools_regional.20.desc
	picture = GFX_OMO_2022_event_picture_10
	
	is_triggered_only = yes
	fire_only_once = yes
	
	option = { #
		name = OMO_aprilfools_regional.20.a
		ai_chance = { factor = 1 }
		add_corps_commander_role = {
			character = OMO_2022_Yuri_Gagarin
			traits = { special_forces_leader brilliant_strategist cavalry_leader }
			skill = 3
			attack_skill = 4
			defense_skill = 3
			planning_skill = 1
			logistics_skill = 2
			desc = "OMO_2022_Yuri_Gagarin_desc"
		}
		custom_effect_tooltip = OMO_aprilfools_regional.20.a.tt
		hidden_effect = { load_oob = "OMO_yuri_gagarin" }
	}
}

country_event = { # OMO_a_message_to_germany
	id = OMO_aprilfools_regional.21
	immediate = { log = "[GetDateText]: [Root.GetName]: event OMO_aprilfools_regional.21" }
	title = OMO_aprilfools_regional.21.t
	desc = OMO_aprilfools_regional.21.desc
	picture = GFX_report_event_russian_letter
	
	is_triggered_only = yes
	fire_only_once = yes
	
	option = { #
		name = OMO_aprilfools_regional.21.a
		ai_chance = { factor = 1 }
		
	}
}

country_event = { # OMO_ponies_on_the_senate_floor
	id = OMO_aprilfools_regional.22
	immediate = { log = "[GetDateText]: [Root.GetName]: event OMO_aprilfools_regional.22" }
	title = OMO_aprilfools_regional.22.t
	desc = OMO_aprilfools_regional.22.desc
	picture = GFX_white_house_picture
	
	is_triggered_only = yes
	fire_only_once = yes
	
	option = { #
		name = OMO_aprilfools_regional.22.a
		ai_chance = { factor = 1 }
		
	}
}

country_event = { # OMO_an_alicorn_in_tokyo
	id = OMO_aprilfools_regional.23
	immediate = { log = "[GetDateText]: [Root.GetName]: event OMO_aprilfools_regional.23" }
	title = OMO_aprilfools_regional.23.t
	desc = OMO_aprilfools_regional.23.desc
	picture = GFX_report_event_japan_hirohito_2
	
	is_triggered_only = yes
	fire_only_once = yes
	
	option = { #
		name = OMO_aprilfools_regional.23.a
		ai_chance = { factor = 1 }
		
	}
}

country_event = { # OMO_the_old_dream
	id = OMO_aprilfools_regional.24
	immediate = { log = "[GetDateText]: [Root.GetName]: event OMO_aprilfools_regional.24" }
	title = OMO_aprilfools_regional.24.t
	desc = OMO_aprilfools_regional.24.desc
	picture = GFX_report_event_generic_communist_congress
	
	is_triggered_only = yes
	fire_only_once = yes
	
	option = { #
		name = OMO_aprilfools_regional.24.a
		ai_chance = { factor = 1 }
		
	}
}

country_event = { # OMO_inspired_by_harmony
	id = OMO_aprilfools_regional.25
	immediate = { log = "[GetDateText]: [Root.GetName]: event OMO_aprilfools_regional.25" }
	title = OMO_aprilfools_regional.25.t
	desc = OMO_aprilfools_regional.25.desc
	picture = GFX_OMO_2022_event_picture_12
	
	is_triggered_only = yes
	fire_only_once = yes
	
	option = { #
		name = OMO_aprilfools_regional.25.a
		ai_chance = { factor = 1 }
		
	}
}

country_event = { # OMO_the_grand_military_academy_of_magadan: USA
	id = OMO_aprilfools_regional.26
	immediate = { log = "[GetDateText]: [Root.GetName]: event OMO_aprilfools_regional.26" }
	title = OMO_aprilfools_regional.26.t
	desc = OMO_aprilfools_regional.26.desc
	picture = GFX_OMO_2022_event_picture_13
	
	is_triggered_only = yes
	fire_only_once = yes
	
	option = { #
		name = OMO_aprilfools_regional.26.a
		ai_chance = { factor = 1 }
		
	}
}

country_event = { # OMO_the_grand_military_academy_of_magadan: Japan
	id = OMO_aprilfools_regional.27
	immediate = { log = "[GetDateText]: [Root.GetName]: event OMO_aprilfools_regional.27" }
	title = OMO_aprilfools_regional.27.t
	desc = OMO_aprilfools_regional.27.desc
	picture = GFX_OMO_2022_event_picture_13
	
	is_triggered_only = yes
	fire_only_once = yes
	
	option = { #
		name = OMO_aprilfools_regional.27.a
		ai_chance = { factor = 1 }
		
	}
}

country_event = { # OMO_project_shooting_star
	id = OMO_aprilfools_regional.28
	immediate = { log = "[GetDateText]: [Root.GetName]: event OMO_aprilfools_regional.28" }
	title = OMO_aprilfools_regional.28.t
	desc = OMO_aprilfools_regional.28.desc
	picture = GFX_OMO_2022_event_picture_17
	
	is_triggered_only = yes
	fire_only_once = yes
	
	option = { #
		name = OMO_aprilfools_regional.28.a
		ai_chance = { factor = 1 }
		
	}
}

## Superregional Events ##
add_namespace = OMO_aprilfools_superreg

country_event = { # OMO_the_second_allponies_congress
	id = OMO_aprilfools_superreg.1
	immediate = { log = "[GetDateText]: [Root.GetName]: event OMO_aprilfools_superreg.1" }
	title = OMO_aprilfools_superreg.1.t
	desc = OMO_aprilfools_superreg.1.desc
	picture = GFX_OMO_2022_event_picture_2
	
	is_triggered_only = yes
	fire_only_once = yes
	
	option = { #
		name = OMO_aprilfools_superreg.1.a
		ai_chance = { factor = 1 }
		country_event = { id = OMO_aprilfools_superreg.11 days = 4 }
	}
}

country_event = { # OMO_a_newer_economic_policy
	id = OMO_aprilfools_superreg.2
	immediate = { log = "[GetDateText]: [Root.GetName]: event OMO_aprilfools_superreg.2" }
	title = OMO_aprilfools_superreg.2.t
	desc = OMO_aprilfools_superreg.2.desc
	#picture = 
	
	is_triggered_only = yes
	fire_only_once = yes
	
	option = { #
		name = OMO_aprilfools_superreg.2.a
		ai_chance = { factor = 1 }
		
	}
}

country_event = { # OMO_moving_westward
	id = OMO_aprilfools_superreg.3
	immediate = { log = "[GetDateText]: [Root.GetName]: event OMO_aprilfools_superreg.3" }
	title = OMO_aprilfools_superreg.3.t
	desc = OMO_aprilfools_superreg.3.desc
	#picture = 
	
	is_triggered_only = yes
	fire_only_once = yes
	
	option = { #
		name = OMO_aprilfools_superreg.3.a
		ai_chance = { factor = 1 }
		
	}
}

country_event = { # OMO_the_element_of_generosity
	id = OMO_aprilfools_superreg.4
	immediate = { log = "[GetDateText]: [Root.GetName]: event OMO_aprilfools_superreg.4" }
	title = OMO_aprilfools_superreg.4.t
	desc = OMO_aprilfools_superreg.4.desc
	#picture = 
	
	is_triggered_only = yes
	fire_only_once = yes
	
	option = { #
		name = OMO_aprilfools_superreg.4.a
		ai_chance = { factor = 1 }
		
	}
}

country_event = { # OMO_expand_ponification
	id = OMO_aprilfools_superreg.5
	immediate = { log = "[GetDateText]: [Root.GetName]: event OMO_aprilfools_superreg.5" }
	title = OMO_aprilfools_superreg.5.t
	desc = OMO_aprilfools_superreg.5.desc
	#picture = 
	
	is_triggered_only = yes
	fire_only_once = yes
	
	option = { #
		name = OMO_aprilfools_superreg.5.a
		ai_chance = { factor = 1 }
		
	}
}

country_event = { # OMO_friendship_is_magic
	id = OMO_aprilfools_superreg.6
	immediate = { log = "[GetDateText]: [Root.GetName]: event OMO_aprilfools_superreg.6" }
	title = OMO_aprilfools_superreg.6.t
	desc = OMO_aprilfools_superreg.6.desc
	#picture = 
	
	is_triggered_only = yes
	fire_only_once = yes
	
	option = { #
		name = OMO_aprilfools_superreg.6.a
		ai_chance = { factor = 1 }
		
	}
}

country_event = { # Nuke event
	id = OMO_aprilfools_superreg.7
	immediate = { log = "[GetDateText]: [Root.GetName]: event OMO_aprilfools_superreg.7" }
	title = OMO_aprilfools_superreg.7.t
	desc = OMO_aprilfools_superreg.7.desc
	#picture = 
	
	is_triggered_only = yes
	fire_only_once = yes
	
	option = { #
		name = OMO_aprilfools_superreg.7.a
		ai_chance = { factor = 1 }
		custom_effect_tooltip = OMO_aprilfools_superreg.7.a.tt
		hidden_effect = {
			scoped_play_song = "silence_25"
			OMO_2022_nuke = yes
			every_country = {
				news_event = OMO_aprilfools_news.6
			}
			set_variable = { nuclear_stockpile = 1 }
			set_variable = { nuclear_stockpile_k = nuclear_stockpile }
			divide_variable = { nuclear_stockpile_k = 1000 }
			set_variable = { nuclear_global_coverage = 0.1 }
			calculate_strike_capability = yes
			country_event = { # Helper to disable animation from playing when reloading save
				id = OMO_aprilfools.16
				days = 14
			}
		}
	}
}

country_event = { # Epilogue Part 1 of 3
	id = OMO_aprilfools_superreg.8
	immediate = { log = "[GetDateText]: [Root.GetName]: event OMO_aprilfools_superreg.8" }
	title = OMO_aprilfools_superreg.8.t
	desc = OMO_aprilfools_superreg.8.desc
	picture = GFX_report_event_russian_letter
	
	is_triggered_only = yes
	fire_only_once = yes
	
	option = { #
		name = OMO_aprilfools_superreg.8.a
		ai_chance = { factor = 1 }
		set_capital = { state = 397 }
		hidden_effect = {
			country_event = { id = OMO_aprilfools_superreg.9 days = 4 }
		}
	}
}

country_event = { # Epilogue Part 2 of 3
	id = OMO_aprilfools_superreg.9
	immediate = { log = "[GetDateText]: [Root.GetName]: event OMO_aprilfools_superreg.9" }
	title = OMO_aprilfools_superreg.9.t
	desc = OMO_aprilfools_superreg.9.desc
	picture = GFX_report_event_bukharina_1
	
	is_triggered_only = yes
	fire_only_once = yes
	
	option = { #
		name = OMO_aprilfools_superreg.9.a
		ai_chance = { factor = 1 }
		hidden_effect = {
			country_event = { id = OMO_aprilfools_superreg.10 days = 4 }
		}
	}
}

country_event = { # Epilogue Part 3 of 3
	id = OMO_aprilfools_superreg.10
	immediate = { log = "[GetDateText]: [Root.GetName]: event OMO_aprilfools_superreg.10" }
	title = OMO_aprilfools_superreg.10.t
	desc = OMO_aprilfools_superreg.10.desc
	picture = GFX_OMO_2022_event_picture_18
	
	is_triggered_only = yes
	fire_only_once = yes
	
	option = { #
		name = OMO_aprilfools_superreg.10.a
		ai_chance = { factor = 1 }
		custom_effect_tooltip = OMO_aprilfools_superreg.10.a.tt
		hidden_effect = {
			every_country = {
				news_event = OMO_aprilfools_news.3
			}
		}
	}
}

country_event = { # Continuation of The Second Congress
	id = OMO_aprilfools_superreg.11
	immediate = { log = "[GetDateText]: [Root.GetName]: event OMO_aprilfools_superreg.11" }
	title = OMO_aprilfools_superreg.11.t
	desc = OMO_aprilfools_superreg.11.desc
	picture = GFX_report_event_russian_letter
	
	is_triggered_only = yes
	fire_only_once = yes
	
	option = { #
		name = OMO_aprilfools_superreg.11.a
		ai_chance = { factor = 1 }
	}
}

## News events ###
add_namespace = OMO_aprilfools_news

news_event = {
	id = OMO_aprilfools_news.1
	immediate = {log = "[GetDateText]: [Root.GetName]: event OMO_aprilfools_news.1"}
	title = OMO_aprilfools_news.1.t
	desc = OMO_aprilfools_news.1.desc
	picture = GFX_OMO_2022_news_picture_fables
	is_triggered_only = yes

	option = {
		name = OMO_aprilfools_news.1.a
	}
}

news_event = {
	id = OMO_aprilfools_news.2
	immediate = {log = "[GetDateText]: [Root.GetName]: event OMO_aprilfools_news.2"}
	title = OMO_aprilfools_news.2.t
	desc = OMO_aprilfools_news.2.desc
	picture = GFX_OMO_2022_news_picture_fables
	is_triggered_only = yes

	option = {
		name = OMO_aprilfools_news.2.a
	}
}

news_event = {
	id = OMO_aprilfools_news.3
	immediate = {log = "[GetDateText]: [Root.GetName]: event OMO_aprilfools_news.3"}
	title = OMO_aprilfools_news.3.t
	desc = OMO_aprilfools_news.3.desc
	picture = GFX_OMO_2022_news_picture_unification
	is_triggered_only = yes

	option = {
		name = OMO_aprilfools_news.3.a
		# OMO_2022_sunset_superevent is set in startups to fire "Sunset" #
		if = {
			limit = {
				is_ai = no
			}
			set_temp_variable = { TNO_temp_super_event = 87 }
			TNO_fire_super_event = yes
		}
	}
}

news_event = {
	id = OMO_aprilfools_news.4
	immediate = {log = "[GetDateText]: [Root.GetName]: event OMO_aprilfools_news.4"}
	title = OMO_aprilfools_news.4.t
	desc = OMO_aprilfools_news.4.desc
	picture = GFX_OMO_2022_news_picture_unification
	is_triggered_only = yes

	option = {
		name = OMO_aprilfools_news.4.a
		trigger = {
			tag = OMO
		}
		set_country_flag = TNO_closing_screen_show
	}
	option = {
		name = OMO_aprilfools_news.4.a
		trigger = {
			NOT = {
				tag = OMO
			}
		}
	}
}

news_event = {
	id = OMO_aprilfools_news.5
	immediate = {log = "[GetDateText]: [Root.GetName]: event OMO_aprilfools_news.5"}
	title = OMO_aprilfools_news.5.t
	desc = OMO_aprilfools_news.5.desc
	picture = GFX_news_event_russian_crowd
	is_triggered_only = yes

	option = {
		name = OMO_aprilfools_news.4.a
		trigger = {
			tag = OMO
		}
		set_country_flag = TNO_closing_screen_show
	}
	option = {
		name = OMO_aprilfools_news.4.a
		trigger = {
			NOT = {
				tag = OMO
			}
		}
	}
}

news_event = {
	id = OMO_aprilfools_news.6
	immediate = {log = "[GetDateText]: [Root.GetName]: event OMO_aprilfools_news.6"}
	title = OMO_aprilfools_news.6.t
	desc = OMO_aprilfools_news.6.desc
	picture = GFX_news_event_schwarzen_sonne
	is_triggered_only = yes

	option = {
		name = OMO_aprilfools_news.6.a
		
	}
}

### PROJECT FERUS ###
add_namespace = OMO_project_ferus

country_event = { # Project Ferus Begin - 371 days after startup
	id = OMO_project_ferus.6
	immediate = { log = "[GetDateText]: [Root.GetName]: event OMO_aprilfools.6" }
	title = OMO_project_ferus.0.t
	desc = OMO_project_ferus.0.desc
	picture = GFX_OMO_2022_event_picture_19
	
	is_triggered_only = yes
	fire_only_once = yes
	
	option = { #
		name = OMO_project_ferus.0.a
		custom_effect_tooltip = OMO_project_ferus.0.a.tt
		set_country_flag = country_has_gui
		set_country_flag = gui_alert_visible_2
		set_country_flag = OMO_2022_project_ferus_active
		
		add_to_array = { OMO_2022_Ferus_Entries_Array = 102 } # Hark
		set_temp_variable = { temp_id = 6 }
		set_temp_variable = { temp_char = 102 } # Hark
		OMO_2022_Ferus_add_entry_effect = yes
		
		add_to_array = { OMO_2022_Ferus_Entries_Array = 104 } # Stenzland
		set_temp_variable = { temp_id = 18 }
		set_temp_variable = { temp_char = 104 } # Stenzland
		OMO_2022_Ferus_add_entry_effect = yes
	}
}

country_event = { # Fires 426 days after startup
	id = OMO_project_ferus.1
	immediate = {
		log = "[GetDateText]: [Root.GetName]: event OMO_project_ferus.1"
		
		add_to_array = { OMO_2022_Ferus_Entries_Array = 101 } # Faros
		set_temp_variable = { temp_id = 1 }
		set_temp_variable = { temp_char = 101 } # Faros
		OMO_2022_Ferus_add_entry_effect = yes
	}
	title = OMO_project_ferus_generic_title
	desc = OMO_project_ferus_generic_description
	picture = GFX_OMO_2022_event_picture_19
	
	is_triggered_only = yes
	fire_only_once = yes
	
	option = { #
		name = OMO_project_ferus_generic_option
		custom_effect_tooltip = OMO_project_ferus_generic_option_tt
		set_country_flag = gui_alert_visible_2
	}
}

country_event = { # Fires 523 days after startup
	id = OMO_project_ferus.2
	immediate = {
		log = "[GetDateText]: [Root.GetName]: event OMO_project_ferus.2"
		
		set_temp_variable = { temp_id = 2 }
		set_temp_variable = { temp_char = 101 } # Faros
		OMO_2022_Ferus_add_entry_effect = yes
	}
	title = OMO_project_ferus_generic_title
	desc = OMO_project_ferus_generic_description
	picture = GFX_OMO_2022_event_picture_19
	
	is_triggered_only = yes
	fire_only_once = yes
	
	option = { #
		name = OMO_project_ferus_generic_option
		custom_effect_tooltip = OMO_project_ferus_generic_option_tt
		set_country_flag = gui_alert_visible_2
	}
}

country_event = { # Fires 921 days after startup
	id = OMO_project_ferus.3
	immediate = {
		log = "[GetDateText]: [Root.GetName]: event OMO_project_ferus.3"
		
		set_temp_variable = { temp_id = 3 }
		set_temp_variable = { temp_char = 101 } # Faros
		OMO_2022_Ferus_add_entry_effect = yes
	}
	title = OMO_project_ferus_generic_title
	desc = OMO_project_ferus_generic_description
	picture = GFX_OMO_2022_event_picture_19
	
	is_triggered_only = yes
	fire_only_once = yes
	
	option = { #
		name = OMO_project_ferus_generic_option
		custom_effect_tooltip = OMO_project_ferus_generic_option_tt
		set_country_flag = gui_alert_visible_2
	}
}

country_event = { # Fires 1313 days after startup
	id = OMO_project_ferus.4
	immediate = {
		log = "[GetDateText]: [Root.GetName]: event OMO_project_ferus.4" 
		
		set_temp_variable = { temp_id = 4 }
		set_temp_variable = { temp_char = 101 } # Faros
		OMO_2022_Ferus_add_entry_effect = yes
	}
	title = OMO_project_ferus_generic_title
	desc = OMO_project_ferus_generic_description
	picture = GFX_OMO_2022_event_picture_19
	
	is_triggered_only = yes
	fire_only_once = yes
	
	option = { #
		name = OMO_project_ferus_generic_option
		custom_effect_tooltip = OMO_project_ferus_generic_option_tt
		set_country_flag = gui_alert_visible_2
	}
}

country_event = { # Fires 1326 days after startup
	id = OMO_project_ferus.5
	immediate = {
		log = "[GetDateText]: [Root.GetName]: event OMO_project_ferus.5"
		
		set_temp_variable = { temp_id = 5 }
		set_temp_variable = { temp_char = 101 } # Faros
		OMO_2022_Ferus_add_entry_effect = yes
	}
	title = OMO_project_ferus_generic_title
	desc = OMO_project_ferus_generic_description
	picture = GFX_OMO_2022_event_picture_19
	
	is_triggered_only = yes
	fire_only_once = yes
	
	option = { #
		name = OMO_project_ferus_generic_option
		custom_effect_tooltip = OMO_project_ferus_generic_option_tt
		set_country_flag = gui_alert_visible_2
	}
}

country_event = { # Fires 403 days after startup
	id = OMO_project_ferus.7
	immediate = {
		log = "[GetDateText]: [Root.GetName]: event OMO_project_ferus.7"
		
		set_temp_variable = { temp_id = 7 }
		set_temp_variable = { temp_char = 102 } # Hark
		OMO_2022_Ferus_add_entry_effect = yes
	}
	title = OMO_project_ferus_generic_title
	desc = OMO_project_ferus_generic_description
	picture = GFX_OMO_2022_event_picture_19
	
	is_triggered_only = yes
	fire_only_once = yes
	
	option = { #
		name = OMO_project_ferus_generic_option
		custom_effect_tooltip = OMO_project_ferus_generic_option_tt
		set_country_flag = gui_alert_visible_2
	}
}

country_event = { # Fires 415 days after startup
	id = OMO_project_ferus.8
	immediate = {
		log = "[GetDateText]: [Root.GetName]: event OMO_project_ferus.8"
		
		set_temp_variable = { temp_id = 8 }
		set_temp_variable = { temp_char = 102 } # Hark
		OMO_2022_Ferus_add_entry_effect = yes
	}
	title = OMO_project_ferus_generic_title
	desc = OMO_project_ferus_generic_description
	picture = GFX_OMO_2022_event_picture_19
	
	is_triggered_only = yes
	fire_only_once = yes
	
	option = { #
		name = OMO_project_ferus_generic_option
		custom_effect_tooltip = OMO_project_ferus_generic_option_tt
		set_country_flag = gui_alert_visible_2
	}
}

country_event = { # Fires 1319 days after startup
	id = OMO_project_ferus.9
	immediate = {
		log = "[GetDateText]: [Root.GetName]: event OMO_project_ferus.9"
		
		set_temp_variable = { temp_id = 9 }
		set_temp_variable = { temp_char = 102 } # Hark
		OMO_2022_Ferus_add_entry_effect = yes
	}
	title = OMO_project_ferus_generic_title
	desc = OMO_project_ferus_generic_description
	picture = GFX_OMO_2022_event_picture_19
	
	is_triggered_only = yes
	fire_only_once = yes
	
	option = { #
		name = OMO_project_ferus_generic_option
		custom_effect_tooltip = OMO_project_ferus_generic_option_tt
		set_country_flag = gui_alert_visible_2
	}
}

country_event = { # Fires 1466 days after startup
	id = OMO_project_ferus.10
	immediate = {
		log = "[GetDateText]: [Root.GetName]: event OMO_project_ferus.10"
		
		set_temp_variable = { temp_id = 10 }
		set_temp_variable = { temp_char = 102 } # Hark
		OMO_2022_Ferus_add_entry_effect = yes
	}
	title = OMO_project_ferus_generic_title
	desc = OMO_project_ferus_generic_description
	picture = GFX_OMO_2022_event_picture_19
	
	is_triggered_only = yes
	fire_only_once = yes
	
	option = { #
		name = OMO_project_ferus_generic_option
		custom_effect_tooltip = OMO_project_ferus_generic_option_tt
		set_country_flag = gui_alert_visible_2
	}
}

country_event = { # Fires 1795 days after startup
	id = OMO_project_ferus.11
	immediate = {
		log = "[GetDateText]: [Root.GetName]: event OMO_project_ferus.11"
		
		set_temp_variable = { temp_id = 11 }
		set_temp_variable = { temp_char = 102 } # Hark
		OMO_2022_Ferus_add_entry_effect = yes
		
		set_temp_variable = { temp_id = 12 }
		OMO_2022_Ferus_add_entry_effect = yes
	}
	title = OMO_project_ferus_generic_title
	desc = OMO_project_ferus_generic_description
	picture = GFX_OMO_2022_event_picture_19
	
	is_triggered_only = yes
	fire_only_once = yes
	
	option = { #
		name = OMO_project_ferus_generic_option
		custom_effect_tooltip = OMO_project_ferus_generic_option_tt
		set_country_flag = gui_alert_visible_2
	}
}

# For the sake of consistency, id 12 is skipped

country_event = { # Fires 3642 days after startup
	id = OMO_project_ferus.13
	immediate = {
		log = "[GetDateText]: [Root.GetName]: event OMO_project_ferus.13"
		
		set_temp_variable = { temp_id = 13 }
		set_temp_variable = { temp_char = 102 } # Hark
		OMO_2022_Ferus_add_entry_effect = yes
	}
	title = OMO_project_ferus_generic_title
	desc = OMO_project_ferus_generic_description
	picture = GFX_OMO_2022_event_picture_19
	
	is_triggered_only = yes
	fire_only_once = yes
	
	option = { #
		name = OMO_project_ferus_generic_option
		custom_effect_tooltip = OMO_project_ferus_generic_option_tt
		set_country_flag = gui_alert_visible_2
	}
}

country_event = { # Fires 3659 days after startup
	id = OMO_project_ferus.14
	immediate = {
		log = "[GetDateText]: [Root.GetName]: event OMO_project_ferus.14"
		
		set_temp_variable = { temp_id = 14 }
		set_temp_variable = { temp_char = 102 } # Hark
		OMO_2022_Ferus_add_entry_effect = yes
	}
	title = OMO_project_ferus_generic_title
	desc = OMO_project_ferus_generic_description
	picture = GFX_OMO_2022_event_picture_19
	
	is_triggered_only = yes
	fire_only_once = yes
	
	option = { #
		name = OMO_project_ferus_generic_option
		custom_effect_tooltip = OMO_project_ferus_generic_option_tt
		set_country_flag = gui_alert_visible_2
	}
}

country_event = { # Fires 3743 days after startup
	id = OMO_project_ferus.15
	immediate = {
		log = "[GetDateText]: [Root.GetName]: event OMO_project_ferus.15"
		
		set_temp_variable = { temp_id = 15 }
		set_temp_variable = { temp_char = 102 } # Hark
		OMO_2022_Ferus_add_entry_effect = yes
		
		set_temp_variable = { temp_id = 26 }
		set_temp_variable = { temp_char = 107 } # Harris
		OMO_2022_Ferus_add_entry_effect = yes
	}
	title = OMO_project_ferus_generic_title
	desc = OMO_project_ferus_generic_description
	picture = GFX_OMO_2022_event_picture_19
	
	is_triggered_only = yes
	fire_only_once = yes
	
	option = { #
		name = OMO_project_ferus_generic_option
		custom_effect_tooltip = OMO_project_ferus_generic_option_tt
		set_country_flag = gui_alert_visible_2
	}
}

country_event = { # Fires 453 days after startup
	id = OMO_project_ferus.16
	immediate = {
		log = "[GetDateText]: [Root.GetName]: event OMO_project_ferus.16"
		
		add_to_array = { OMO_2022_Ferus_Entries_Array = 103 } # Solovyov
		set_temp_variable = { temp_id = 16 }
		set_temp_variable = { temp_char = 103 } # Solovyov
		OMO_2022_Ferus_add_entry_effect = yes
	}
	title = OMO_project_ferus_generic_title
	desc = OMO_project_ferus_generic_description
	picture = GFX_OMO_2022_event_picture_19
	
	is_triggered_only = yes
	fire_only_once = yes
	
	option = { #
		name = OMO_project_ferus_generic_option
		custom_effect_tooltip = OMO_project_ferus_generic_option_tt
		set_country_flag = gui_alert_visible_2
	}
}

country_event = { # Fires 510 days after startup
	id = OMO_project_ferus.17
	immediate = {
		log = "[GetDateText]: [Root.GetName]: event OMO_project_ferus.17"
		
		set_temp_variable = { temp_id = 17 }
		set_temp_variable = { temp_char = 103 } # Solovyov
		OMO_2022_Ferus_add_entry_effect = yes
	}
	title = OMO_project_ferus_generic_title
	desc = OMO_project_ferus_generic_description
	picture = GFX_OMO_2022_event_picture_19
	
	is_triggered_only = yes
	fire_only_once = yes
	
	option = { #
		name = OMO_project_ferus_generic_option
		custom_effect_tooltip = OMO_project_ferus_generic_option_tt
		set_country_flag = gui_alert_visible_2
	}
}

# 18 is skipped

country_event = { # Fires 1076 days after startup
	id = OMO_project_ferus.19
	immediate = {
		log = "[GetDateText]: [Root.GetName]: event OMO_project_ferus.19"
		
		set_temp_variable = { temp_id = 19 }
		set_temp_variable = { temp_char = 104 } # Stenzland
		OMO_2022_Ferus_add_entry_effect = yes
	}
	title = OMO_project_ferus_generic_title
	desc = OMO_project_ferus_generic_description
	picture = GFX_OMO_2022_event_picture_19
	
	is_triggered_only = yes
	fire_only_once = yes
	
	option = { #
		name = OMO_project_ferus_generic_option
		custom_effect_tooltip = OMO_project_ferus_generic_option_tt
		set_country_flag = gui_alert_visible_2
	}
}

country_event = { # Fires 568 days after startup
	id = OMO_project_ferus.20
	immediate = {
		log = "[GetDateText]: [Root.GetName]: event OMO_project_ferus.20"
		
		add_to_array = { OMO_2022_Ferus_Entries_Array = 105 } # Poal
		set_temp_variable = { temp_id = 20 }
		set_temp_variable = { temp_char = 105 } # Poal
		OMO_2022_Ferus_add_entry_effect = yes
	}
	title = OMO_project_ferus_generic_title
	desc = OMO_project_ferus_generic_description
	picture = GFX_OMO_2022_event_picture_19
	
	is_triggered_only = yes
	fire_only_once = yes
	
	option = { #
		name = OMO_project_ferus_generic_option
		custom_effect_tooltip = OMO_project_ferus_generic_option_tt
		set_country_flag = gui_alert_visible_2
	}
}

country_event = { # Fires 1996 days after startup
	id = OMO_project_ferus.21
	immediate = {
		log = "[GetDateText]: [Root.GetName]: event OMO_project_ferus.21"
		
		set_temp_variable = { temp_id = 21 }
		set_temp_variable = { temp_char = 105 } # Poal
		OMO_2022_Ferus_add_entry_effect = yes
	}
	title = OMO_project_ferus_generic_title
	desc = OMO_project_ferus_generic_description
	picture = GFX_OMO_2022_event_picture_19
	
	is_triggered_only = yes
	fire_only_once = yes
	
	option = { #
		name = OMO_project_ferus_generic_option
		custom_effect_tooltip = OMO_project_ferus_generic_option_tt
		set_country_flag = gui_alert_visible_2
	}
}

country_event = { # Fires 990 days after startup
	id = OMO_project_ferus.22
	immediate = {
		log = "[GetDateText]: [Root.GetName]: event OMO_project_ferus.22"
		
		add_to_array = { OMO_2022_Ferus_Entries_Array = 106 } # Agustin
		set_temp_variable = { temp_id = 22 }
		set_temp_variable = { temp_char = 106 } # Agustin
		OMO_2022_Ferus_add_entry_effect = yes
	}
	title = OMO_project_ferus_generic_title
	desc = OMO_project_ferus_generic_description
	picture = GFX_OMO_2022_event_picture_19
	
	is_triggered_only = yes
	fire_only_once = yes
	
	option = { #
		name = OMO_project_ferus_generic_option
		custom_effect_tooltip = OMO_project_ferus_generic_option_tt
		set_country_flag = gui_alert_visible_2
	}
}

country_event = { # Fires 1000 days after startup
	id = OMO_project_ferus.23
	immediate = {
		log = "[GetDateText]: [Root.GetName]: event OMO_project_ferus.23"
		
		set_temp_variable = { temp_id = 23 }
		set_temp_variable = { temp_char = 106 } # Agustin
		OMO_2022_Ferus_add_entry_effect = yes
	}
	title = OMO_project_ferus_generic_title
	desc = OMO_project_ferus_generic_description
	picture = GFX_OMO_2022_event_picture_19
	
	is_triggered_only = yes
	fire_only_once = yes
	
	option = { #
		name = OMO_project_ferus_generic_option
		custom_effect_tooltip = OMO_project_ferus_generic_option_tt
		set_country_flag = gui_alert_visible_2
	}
}

country_event = { # Fires 1049 days after startup
	id = OMO_project_ferus.24
	immediate = {
		log = "[GetDateText]: [Root.GetName]: event OMO_project_ferus.24"
		
		set_temp_variable = { temp_id = 24 }
		set_temp_variable = { temp_char = 106 } # Agustin
		OMO_2022_Ferus_add_entry_effect = yes
	}
	title = OMO_project_ferus_generic_title
	desc = OMO_project_ferus_generic_description
	picture = GFX_OMO_2022_event_picture_19
	
	is_triggered_only = yes
	fire_only_once = yes
	
	option = { #
		name = OMO_project_ferus_generic_option
		custom_effect_tooltip = OMO_project_ferus_generic_option_tt
		set_country_flag = gui_alert_visible_2
	}
}

country_event = { # Fires 3646 days after startup
	id = OMO_project_ferus.25
	immediate = {
		log = "[GetDateText]: [Root.GetName]: event OMO_project_ferus.25"
		
		set_temp_variable = { temp_id = 35 }
		set_temp_variable = { temp_char = 110 } # Misc.
		OMO_2022_Ferus_add_entry_effect = yes
		
		add_to_array = { OMO_2022_Ferus_Entries_Array = 107 }
		set_temp_variable = { temp_id = 25 }
		set_temp_variable = { temp_char = 107 } # Harris
		OMO_2022_Ferus_add_entry_effect = yes
	}
	title = OMO_project_ferus_generic_title
	desc = OMO_project_ferus_generic_description
	picture = GFX_OMO_2022_event_picture_19
	
	is_triggered_only = yes
	fire_only_once = yes
	
	option = { #
		name = OMO_project_ferus_generic_option
		custom_effect_tooltip = OMO_project_ferus_generic_option_tt
		set_country_flag = gui_alert_visible_2
	}
}

# 26 is skipped

country_event = { # Fires 778 days after startup
	id = OMO_project_ferus.27
	immediate = {
		log = "[GetDateText]: [Root.GetName]: event OMO_project_ferus.27"
		
		add_to_array = { OMO_2022_Ferus_Entries_Array = 108 }
		set_temp_variable = { temp_id = 27 }
		set_temp_variable = { temp_char = 108 } # Owens
		OMO_2022_Ferus_add_entry_effect = yes
	}
	title = OMO_project_ferus_generic_title
	desc = OMO_project_ferus_generic_description
	picture = GFX_OMO_2022_event_picture_19
	
	is_triggered_only = yes
	fire_only_once = yes
	
	option = { #
		name = OMO_project_ferus_generic_option
		custom_effect_tooltip = OMO_project_ferus_generic_option_tt
		set_country_flag = gui_alert_visible_2
	}
}

country_event = { # Fires 1222 days after startup
	id = OMO_project_ferus.28
	immediate = {
		log = "[GetDateText]: [Root.GetName]: event OMO_project_ferus.28"
		
		set_temp_variable = { temp_id = 28 }
		set_temp_variable = { temp_char = 108 } # Owens
		OMO_2022_Ferus_add_entry_effect = yes
	}
	title = OMO_project_ferus_generic_title
	desc = OMO_project_ferus_generic_description
	picture = GFX_OMO_2022_event_picture_19
	
	is_triggered_only = yes
	fire_only_once = yes
	
	option = { #
		name = OMO_project_ferus_generic_option
		custom_effect_tooltip = OMO_project_ferus_generic_option_tt
		set_country_flag = gui_alert_visible_2
	}
}

country_event = { # Fires 1033 days after startup
	id = OMO_project_ferus.29
	immediate = {
		log = "[GetDateText]: [Root.GetName]: event OMO_project_ferus.29"
		
		add_to_array = { OMO_2022_Ferus_Entries_Array = 109 }
		set_temp_variable = { temp_id = 29 }
		set_temp_variable = { temp_char = 109 } # Armstrong
		OMO_2022_Ferus_add_entry_effect = yes
	}
	title = OMO_project_ferus_generic_title
	desc = OMO_project_ferus_generic_description
	picture = GFX_OMO_2022_event_picture_19
	
	is_triggered_only = yes
	fire_only_once = yes
	
	option = { #
		name = OMO_project_ferus_generic_option
		custom_effect_tooltip = OMO_project_ferus_generic_option_tt
		set_country_flag = gui_alert_visible_2
	}
}

country_event = { # Fires 1150 days after startup
	id = OMO_project_ferus.30
	immediate = {
		log = "[GetDateText]: [Root.GetName]: event OMO_project_ferus.30"
		
		set_temp_variable = { temp_id = 30 }
		set_temp_variable = { temp_char = 109 } # Armstrong
		OMO_2022_Ferus_add_entry_effect = yes
	}
	title = OMO_project_ferus_generic_title
	desc = OMO_project_ferus_generic_description
	picture = GFX_OMO_2022_event_picture_19
	
	is_triggered_only = yes
	fire_only_once = yes
	
	option = { #
		name = OMO_project_ferus_generic_option
		custom_effect_tooltip = OMO_project_ferus_generic_option_tt
		set_country_flag = gui_alert_visible_2
	}
}

country_event = { # Fires 3076 days after startup
	id = OMO_project_ferus.31
	immediate = {
		log = "[GetDateText]: [Root.GetName]: event OMO_project_ferus.31"
		
		set_temp_variable = { temp_id = 31 }
		set_temp_variable = { temp_char = 109 } # Armstrong
		OMO_2022_Ferus_add_entry_effect = yes
	}
	title = OMO_project_ferus_generic_title
	desc = OMO_project_ferus_generic_description
	picture = GFX_OMO_2022_event_picture_19
	
	is_triggered_only = yes
	fire_only_once = yes
	
	option = { #
		name = OMO_project_ferus_generic_option
		custom_effect_tooltip = OMO_project_ferus_generic_option_tt
		set_country_flag = gui_alert_visible_2
	}
}

country_event = { # Fires 3087 days after startup
	id = OMO_project_ferus.32
	immediate = {
		log = "[GetDateText]: [Root.GetName]: event OMO_project_ferus.32"
		
		set_temp_variable = { temp_id = 32 }
		set_temp_variable = { temp_char = 109 } # Armstrong
		OMO_2022_Ferus_add_entry_effect = yes
	}
	title = OMO_project_ferus_generic_title
	desc = OMO_project_ferus_generic_description
	picture = GFX_OMO_2022_event_picture_19
	
	is_triggered_only = yes
	fire_only_once = yes
	
	option = { #
		name = OMO_project_ferus_generic_option
		custom_effect_tooltip = OMO_project_ferus_generic_option_tt
		set_country_flag = gui_alert_visible_2
	}
}

country_event = { # Fires 380 days after startup
	id = OMO_project_ferus.33
	immediate = {
		log = "[GetDateText]: [Root.GetName]: event OMO_project_ferus.32"
		
		add_to_array = { 
			array = OMO_2022_Ferus_Entries_Array
			value = 110 
			index = 0
		}
		set_temp_variable = { temp_id = 33 }
		set_temp_variable = { temp_char = 110 } # Misc
		OMO_2022_Ferus_add_entry_effect = yes
	}
	title = OMO_project_ferus_generic_title
	desc = OMO_project_ferus_generic_description
	picture = GFX_OMO_2022_event_picture_19
	
	is_triggered_only = yes
	fire_only_once = yes
	
	option = { #
		name = OMO_project_ferus_generic_option
		custom_effect_tooltip = OMO_project_ferus_generic_option_tt
		set_country_flag = gui_alert_visible_2
	}
}

country_event = { # Fires 2603 days after startup
	id = OMO_project_ferus.34
	immediate = {
		log = "[GetDateText]: [Root.GetName]: event OMO_project_ferus.34"
		
		set_temp_variable = { temp_id = 34 }
		set_temp_variable = { temp_char = 110 } # Misc
		OMO_2022_Ferus_add_entry_effect = yes
	}
	title = OMO_project_ferus_generic_title
	desc = OMO_project_ferus_generic_description
	picture = GFX_OMO_2022_event_picture_19
	
	is_triggered_only = yes
	fire_only_once = yes
	
	option = { #
		name = OMO_project_ferus_generic_option
		custom_effect_tooltip = OMO_project_ferus_generic_option_tt
		set_country_flag = gui_alert_visible_2
	}
}

# 35 is skipped

country_event = { # Fires 1568 days after startup
	id = OMO_project_ferus.36
	immediate = {
		log = "[GetDateText]: [Root.GetName]: event OMO_project_ferus.36"
		
		add_to_array = { OMO_2022_Ferus_Entries_Array = 111 }
		set_temp_variable = { temp_id = 36 }
		set_temp_variable = { temp_char = 111 } # Greymane
		OMO_2022_Ferus_add_entry_effect = yes
	}
	title = OMO_project_ferus_generic_title
	desc = OMO_project_ferus_generic_description
	picture = GFX_OMO_2022_event_picture_19
	
	is_triggered_only = yes
	fire_only_once = yes
	
	option = { #
		name = OMO_project_ferus_generic_option
		custom_effect_tooltip = OMO_project_ferus_generic_option_tt
		set_country_flag = gui_alert_visible_2
	}
}

country_event = { # Fires 1573 days after startup
	id = OMO_project_ferus.37
	immediate = {
		log = "[GetDateText]: [Root.GetName]: event OMO_project_ferus.37"
		
		set_temp_variable = { temp_id = 37 }
		set_temp_variable = { temp_char = 111 } # Greymane
		OMO_2022_Ferus_add_entry_effect = yes
	}
	title = OMO_project_ferus_generic_title
	desc = OMO_project_ferus_generic_description
	picture = GFX_OMO_2022_event_picture_19
	
	is_triggered_only = yes
	fire_only_once = yes
	
	option = { #
		name = OMO_project_ferus_generic_option
		custom_effect_tooltip = OMO_project_ferus_generic_option_tt
		set_country_flag = gui_alert_visible_2
	}
}

country_event = { # Fires 1626 days after startup
	id = OMO_project_ferus.38
	immediate = {
		log = "[GetDateText]: [Root.GetName]: event OMO_project_ferus.38"
		
		set_temp_variable = { temp_id = 38 }
		set_temp_variable = { temp_char = 111 } # Greymane
		OMO_2022_Ferus_add_entry_effect = yes
	}
	title = OMO_project_ferus_generic_title
	desc = OMO_project_ferus_generic_description
	picture = GFX_OMO_2022_event_picture_19
	
	is_triggered_only = yes
	fire_only_once = yes
	
	option = { #
		name = OMO_project_ferus_generic_option
		custom_effect_tooltip = OMO_project_ferus_generic_option_tt
		set_country_flag = gui_alert_visible_2
	}
}

country_event = { # Fires 2057 days after startup
	id = OMO_project_ferus.39
	immediate = {
		log = "[GetDateText]: [Root.GetName]: event OMO_project_ferus.39"
		
		set_temp_variable = { temp_id = 39 }
		set_temp_variable = { temp_char = 111 } # Greymane
		OMO_2022_Ferus_add_entry_effect = yes
	}
	title = OMO_project_ferus_generic_title
	desc = OMO_project_ferus_generic_description
	picture = GFX_OMO_2022_event_picture_19
	
	is_triggered_only = yes
	fire_only_once = yes
	
	option = { #
		name = OMO_project_ferus_generic_option
		custom_effect_tooltip = OMO_project_ferus_generic_option_tt
		set_country_flag = gui_alert_visible_2
	}
}

country_event = { # Fires 2712 days after startup
	id = OMO_project_ferus.40
	immediate = {
		log = "[GetDateText]: [Root.GetName]: event OMO_project_ferus.40"
		
		set_temp_variable = { temp_id = 40 }
		set_temp_variable = { temp_char = 111 } # Greymane
		OMO_2022_Ferus_add_entry_effect = yes
	}
	title = OMO_project_ferus_generic_title
	desc = OMO_project_ferus_generic_description
	picture = GFX_OMO_2022_event_picture_19
	
	is_triggered_only = yes
	fire_only_once = yes
	
	option = { #
		name = OMO_project_ferus_generic_option
		custom_effect_tooltip = OMO_project_ferus_generic_option_tt
		set_country_flag = gui_alert_visible_2
	}
}

country_event = { # Fires 1783 days after startup
	id = OMO_project_ferus.41
	immediate = {
		log = "[GetDateText]: [Root.GetName]: event OMO_project_ferus.41"
		
		set_temp_variable = { temp_id = 41 }
		set_temp_variable = { temp_char = 104 } # Stenzland
		OMO_2022_Ferus_add_entry_effect = yes
	}
	title = OMO_project_ferus_generic_title
	desc = OMO_project_ferus_generic_description
	picture = GFX_OMO_2022_event_picture_19
	
	is_triggered_only = yes
	fire_only_once = yes
	
	option = { #
		name = OMO_project_ferus_generic_option
		custom_effect_tooltip = OMO_project_ferus_generic_option_tt
		set_country_flag = gui_alert_visible_2
	}
}
