﻿###########################
# Unit Leader Events
###########################

add_namespace = ace_promoted
add_namespace = ace_died
add_namespace = ace_killed_by_ace
add_namespace = ace_killed_other_ace
add_namespace = aces_killed_each_other


add_namespace = unit_leader_events
add_namespace = operative_events

# Notification event that leader has gotten sick
unit_leader_event = {
	id = unit_leader_events.1
	title = unit_leader_events.1.t
	desc = unit_leader_events.1.d
	
	picture = GFX_report_event_military_planning

	is_triggered_only = yes

	immediate = {
		log = "[GetDateText]: [Root.GetName]: event unit_leader_events.1"
		hidden_effect = {
			FROM = {
				set_unit_leader_flag = {
					flag = recently_sick
					value = 1
					days = 180
				}
			}
		}
	}

	option = {
		name = unit_leader_events.1.a
		effect_tooltip = {
			FROM = {
				add_timed_unit_leader_trait = {
					trait = sick
					days = 45
				}
			}
		}
	}	
}

# Notification event that leader has been wounded
unit_leader_event = {
	id = unit_leader_events.2
	title = unit_leader_events.2.t
	desc = unit_leader_events.2.d
	
	picture = GFX_report_event_military_planning

	is_triggered_only = yes

	immediate = {
		log = "[GetDateText]: [Root.GetName]: event unit_leader_events.2"
	}

	option = {
		name = unit_leader_events.2.a
		effect_tooltip = {
			FROM = {
				add_timed_unit_leader_trait = {
					trait = wounded
					days = 60
				}
			}
		}
	}	
}

#operative event - operative captured
operative_leader_event = {
	id = operative_events.1
	title = operative_events.1.t
	desc = operative_events.1.desc

	is_triggered_only = yes

	major = no

	option = {
		name = operative_events.1.a
		
	}
}

#operative event - operative forced into hiding
operative_leader_event = {
	id = operative_events.2
	title = operative_events.2.t
	desc = operative_events.2.desc

	is_triggered_only = yes

	major = no

	option = {
		name = operative_events.2.a
		
	}
}

#operative event - operative killed
operative_leader_event = {
	id = operative_events.3
	title = operative_events.3.t
	desc = operative_events.3.desc

	is_triggered_only = yes

	major = no

	option = {
		name = operative_events.3.a
		
	}
}

#operative event - operative harmed
operative_leader_event = {
	id = operative_events.4
	title = operative_events.4.t
	desc = operative_events.4.desc

	is_triggered_only = yes

	major = no

	option = {
		name = operative_events.4.a
		
	}
}

#operative event - operative turned
operative_leader_event = {
	id = operative_events.5
	title = operative_events.5.t
	desc = operative_events.5.desc

	is_triggered_only = yes

	major = no

	option = {
		name = operative_events.5.a
		add_unit_leader_trait = operative_double_agent
	}
}

#operative event - nation is informed they captured an agent
operative_leader_event = {
	id = operative_events.6
	title = operative_events.6.t
	desc = operative_events.6.desc

	is_triggered_only = yes

	major = no

	option = {
		name = operative_events.6.a
	}
}

# New ace has been promoted
country_event = {
	id = ace_promoted.1
	title = ace_promoted.1.t
	desc = {
		text = ace_promoted.1.d
		trigger = {
			NOT = { tag = GER }
			NOT = { tag = ITA }
			NOT = { tag = FRA }
			NOT = { tag = JAP }
			NOT = { tag = USA }
			NOT = { tag = ENG }
			NOT = { tag = SOV }
		}
	}
	desc = {
		text = ace_promoted.1.d_major
		trigger = {
			OR = {
				tag = GER
				tag = ITA
				tag = FRA
				tag = JAP
				tag = USA
				tag = ENG
				tag = SOV
			}
		}
	}
	picture = GFX_report_event_ace_promoted
	
	is_triggered_only = yes
	
	option = {
		name = ace_promoted.1.a
	}
}

country_event = {
	id = ace_promoted.2
	title = ace_promoted.2.t
	desc = {
		text = ace_promoted.1.d
		trigger = {
			NOT = { tag = GER }
			NOT = { tag = ITA }
			NOT = { tag = FRA }
			NOT = { tag = JAP }
			NOT = { tag = USA }
			NOT = { tag = ENG }
			NOT = { tag = SOV }
		}
	}
	desc = {
		text = ace_promoted.1.d_major
		trigger = {
			OR = {
				tag = GER
				tag = ITA
				tag = FRA
				tag = JAP
				tag = USA
				tag = ENG
				tag = SOV
			}
		}
	}
	picture = GFX_report_event_ace_promoted
	
	is_triggered_only = yes
	
	option = {
		name = ace_promoted.1.a	
	}
}

# Ace died
country_event = {
	id = ace_died.1
	title = ace_died.1.t	
	desc = {
		text = ace_died.1.d
		trigger = {
			NOT = { tag = GER }
			NOT = { tag = ITA }
			NOT = { tag = FRA }
			NOT = { tag = JAP }
			NOT = { tag = USA }
			NOT = { tag = ENG }
			NOT = { tag = SOV }
		}
	}
	desc = {
		text = ace_died.1.d_major
		trigger = {
			OR = {
				tag = GER 
				tag = ITA 
				tag = FRA 
				tag = JAP 
				tag = USA 
				tag = ENG
				tag = SOV
			} 
		}
	}
	picture = GFX_report_event_ace_died
	
	is_triggered_only = yes
	
	option = {
		name = ace_died.1.a
	}
}

# Ace killed by other Ace
country_event = {
	id = ace_killed_by_ace.1
	title = ace_killed_by_ace.1.t
	desc = {
		text = ace_killed_by_ace.1.d
		#Don't show equipment name for countried with default names, e.g. Fighter I
		trigger = {
			OR = {
				NOT = {
					PREV = { 
						OWNER = {
							OR = {
								tag = GER 
								tag = ITA 
								tag = FRA 
								tag = JAP 
								tag = USA 
								tag = ENG
								tag = SOV
							} 
						} 
					}
				}
				NOT = {
					FROM = { 
						OWNER = {
							OR = {
								tag = GER 
								tag = ITA 
								tag = FRA 
								tag = JAP 
								tag = USA 
								tag = ENG
								tag = SOV
							} 
						}
					}
				}
			}
		}
	}
	desc = {
		text = ace_killed_by_ace.1.d_major
		#We're only showing wing name for the countries that have nicely named planes
		trigger = {
			PREV = { 
				OWNER = {
					OR = {
						tag = GER 
						tag = ITA 
						tag = FRA 
						tag = JAP 
						tag = USA 
						tag = ENG
						tag = SOV
					} 
				}
			}
			FROM = { 
				OWNER = {
					OR = {
						tag = GER 
						tag = ITA 
						tag = FRA 
						tag = JAP 
						tag = USA 
						tag = ENG
						tag = SOV
					} 
				}
			}
		}
	}
	picture = GFX_report_event_ace_died
	
	is_triggered_only = yes
	
	option = {
		name = ace_killed_by_ace.1.a
	}
}

# Ace killed other nations Ace
country_event = {
	id = ace_killed_other_ace.1
	title = ace_killed_other_ace.1.t
	desc = {
		text = ace_killed_other_ace.1.d
		#Don't show equipment name for countried with default names, e.g. Fighter I
		trigger = {
			OR = {
				NOT = {
					PREV = { 
						OWNER = {
							OR = {
								tag = GER 
								tag = ITA 
								tag = FRA 
								tag = JAP 
								tag = USA 
								tag = ENG
								tag = SOV
							} 
						} 
					}
				}
				NOT = {
					FROM = { 
						OWNER = {
							OR = {
								tag = GER 
								tag = ITA 
								tag = FRA 
								tag = JAP 
								tag = USA 
								tag = ENG
								tag = SOV
							} 
						}
					}
				}
			}
		}
	}
	desc = {
		text = ace_killed_other_ace.1.d_major
		#We're only showing wing name for the countries that have nicely named planes
		trigger = {
			PREV = { 
				OWNER = {
					OR = {
						tag = GER 
						tag = ITA 
						tag = FRA 
						tag = JAP 
						tag = USA 
						tag = ENG
						tag = SOV
					} 
				}
			}
			FROM = { 
				OWNER = {
					OR = {
						tag = GER 
						tag = ITA 
						tag = FRA 
						tag = JAP 
						tag = USA 
						tag = ENG
						tag = SOV
					} 
				}
			}
		}
	}
	picture = GFX_report_event_ace_died
	
	is_triggered_only = yes
	
	option = {
		name = ace_killed_other_ace.1.a
	}
}

# Ace killed eachother
country_event = {
	id = aces_killed_each_other.1
	title = aces_killed_each_other.1.t
	desc = {
		text = aces_killed_each_other.1.d
		#Don't show equipment name for countried with default names, e.g. Fighter I
		trigger = {
			OR = {
				NOT = {
					PREV = { 
						OWNER = {
							OR = {
								tag = GER 
								tag = ITA 
								tag = FRA 
								tag = JAP 
								tag = USA 
								tag = ENG
								tag = SOV
							} 
						} 
					}
				}
				NOT = {
					FROM = { 
						OWNER = {
							OR = {
								tag = GER 
								tag = ITA 
								tag = FRA 
								tag = JAP 
								tag = USA 
								tag = ENG
								tag = SOV
							} 
						}
					} 
				}
			}
		}
	}
	desc = {
		text = aces_killed_each_other.1.d_major
		#We're only showing wing name for the countries that have nicely named planes
		trigger = {
			PREV = { 
				OWNER = {
					OR = {
						tag = GER 
						tag = ITA 
						tag = FRA 
						tag = JAP 
						tag = USA 
						tag = ENG
						tag = SOV
					} 
				}
			}
			FROM = { 
				OWNER = {
					OR = {
						tag = GER 
						tag = ITA 
						tag = FRA 
						tag = JAP 
						tag = USA 
						tag = ENG
						tag = SOV
					} 
				}
			}
		}
	}	
	picture = GFX_report_event_ace_died
	
	is_triggered_only = yes
	
	option = {
		name = aces_killed_each_other.1.a
	}
}