units = {                            
    fleet = {
    name = "First Fleet"			
        naval_base = 10980 #Rio De Janerio
        task_force = {
            name = "Minas Geras Group"			
            location = 10980
            ship = { name = "MB Minas Gerais" definition = carrier start_experience_factor = 0.25 equipment = { ship_hull_carrier_2 = { amount = 1 owner = BRA version_name = "Colosso Class" } }
                air_wings = {
                    cv_jet_fighter_equipment_1 =  { owner = "BRA" amount = 16 } # historical: 16
                    cv_CAS_equipment_1 =  { owner = "BRA" amount = 30 } # historical: 30
                }
            }  
            ship = { name = "MB Barroso" definition = cruiser equipment = { ship_hull_cruiser_2 = { amount = 1 owner = BRA version_name = "Ipanema Class" } } }
            ship = { name = "MB Para" definition = destroyer equipment = { ship_hull_light_3 = { amount = 1 owner = BRA version_name = "Fletcher Class" } } }
            ship = { name = "MB Paraiba" definition = destroyer equipment = { ship_hull_light_3 = { amount = 1 owner = BRA version_name = "Fletcher Class" } } }
            ship = { name = "MB Paraná" definition = destroyer equipment = { ship_hull_light_3 = { amount = 1 owner = BRA version_name = "Fletcher Class" } } }
            ship = { name = "MB Pernambuco" definition = destroyer equipment = { ship_hull_light_3 = { amount = 1 owner = BRA version_name = "Fletcher Class" } } }
            ship = { name = "MB Bertioga" definition = frigate equipment = { ship_hull_more_light_2 = { amount = 1 owner = BRA version_name = "Cannon Class" } } }
            ship = { name = "MB Bocaina" definition = frigate equipment = { ship_hull_more_light_2 = { amount = 1 owner = BRA version_name = "Cannon Class" } } }
            ship = { name = "MB Bracui" definition = frigate equipment = { ship_hull_more_light_2 = { amount = 1 owner = BRA version_name = "Cannon Class" } } }
            ship = { name = "MB Baependi" definition = frigate equipment = { ship_hull_more_light_2 = { amount = 1 owner = BRA version_name = "Cannon Class" } } }
            }
        task_force = {
            name = "Sao Paulo Group"			
            location = 5112
            ship = { name = "MB Almirante Tamandaré" definition = cruiser equipment = { ship_hull_cruiser_2 = { amount = 1 owner = BRA version_name = "Ipanema Class" } } }
            ship = { name = "MB Gomes" definition = cruiser equipment = { ship_hull_cruiser_2 = { amount = 1 owner = BRA version_name = "Ipanema Class" } } }
            ship = { name = "MB Marcílio Dias" definition = destroyer equipment = { ship_hull_light_1 = { amount = 1 owner = BRA version_name = "Marcílio Dias Class" } } }
            ship = { name = "MB Mariz e Barros" definition = destroyer equipment = { ship_hull_light_1 = { amount = 1 owner = BRA version_name = "Marcílio Dias Class" } } }
            ship = { name = "MB Greenhalgh" definition = destroyer equipment = { ship_hull_light_1 = { amount = 1 owner = BRA version_name = "Marcílio Dias Class" } } }
            ship = { name = "MB Babitonga" definition = frigate equipment = { ship_hull_more_light_2 = { amount = 1 owner = BRA version_name = "Cannon Class" } } }
            ship = { name = "MB Bauru" definition = frigate equipment = { ship_hull_more_light_2 = { amount = 1 owner = BRA version_name = "Cannon Class" } } }
            ship = { name = "MB Beberibe" definition = frigate equipment = { ship_hull_more_light_2 = { amount = 1 owner = BRA version_name = "Cannon Class" } } }
            ship = { name = "MB Benevente" definition = frigate equipment = { ship_hull_more_light_2 = { amount = 1 owner = BRA version_name = "Cannon Class" } } }
            }
            task_force = {
            name = "Sao Paulo Group"			
            location = 5112
            ship = { name = "MB Manaus" definition = cruiser equipment = { ship_hull_cruiser_2 = { amount = 1 owner = BRA version_name = "Ipanema Class" } } }
            ship = { name = "MB Uberlandia" definition = cruiser equipment = { ship_hull_cruiser_2 = { amount = 1 owner = BRA version_name = "Ipanema Class" } } }
            ship = { name = "MB Acre" definition = destroyer equipment = { ship_hull_light_2 = { amount = 1 owner = BRA version_name = "Acre Class" } } }
            ship = { name = "MB Ajuricaba" definition = destroyer equipment = { ship_hull_light_2 = { amount = 1 owner = BRA version_name = "Acre Class" } } }
            ship = { name = "MB Amazonas" definition = destroyer equipment = { ship_hull_light_2 = { amount = 1 owner = BRA version_name = "Acre Class" } } }
            ship = { name = "MB Apa" definition = destroyer equipment = { ship_hull_light_2 = { amount = 1 owner = BRA version_name = "Acre Class" } } }
            ship = { name = "MB Araguarí" definition = destroyer equipment = { ship_hull_light_2 = { amount = 1 owner = BRA version_name = "Acre Class" } } }
            ship = { name = "MB Anápolis" definition = destroyer equipment = { ship_hull_light_2 = { amount = 1 owner = BRA version_name = "Acre Class" } } }
            ship = { name = "MB Aracaju" definition = destroyer equipment = { ship_hull_light_2 = { amount = 1 owner = BRA version_name = "Acre Class" } } }
            }
        } 
        fleet = {
        name = "Submarine Fleet"		
        naval_base = 10946
        task_force = {
            name = "Submarine Group"			
            location = 10946
            ship = { name = "MB S-14" definition = submarine equipment = { ship_hull_submarine_2 = { amount = 1 owner = BRA version_name = "Gato Class" } } }
            ship = { name = "MB S-15" definition = submarine equipment = { ship_hull_submarine_2 = { amount = 1 owner = BRA version_name = "Gato Class" } } }
            ship = { name = "MB S-16" definition = submarine equipment = { ship_hull_submarine_2 = { amount = 1 owner = BRA version_name = "Gato Class" } } }
            ship = { name = "MB S-17" definition = submarine equipment = { ship_hull_submarine_2 = { amount = 1 owner = BRA version_name = "Gato Class" } } }
            ship = { name = "MB S-18" definition = submarine equipment = { ship_hull_submarine_2 = { amount = 1 owner = BRA version_name = "Gato Class" } } }
            ship = { name = "MB S-19" definition = submarine equipment = { ship_hull_submarine_2 = { amount = 1 owner = BRA version_name = "Gato Class" } } }
            ship = { name = "MB S-20" definition = submarine equipment = { ship_hull_submarine_2 = { amount = 1 owner = BRA version_name = "Gato Class" } } }
            ship = { name = "MB S-21" definition = submarine equipment = { ship_hull_submarine_2 = { amount = 1 owner = BRA version_name = "Gato Class" } } }
        }
    } 
}       