﻿division_template = {
	name = "Infanterie-Abteilung"
	division_names_group = CAU_infantry
	regiments = {
		infantry = { x = 0 y = 0 }
		infantry = { x = 0 y = 1 }
		infantry = { x = 0 y = 2 }
		infantry = { x = 1 y = 0 }
		infantry = { x = 1 y = 1 }
		infantry = { x = 1 y = 2 }
		infantry = { x = 2 y = 0 }
	}
	support = {
	    artillery = { x = 0 y = 0 }
		engineer = { x = 0 y = 1 }
	}
}

division_template = {
	name = "Gebirgsjäger"
	division_names_group = CAU_mountaineers
	regiments = {
		mountaineers = { x = 0 y = 0 }
		mountaineers = { x = 0 y = 1 }
		mountaineers = { x = 0 y = 2 }
		mountaineers = { x = 1 y = 0 }
		mountaineers = { x = 1 y = 1 }
		mountaineers = { x = 1 y = 2 }
	}
	support = {
        recon = { x = 0 y = 0 }
		engineer = { x = 0 y = 1 }
	}
}

division_template = {
	name = "Waffen-SS"
	division_names_group = CAU_panzer
	regiments = {
		motorized = { x = 0 y = 0 }
		motorized = { x = 0 y = 1 }
		motorized = { x = 0 y = 2 }
		motorized = { x = 1 y = 0 }
		motorized = { x = 1 y = 1 }
		motorized = { x = 1 y = 2 }
		MBT = { x = 2 y = 0 }
		MBT = { x = 2 y = 1 }
	}
	support = {
        military_police = { x = 0 y = 0 }
		maintenance_company = { x = 0 y = 1 }
		mot_recon = { x = 0 y = 2 }
	}
}

units = {
	division = {
		division_name = {
			is_name_ordered = yes
			name_order = 1
		}
		location="3734"
		division_template= "Infanterie-Abteilung"
		start_experience_factor = 0.2
		start_equipment_factor = 0.8
	}
	division = {
		division_name = {
			is_name_ordered = yes
			name_order = 2
		}
		location="748"
		division_template= "Infanterie-Abteilung"
		start_experience_factor = 0.2
		start_equipment_factor = 0.8
	}
	division = {
		division_name = {
			is_name_ordered = yes
			name_order = 3
		}
		location="6701"
		division_template= "Infanterie-Abteilung"
		start_experience_factor = 0.2
		start_equipment_factor = 0.8
	}
	division = {
		division_name = {
			is_name_ordered = yes
			name_order = 1
		}
		location="9649"
		division_template= "Gebirgsjäger"
		start_experience_factor = 0.8
		start_equipment_factor = 0.8
	}
	division = {
		division_name = {
			is_name_ordered = yes
			name_order = 1
		}
		location="3734"
		division_template= "Waffen-SS"
		start_experience_factor = 0.2
		start_equipment_factor = 0.8
	}
	division = {
		division_name = {
			is_name_ordered = yes
			name_order = 2
		}
		location="7661"
		division_template= "Waffen-SS"
		start_experience_factor = 0.2
		start_equipment_factor = 0.8
	}
}

### Starting Production ###

instant_effect = {

    add_equipment_production = {
		equipment = {
			type = infantry_equipment_2
			creator = "CAU"
		}
		requested_factories = 3
		progress = 0.3
		efficiency = 50
	}
	
	add_equipment_production = {
		equipment = {
			type = support_equipment_1
			creator = "CAU"
		}
		requested_factories = 1
		progress = 0.3
		efficiency = 50
	}
	
	add_equipment_production = {
		equipment = {
			type = artillery_equipment_3
			creator = "CAU"
		}
		requested_factories = 1
		progress = 0.6
		efficiency = 50
	}
	
	add_equipment_production = {
		equipment = {
			type = anti_tank_equipment_0
			creator = "CAU"
		}
		requested_factories = 1
		progress = 0.2
		efficiency = 50
	}

	add_equipment_production = {
		equipment = {
			type = motorized_equipment_1
			creator = "CAU"
		}
		requested_factories = 1
		progress = 0.6
		efficiency = 50
	}

	if = {
		limit = {
			NOT = {
				has_dlc = "No Step Back"
			}
		}
		add_equipment_production = {
			equipment = {
				type = MBT_equipment_1
				creator = "CAU"
			}
			requested_factories = 1
			progress = 0.2
			efficiency = 50
		}
	}
	else_if = {
		limit = {
			has_dlc = "No Step Back"
		}
		add_equipment_production = {
			equipment = {
				type = MBT_chassis_1
				creator = "CAU"
			}
			requested_factories = 1
			progress = 0.2
			efficiency = 50
		}
	}
}