﻿division_template = {
	name = "French Exiled Infantry Division"

	regiments = {
		infantry = { x = 0 y = 0 }
		infantry = { x = 0 y = 1 }
        infantry = { x = 1 y = 0 }
		infantry = { x = 1 y = 1 }
        infantry = { x = 2 y = 0 }
		infantry = { x = 2 y = 1 }
	}

	support = {
        artillery = { x = 0 y = 0 }
	}
}
units = {
	division= {
		name = "Free French Exiled Infantry Division"
		location = 7959
		division_template = "French Exiled Infantry Division"
		start_equipment_factor = 1
		start_experience_factor = 0.5
	}
}