division_template = {
	name = "Wanatiah"			

	regiments = {
		elite_infantry = { x = 0 y = 0 }
		elite_infantry = { x = 0 y = 1 }
		elite_infantry = { x = 0 y = 2 }
		elite_infantry = { x = 0 y = 2 }
		elite_infantry = { x = 0 y = 2 }
        elite_infantry = { x = 0 y = 3 }
	}
	support = {
		recon = { x = 0 y = 0 }
		engineer = { x = 0  y = 1 }
	}
}
division_template = {
	name = "MPAJA Independent Regiment"

	regiments = {
		infantry = { x = 0 y = 0 }
		infantry = { x = 0 y = 1 }
		infantry = { x = 0 y = 2 }
		light_infantry = { x = 1 y = 0 }
		light_infantry = { x = 1 y = 1 }
		light_infantry = { x = 1 y = 2 }
	}
	support = {
		engineer = { x = 0  y = 0 }
	}
}
division_template = {
	name = "MPAJA Elite Regiment"

	regiments = {
		elite_infantry = { x = 0 y = 0 }
		elite_infantry = { x = 0 y = 1 }
		elite_infantry = { x = 0 y = 2 }
		elite_infantry = { x = 1 y = 0 }
		elite_infantry = { x = 1 y = 1 }
		elite_infantry = { x = 1 y = 2 }
	}
	support = {
		engineer = { x = 0  y = 0 }
		artillery = { x = 0 y = 1 }
	}
}

units = {
	division= {	
		name = "Askar Wataniah"
		location = 4384
		division_template = "Wanatiah"
		start_equipment_factor = 1.0
		start_experience_factor = 0.7
	}
	division= {	
		name = "1st MPAJA Independent Regiment"
		location = 4384
		division_template = "MPAJA Independent Regiment"
		start_equipment_factor = 1.0
		start_experience_factor = 0.4
	}
	division= {	
		name = "2nd MPAJA Independent Regiment"
		location = 4384
		division_template = "MPAJA Independent Regiment"
		start_equipment_factor = 1.0
		start_experience_factor = 0.4
	}
	division= {	
		name = "3rd MPAJA Independent Regiment"
		location = 4384
		division_template = "MPAJA Independent Regiment"
		start_equipment_factor = 1.0
		start_experience_factor = 0.4
	}
	division= {	
		name = "4th MPAJA Independent Regiment"
		location = 14701
		division_template = "MPAJA Independent Regiment"
		start_equipment_factor = 1.0
		start_experience_factor = 0.4
	}
	division= {	
		name = "5th MPAJA Independent Regiment"
		location = 14697
		division_template = "MPAJA Independent Regiment"
		start_equipment_factor = 1.0
		start_experience_factor = 0.4
	}
	division= {	
		name = "6th MPAJA Independent Regiment"
		location = 14697
		division_template = "MPAJA Independent Regiment"
		start_equipment_factor = 1.0
		start_experience_factor = 0.4
	}
	division= {	
		name = "7th MPAJA Independent Regiment"
		location = 14697
		division_template = "MPAJA Independent Regiment"
		start_equipment_factor = 1.0
		start_experience_factor = 0.4
	}
	division= {	
		name = "8th MPAJA Independent Regiment"
		location = 14702
		division_template = "MPAJA Independent Regiment"
		start_equipment_factor = 1.0
		start_experience_factor = 0.4
	}
	division= {	
		name = "1st Elite Regiment"
		location = 12215
		division_template = "MPAJA Elite Regiment"
		start_equipment_factor = 1.0
		start_experience_factor = 0.7
	}
	division= {	
		name = "2nd Elite Regiment"
		location = 14697
		division_template = "MPAJA Elite Regiment"
		start_equipment_factor = 1.0
		start_experience_factor = 0.7
	}
}