﻿division_template = {
	name = "Elitarna Dywizja"

	regiments = {
		elite_infantry = { x = 0 y = 0 }
		elite_infantry = { x = 0 y = 1 }
		elite_infantry = { x = 0 y = 2 }
		elite_infantry = { x = 1 y = 0 }
		infantry = { x = 1 y = 1 }
		infantry = { x = 0 y = 2 }
	}
	support = {
		artillery = { x = 0 y = 0 }
	}
}

units = {
	division= {
		name = "3. Elitarna Dywizja"
		location = 11537
		division_template = "Elitarna Dywizja"
		start_experience_factor = 0.4
		start_equipment_factor = 0.9
	}
}
