﻿division_template = {
	name = "Respublikanskaya Diviziya"
	division_names_group = TOM_Infantry
	regiments = {
		light_infantry = { x = 0 y = 0 }
		light_infantry = { x = 0 y = 1 }
		light_infantry = { x = 0 y = 2 }
		light_infantry = { x = 1 y = 0 }
		light_infantry = { x = 1 y = 1 }
		light_infantry = { x = 0 y = 2 }
	}
	support = {
		recon = { x = 0 y = 0 }
	}
}

units = {
	division = {
		division_name = {
			is_name_ordered = yes
			name_order = 1
		}
		location = 7789
		division_template= "Respublikanskaya Diviziya"
		start_experience_factor = 0.3
		start_equipment_factor = 0.6
	}
	division = {
		division_name = {
			is_name_ordered = yes
			name_order = 1
		}
		location = 12510
		division_template= "Respublikanskaya Diviziya"
		start_experience_factor = 0.3
		start_equipment_factor = 0.6
	}
	division = {
		division_name = {
			is_name_ordered = yes
			name_order = 1
		}
		location = 7655
		division_template= "Respublikanskaya Diviziya"
		start_experience_factor = 0.2
		start_equipment_factor = 0.6
	}
}
