﻿division_template = {
	name = "Huguo Juntuan"          
	priority = 2
	division_names_group = YUN_NPA_GFJ 
	regiments = {         
		infantry = { x = 0 y = 0 }
		infantry = { x = 1 y = 0 }
		infantry = { x = 2 y = 0 }
		infantry = { x = 0 y = 1 }
		infantry = { x = 1 y = 1 }
		infantry = { x = 2 y = 1 }
		artillery_brigade = {x = 0 y = 2 }
	}
	support = {
		recon = { x = 0 y = 0 }
		artillery = {x = 0 y = 1}
	}
}

units = {
	division = { 
		division_name = {
			is_name_ordered = yes
			name_order = 10
		}
		location = 7549
		division_template = "Huguo Juntuan"
		start_experience_factor = 0.5
		start_equipment_factor = 0.7
	}
	division = { 
		division_name = {
			is_name_ordered = yes
			name_order = 14
		}
		location = 7549
		division_template = "Huguo Juntuan"
		start_experience_factor = 0.5
		start_equipment_factor = 0.7
	}
}